ISO-10303-21;
HEADER;
FILE_DESCRIPTION(('STEP AP203'),'1');
FILE_NAME('E:/RobotParts/CACHE_CAO/CUI/CAD/Temp/pj-002bh.stp','2016-03-18T15:58:18',('TraceParts'),('TraceParts S.A.'),'Spatial InterOp 3D',' ',' ');
FILE_SCHEMA(('CONFIG_CONTROL_DESIGN'));
ENDSEC;
DATA;
#1=DESIGN_CONTEXT('',#27,'design');
#2=APPLICATION_PROTOCOL_DEFINITION('INTERNATIONAL STANDARD','config_control_design',1994,#27);
#3=PRODUCT_CATEGORY_RELATIONSHIP('NONE','NONE',#28,#29);
#4=DATE_AND_TIME(#30,#31);
#5=DATE_TIME_ROLE('creation_date');
#6=DATE_TIME_ROLE('classification_date');
#7=PERSON_AND_ORGANIZATION_ROLE('creator');
#8=PERSON_AND_ORGANIZATION_ROLE('design_supplier');
#9=PERSON_AND_ORGANIZATION_ROLE('classification_officer');
#10=PERSON_AND_ORGANIZATION_ROLE('design_owner');
#11=APPROVAL_PERSON_ORGANIZATION(#32,#33,#34);
#12=APPROVAL_DATE_TIME(#4,#33);
#13=CC_DESIGN_APPROVAL(#33,(#35,#36,#37));
#14=CC_DESIGN_DATE_AND_TIME_ASSIGNMENT(#4,#5,(#37));
#15=CC_DESIGN_DATE_AND_TIME_ASSIGNMENT(#4,#6,(#35));
#16=CC_DESIGN_PERSON_AND_ORGANIZATION_ASSIGNMENT(#32,#10,(#38));
#17=CC_DESIGN_PERSON_AND_ORGANIZATION_ASSIGNMENT(#32,#7,(#37));
#18=CC_DESIGN_PERSON_AND_ORGANIZATION_ASSIGNMENT(#32,#7,(#36));
#19=CC_DESIGN_PERSON_AND_ORGANIZATION_ASSIGNMENT(#32,#8,(#36));
#20=CC_DESIGN_SECURITY_CLASSIFICATION(#35,(#36));
#21=CC_DESIGN_PERSON_AND_ORGANIZATION_ASSIGNMENT(#32,#9,(#35));
#22=SHAPE_DEFINITION_REPRESENTATION(#39,#40);
#23= (GEOMETRIC_REPRESENTATION_CONTEXT(3)GLOBAL_UNCERTAINTY_ASSIGNED_CONTEXT((#43))GLOBAL_UNIT_ASSIGNED_CONTEXT((#45,#46,#47))REPRESENTATION_CONTEXT('NONE','WORKSPACE'));
#27=APPLICATION_CONTEXT('CONFIGURATION CONTROLLED 3D DESIGNS OF MECHANICAL PARTS AND ASSEMBLIES');
#28=PRODUCT_CATEGORY('part','NONE');
#29=PRODUCT_RELATED_PRODUCT_CATEGORY('detail',' ',(#38));
#30=CALENDAR_DATE(2016,18,2);
#31=LOCAL_TIME(16,58,18.0,#49);
#32=PERSON_AND_ORGANIZATION(#50,#51);
#33=APPROVAL(#52,'SOLID MODEL');
#34=APPROVAL_ROLE('APPROVED');
#35=SECURITY_CLASSIFICATION('','',#53);
#36=PRODUCT_DEFINITION_FORMATION_WITH_SPECIFIED_SOURCE(' ','NONE',#38,.NOT_KNOWN.);
#37=PRODUCT_DEFINITION('NONE','NONE',#36,#1);
#38=PRODUCT('1','1','PART-1-DESC',(#54));
#39=PRODUCT_DEFINITION_SHAPE('NONE','NONE',#37);
#40=ADVANCED_BREP_SHAPE_REPRESENTATION('1',(#55,#56),#23);
#43=UNCERTAINTY_MEASURE_WITH_UNIT(LENGTH_MEASURE(1.0E-006),#45,'','');
#45= (CONVERSION_BASED_UNIT('MILLIMETRE',#59)LENGTH_UNIT()NAMED_UNIT(#62));
#46= (NAMED_UNIT(#64)PLANE_ANGLE_UNIT()SI_UNIT($,.RADIAN.));
#47= (NAMED_UNIT(#64)SOLID_ANGLE_UNIT()SI_UNIT($,.STERADIAN.));
#49=COORDINATED_UNIVERSAL_TIME_OFFSET(1,0,.AHEAD.);
#50=PERSON('','UNSPECIFIED',$,$,$,$);
#51=ORGANIZATION('UNSPECIFIED','UNSPECIFIED','UNSPECIFIED');
#52=APPROVAL_STATUS('approved');
#53=SECURITY_CLASSIFICATION_LEVEL('unclassified');
#54=MECHANICAL_CONTEXT('',#27,'mechanical');
#55=MANIFOLD_SOLID_BREP('1',#70);
#56=AXIS2_PLACEMENT_3D('',#71,#72,#73);
#59=LENGTH_MEASURE_WITH_UNIT(LENGTH_MEASURE(1.0),#74);
#62=DIMENSIONAL_EXPONENTS(1.0,0.0,0.0,0.0,0.0,0.0,0.0);
#64=DIMENSIONAL_EXPONENTS(0.0,0.0,0.0,0.0,0.0,0.0,0.0);
#70=CLOSED_SHELL('',(#75,#76,#77,#78,#79,#80,#81,#82,#83,#84,#85,#86,#87,#88,#89,#90,#91,#92,#93,#94,#95,#96,#97,#98,#99,#100,#101,#102,#103,#104,#105,#106,#107,#108,#109,#110,#111,#112,#113,#114,#115,#116,#117,#118,#119,#120,#121,#122,#123,#124,#125,#126,#127,#128,#129,#130,#131,#132,#133));
#71=CARTESIAN_POINT('',(0.0,0.0,0.0));
#72=DIRECTION('',(0.0,0.0,1.0));
#73=DIRECTION('',(1.0,0.0,0.0));
#74= (NAMED_UNIT(#62)LENGTH_UNIT()SI_UNIT(.MILLI.,.METRE.));
#75=ADVANCED_FACE('',(#135),#136,.F.);
#76=ADVANCED_FACE('',(#137),#138,.F.);
#77=ADVANCED_FACE('',(#139),#140,.F.);
#78=ADVANCED_FACE('',(#141),#142,.T.);
#79=ADVANCED_FACE('',(#143),#144,.F.);
#80=ADVANCED_FACE('',(#145),#146,.T.);
#81=ADVANCED_FACE('',(#147),#148,.F.);
#82=ADVANCED_FACE('',(#149),#150,.T.);
#83=ADVANCED_FACE('',(#151,#152),#153,.T.);
#84=ADVANCED_FACE('',(#154),#155,.F.);
#85=ADVANCED_FACE('',(#156),#157,.T.);
#86=ADVANCED_FACE('',(#158),#159,.T.);
#87=ADVANCED_FACE('',(#160),#161,.T.);
#88=ADVANCED_FACE('',(#162),#163,.T.);
#89=ADVANCED_FACE('',(#164),#165,.T.);
#90=ADVANCED_FACE('',(#166),#167,.F.);
#91=ADVANCED_FACE('',(#168,#169),#170,.T.);
#92=ADVANCED_FACE('',(#171),#172,.F.);
#93=ADVANCED_FACE('',(#173),#174,.T.);
#94=ADVANCED_FACE('',(#175),#176,.F.);
#95=ADVANCED_FACE('',(#177),#178,.F.);
#96=ADVANCED_FACE('',(#179),#180,.F.);
#97=ADVANCED_FACE('',(#181,#182),#183,.T.);
#98=ADVANCED_FACE('',(#184),#185,.T.);
#99=ADVANCED_FACE('',(#186),#187,.T.);
#100=ADVANCED_FACE('',(#188),#189,.F.);
#101=ADVANCED_FACE('',(#190),#191,.F.);
#102=ADVANCED_FACE('',(#192),#193,.F.);
#103=ADVANCED_FACE('',(#194),#195,.F.);
#104=ADVANCED_FACE('',(#196),#197,.F.);
#105=ADVANCED_FACE('',(#198),#199,.T.);
#106=ADVANCED_FACE('',(#200),#201,.F.);
#107=ADVANCED_FACE('',(#202),#203,.F.);
#108=ADVANCED_FACE('',(#204),#205,.F.);
#109=ADVANCED_FACE('',(#206,#207),#208,.F.);
#110=ADVANCED_FACE('',(#209),#210,.F.);
#111=ADVANCED_FACE('',(#211,#212),#213,.F.);
#112=ADVANCED_FACE('',(#214,#215),#216,.F.);
#113=ADVANCED_FACE('',(#217),#218,.F.);
#114=ADVANCED_FACE('',(#219,#220),#221,.F.);
#115=ADVANCED_FACE('',(#222),#223,.F.);
#116=ADVANCED_FACE('',(#224),#225,.F.);
#117=ADVANCED_FACE('',(#226),#227,.F.);
#118=ADVANCED_FACE('',(#228),#229,.F.);
#119=ADVANCED_FACE('',(#230,#231),#232,.F.);
#120=ADVANCED_FACE('',(#233),#234,.F.);
#121=ADVANCED_FACE('',(#235,#236),#237,.F.);
#122=ADVANCED_FACE('',(#238),#239,.F.);
#123=ADVANCED_FACE('',(#240),#241,.T.);
#124=ADVANCED_FACE('',(#242),#243,.T.);
#125=ADVANCED_FACE('',(#244),#245,.T.);
#126=ADVANCED_FACE('',(#246),#247,.T.);
#127=ADVANCED_FACE('',(#248),#249,.T.);
#128=ADVANCED_FACE('',(#250),#251,.T.);
#129=ADVANCED_FACE('',(#252),#253,.F.);
#130=ADVANCED_FACE('',(#254),#255,.F.);
#131=ADVANCED_FACE('',(#256),#257,.F.);
#132=ADVANCED_FACE('',(#258),#259,.F.);
#133=ADVANCED_FACE('',(#260),#261,.F.);
#135=FACE_OUTER_BOUND('',#262,.T.);
#136=CYLINDRICAL_SURFACE('',#263,0.750000000000001);
#137=FACE_OUTER_BOUND('',#264,.T.);
#138=CYLINDRICAL_SURFACE('',#265,0.75);
#139=FACE_OUTER_BOUND('',#266,.T.);
#140=CYLINDRICAL_SURFACE('',#267,0.75);
#141=FACE_OUTER_BOUND('',#268,.T.);
#142=CONICAL_SURFACE('',#269,1.05,0.785398163397448);
#143=FACE_OUTER_BOUND('',#270,.T.);
#144=CYLINDRICAL_SURFACE('',#271,3.25);
#145=FACE_OUTER_BOUND('',#272,.T.);
#146=CYLINDRICAL_SURFACE('',#273,1.25);
#147=FACE_OUTER_BOUND('',#274,.T.);
#148=PLANE('',#275);
#149=FACE_OUTER_BOUND('',#276,.T.);
#150=CYLINDRICAL_SURFACE('',#277,1.25);
#151=FACE_OUTER_BOUND('',#278,.T.);
#152=FACE_BOUND('',#279,.T.);
#153=PLANE('',#280);
#154=FACE_OUTER_BOUND('',#281,.T.);
#155=PLANE('',#282);
#156=FACE_OUTER_BOUND('',#283,.T.);
#157=PLANE('',#284);
#158=FACE_OUTER_BOUND('',#285,.T.);
#159=PLANE('',#286);
#160=FACE_OUTER_BOUND('',#287,.T.);
#161=CYLINDRICAL_SURFACE('',#288,1.25);
#162=FACE_OUTER_BOUND('',#289,.T.);
#163=PLANE('',#290);
#164=FACE_OUTER_BOUND('',#291,.T.);
#165=PLANE('',#292);
#166=FACE_OUTER_BOUND('',#293,.T.);
#167=PLANE('',#294);
#168=FACE_OUTER_BOUND('',#295,.T.);
#169=FACE_BOUND('',#296,.T.);
#170=PLANE('',#297);
#171=FACE_OUTER_BOUND('',#298,.T.);
#172=PLANE('',#299);
#173=FACE_OUTER_BOUND('',#300,.T.);
#174=CYLINDRICAL_SURFACE('',#301,4.1);
#175=FACE_OUTER_BOUND('',#302,.T.);
#176=PLANE('',#303);
#177=FACE_OUTER_BOUND('',#304,.T.);
#178=PLANE('',#305);
#179=FACE_OUTER_BOUND('',#306,.T.);
#180=CYLINDRICAL_SURFACE('',#307,3.25);
#181=FACE_OUTER_BOUND('',#308,.T.);
#182=FACE_BOUND('',#309,.T.);
#183=PLANE('',#310);
#184=FACE_OUTER_BOUND('',#311,.T.);
#185=PLANE('',#312);
#186=FACE_OUTER_BOUND('',#313,.T.);
#187=CONICAL_SURFACE('',#314,1.05,0.785398163397448);
#188=FACE_OUTER_BOUND('',#315,.T.);
#189=PLANE('',#316);
#190=FACE_OUTER_BOUND('',#317,.T.);
#191=PLANE('',#318);
#192=FACE_OUTER_BOUND('',#319,.T.);
#193=PLANE('',#320);
#194=FACE_OUTER_BOUND('',#321,.T.);
#195=PLANE('',#322);
#196=FACE_OUTER_BOUND('',#323,.T.);
#197=PLANE('',#324);
#198=FACE_OUTER_BOUND('',#325,.T.);
#199=PLANE('',#326);
#200=FACE_OUTER_BOUND('',#327,.T.);
#201=PLANE('',#328);
#202=FACE_OUTER_BOUND('',#329,.T.);
#203=PLANE('',#330);
#204=FACE_OUTER_BOUND('',#331,.T.);
#205=PLANE('',#332);
#206=FACE_OUTER_BOUND('',#333,.T.);
#207=FACE_BOUND('',#334,.T.);
#208=PLANE('',#335);
#209=FACE_OUTER_BOUND('',#336,.T.);
#210=PLANE('',#337);
#211=FACE_OUTER_BOUND('',#338,.T.);
#212=FACE_BOUND('',#339,.T.);
#213=PLANE('',#340);
#214=FACE_OUTER_BOUND('',#341,.T.);
#215=FACE_BOUND('',#342,.T.);
#216=PLANE('',#343);
#217=FACE_OUTER_BOUND('',#344,.T.);
#218=PLANE('',#345);
#219=FACE_OUTER_BOUND('',#346,.T.);
#220=FACE_BOUND('',#347,.T.);
#221=PLANE('',#348);
#222=FACE_OUTER_BOUND('',#349,.T.);
#223=PLANE('',#350);
#224=FACE_OUTER_BOUND('',#351,.T.);
#225=PLANE('',#352);
#226=FACE_OUTER_BOUND('',#353,.T.);
#227=PLANE('',#354);
#228=FACE_OUTER_BOUND('',#355,.T.);
#229=PLANE('',#356);
#230=FACE_OUTER_BOUND('',#357,.T.);
#231=FACE_BOUND('',#358,.T.);
#232=PLANE('',#359);
#233=FACE_OUTER_BOUND('',#360,.T.);
#234=PLANE('',#361);
#235=FACE_OUTER_BOUND('',#362,.T.);
#236=FACE_BOUND('',#363,.T.);
#237=PLANE('',#364);
#238=FACE_OUTER_BOUND('',#365,.T.);
#239=PLANE('',#366);
#240=FACE_OUTER_BOUND('',#367,.T.);
#241=CYLINDRICAL_SURFACE('',#368,0.5);
#242=FACE_OUTER_BOUND('',#369,.T.);
#243=CYLINDRICAL_SURFACE('',#370,0.5);
#244=FACE_OUTER_BOUND('',#371,.T.);
#245=CYLINDRICAL_SURFACE('',#372,1.25);
#246=FACE_OUTER_BOUND('',#373,.T.);
#247=CYLINDRICAL_SURFACE('',#374,1.25);
#248=FACE_OUTER_BOUND('',#375,.T.);
#249=CYLINDRICAL_SURFACE('',#376,1.5);
#250=FACE_OUTER_BOUND('',#377,.T.);
#251=CYLINDRICAL_SURFACE('',#378,1.5);
#252=FACE_OUTER_BOUND('',#379,.T.);
#253=CYLINDRICAL_SURFACE('',#380,0.75);
#254=FACE_OUTER_BOUND('',#381,.T.);
#255=CYLINDRICAL_SURFACE('',#382,0.75);
#256=FACE_OUTER_BOUND('',#383,.T.);
#257=CYLINDRICAL_SURFACE('',#384,0.750000000000001);
#258=FACE_OUTER_BOUND('',#385,.T.);
#259=PLANE('',#386);
#260=FACE_OUTER_BOUND('',#387,.T.);
#261=PLANE('',#388);
#262=EDGE_LOOP('',(#389,#390,#391,#392));
#263=AXIS2_PLACEMENT_3D('',#393,#394,#395);
#264=EDGE_LOOP('',(#396,#397,#398,#399));
#265=AXIS2_PLACEMENT_3D('',#400,#401,#402);
#266=EDGE_LOOP('',(#403,#404,#405,#406));
#267=AXIS2_PLACEMENT_3D('',#407,#408,#409);
#268=EDGE_LOOP('',(#410,#411,#412,#413));
#269=AXIS2_PLACEMENT_3D('',#414,#415,#416);
#270=EDGE_LOOP('',(#417,#418,#419,#420));
#271=AXIS2_PLACEMENT_3D('',#421,#422,#423);
#272=EDGE_LOOP('',(#424,#425,#426,#427));
#273=AXIS2_PLACEMENT_3D('',#428,#429,#430);
#274=EDGE_LOOP('',(#431,#432,#433,#434));
#275=AXIS2_PLACEMENT_3D('',#435,#436,#437);
#276=EDGE_LOOP('',(#438,#439,#440,#441));
#277=AXIS2_PLACEMENT_3D('',#442,#443,#444);
#278=EDGE_LOOP('',(#445,#446,#447,#448,#449,#450,#451,#452,#453,#454,#455,#456));
#279=EDGE_LOOP('',(#457,#458,#459,#460));
#280=AXIS2_PLACEMENT_3D('',#461,#462,#463);
#281=EDGE_LOOP('',(#464,#465,#466,#467,#468,#469,#470,#471,#472,#473));
#282=AXIS2_PLACEMENT_3D('',#474,#475,#476);
#283=EDGE_LOOP('',(#477,#478,#479,#480,#481,#482,#483,#484,#485,#486,#487,#488,#489,#490,#491,#492));
#284=AXIS2_PLACEMENT_3D('',#493,#494,#495);
#285=EDGE_LOOP('',(#496,#497,#498,#499));
#286=AXIS2_PLACEMENT_3D('',#500,#501,#502);
#287=EDGE_LOOP('',(#503,#504,#505,#506));
#288=AXIS2_PLACEMENT_3D('',#507,#508,#509);
#289=EDGE_LOOP('',(#510,#511,#512,#513,#514,#515,#516,#517,#518,#519,#520,#521));
#290=AXIS2_PLACEMENT_3D('',#522,#523,#524);
#291=EDGE_LOOP('',(#525,#526,#527,#528));
#292=AXIS2_PLACEMENT_3D('',#529,#530,#531);
#293=EDGE_LOOP('',(#532,#533,#534,#535));
#294=AXIS2_PLACEMENT_3D('',#536,#537,#538);
#295=EDGE_LOOP('',(#539,#540,#541,#542));
#296=EDGE_LOOP('',(#543,#544));
#297=AXIS2_PLACEMENT_3D('',#545,#546,#547);
#298=EDGE_LOOP('',(#548,#549,#550,#551));
#299=AXIS2_PLACEMENT_3D('',#552,#553,#554);
#300=EDGE_LOOP('',(#555,#556,#557,#558));
#301=AXIS2_PLACEMENT_3D('',#559,#560,#561);
#302=EDGE_LOOP('',(#562,#563,#564,#565));
#303=AXIS2_PLACEMENT_3D('',#566,#567,#568);
#304=EDGE_LOOP('',(#569,#570,#571,#572,#573,#574));
#305=AXIS2_PLACEMENT_3D('',#575,#576,#577);
#306=EDGE_LOOP('',(#578,#579,#580,#581));
#307=AXIS2_PLACEMENT_3D('',#582,#583,#584);
#308=EDGE_LOOP('',(#585,#586));
#309=EDGE_LOOP('',(#587,#588));
#310=AXIS2_PLACEMENT_3D('',#589,#590,#591);
#311=EDGE_LOOP('',(#592,#593));
#312=AXIS2_PLACEMENT_3D('',#594,#595,#596);
#313=EDGE_LOOP('',(#597,#598,#599,#600));
#314=AXIS2_PLACEMENT_3D('',#601,#602,#603);
#315=EDGE_LOOP('',(#604,#605,#606,#607,#608,#609,#610,#611));
#316=AXIS2_PLACEMENT_3D('',#612,#613,#614);
#317=EDGE_LOOP('',(#615,#616,#617,#618));
#318=AXIS2_PLACEMENT_3D('',#619,#620,#621);
#319=EDGE_LOOP('',(#622,#623,#624,#625,#626,#627,#628,#629));
#320=AXIS2_PLACEMENT_3D('',#630,#631,#632);
#321=EDGE_LOOP('',(#633,#634,#635,#636));
#322=AXIS2_PLACEMENT_3D('',#637,#638,#639);
#323=EDGE_LOOP('',(#640,#641,#642,#643));
#324=AXIS2_PLACEMENT_3D('',#644,#645,#646);
#325=EDGE_LOOP('',(#647,#648,#649,#650));
#326=AXIS2_PLACEMENT_3D('',#651,#652,#653);
#327=EDGE_LOOP('',(#654,#655,#656,#657));
#328=AXIS2_PLACEMENT_3D('',#658,#659,#660);
#329=EDGE_LOOP('',(#661,#662,#663,#664,#665,#666));
#330=AXIS2_PLACEMENT_3D('',#667,#668,#669);
#331=EDGE_LOOP('',(#670,#671,#672,#673,#674));
#332=AXIS2_PLACEMENT_3D('',#675,#676,#677);
#333=EDGE_LOOP('',(#678,#679,#680,#681));
#334=EDGE_LOOP('',(#682,#683));
#335=AXIS2_PLACEMENT_3D('',#684,#685,#686);
#336=EDGE_LOOP('',(#687,#688,#689,#690,#691));
#337=AXIS2_PLACEMENT_3D('',#692,#693,#694);
#338=EDGE_LOOP('',(#695,#696,#697,#698));
#339=EDGE_LOOP('',(#699,#700));
#340=AXIS2_PLACEMENT_3D('',#701,#702,#703);
#341=EDGE_LOOP('',(#704,#705,#706,#707,#708));
#342=EDGE_LOOP('',(#709,#710));
#343=AXIS2_PLACEMENT_3D('',#711,#712,#713);
#344=EDGE_LOOP('',(#714,#715,#716,#717));
#345=AXIS2_PLACEMENT_3D('',#718,#719,#720);
#346=EDGE_LOOP('',(#721,#722,#723,#724,#725));
#347=EDGE_LOOP('',(#726,#727));
#348=AXIS2_PLACEMENT_3D('',#728,#729,#730);
#349=EDGE_LOOP('',(#731,#732,#733,#734));
#350=AXIS2_PLACEMENT_3D('',#735,#736,#737);
#351=EDGE_LOOP('',(#738,#739,#740,#741));
#352=AXIS2_PLACEMENT_3D('',#742,#743,#744);
#353=EDGE_LOOP('',(#745,#746,#747,#748));
#354=AXIS2_PLACEMENT_3D('',#749,#750,#751);
#355=EDGE_LOOP('',(#752,#753,#754,#755));
#356=AXIS2_PLACEMENT_3D('',#756,#757,#758);
#357=EDGE_LOOP('',(#759,#760,#761,#762,#763,#764,#765,#766,#767));
#358=EDGE_LOOP('',(#768,#769));
#359=AXIS2_PLACEMENT_3D('',#770,#771,#772);
#360=EDGE_LOOP('',(#773,#774,#775,#776));
#361=AXIS2_PLACEMENT_3D('',#777,#778,#779);
#362=EDGE_LOOP('',(#780,#781,#782,#783,#784));
#363=EDGE_LOOP('',(#785,#786));
#364=AXIS2_PLACEMENT_3D('',#787,#788,#789);
#365=EDGE_LOOP('',(#790,#791,#792,#793));
#366=AXIS2_PLACEMENT_3D('',#794,#795,#796);
#367=EDGE_LOOP('',(#797,#798,#799,#800));
#368=AXIS2_PLACEMENT_3D('',#801,#802,#803);
#369=EDGE_LOOP('',(#804,#805,#806,#807));
#370=AXIS2_PLACEMENT_3D('',#808,#809,#810);
#371=EDGE_LOOP('',(#811,#812,#813,#814));
#372=AXIS2_PLACEMENT_3D('',#815,#816,#817);
#373=EDGE_LOOP('',(#818,#819,#820,#821));
#374=AXIS2_PLACEMENT_3D('',#822,#823,#824);
#375=EDGE_LOOP('',(#825,#826,#827,#828));
#376=AXIS2_PLACEMENT_3D('',#829,#830,#831);
#377=EDGE_LOOP('',(#832,#833,#834,#835));
#378=AXIS2_PLACEMENT_3D('',#836,#837,#838);
#379=EDGE_LOOP('',(#839,#840,#841,#842));
#380=AXIS2_PLACEMENT_3D('',#843,#844,#845);
#381=EDGE_LOOP('',(#846,#847,#848,#849));
#382=AXIS2_PLACEMENT_3D('',#850,#851,#852);
#383=EDGE_LOOP('',(#853,#854,#855,#856));
#384=AXIS2_PLACEMENT_3D('',#857,#858,#859);
#385=EDGE_LOOP('',(#860,#861,#862,#863));
#386=AXIS2_PLACEMENT_3D('',#864,#865,#866);
#387=EDGE_LOOP('',(#867,#868,#869,#870));
#388=AXIS2_PLACEMENT_3D('',#871,#872,#873);
#389=ORIENTED_EDGE('',*,*,#874,.F.);
#390=ORIENTED_EDGE('',*,*,#875,.T.);
#391=ORIENTED_EDGE('',*,*,#876,.T.);
#392=ORIENTED_EDGE('',*,*,#877,.F.);
#393=CARTESIAN_POINT('',(-10.7,-8.75,4.50000000000001));
#394=DIRECTION('',(0.0,0.0,1.0));
#395=DIRECTION('',(-1.0,0.0,0.0));
#396=ORIENTED_EDGE('',*,*,#878,.F.);
#397=ORIENTED_EDGE('',*,*,#879,.T.);
#398=ORIENTED_EDGE('',*,*,#880,.T.);
#399=ORIENTED_EDGE('',*,*,#881,.F.);
#400=CARTESIAN_POINT('',(-14.4,-8.75,-3.49546780409327E-015));
#401=DIRECTION('',(-1.0,0.0,0.0));
#402=DIRECTION('',(0.0,0.0,-1.0));
#403=ORIENTED_EDGE('',*,*,#882,.F.);
#404=ORIENTED_EDGE('',*,*,#883,.T.);
#405=ORIENTED_EDGE('',*,*,#884,.F.);
#406=ORIENTED_EDGE('',*,*,#885,.F.);
#407=CARTESIAN_POINT('',(-14.4,-8.75,-3.49546780409327E-015));
#408=DIRECTION('',(-1.0,0.0,0.0));
#409=DIRECTION('',(0.0,0.0,-1.0));
#410=ORIENTED_EDGE('',*,*,#886,.F.);
#411=ORIENTED_EDGE('',*,*,#887,.T.);
#412=ORIENTED_EDGE('',*,*,#888,.F.);
#413=ORIENTED_EDGE('',*,*,#889,.F.);
#414=CARTESIAN_POINT('',(-1.0,0.0,0.0));
#415=DIRECTION('',(-1.0,0.0,-0.0));
#416=DIRECTION('',(0.0,0.0,1.0));
#417=ORIENTED_EDGE('',*,*,#890,.F.);
#418=ORIENTED_EDGE('',*,*,#891,.T.);
#419=ORIENTED_EDGE('',*,*,#892,.T.);
#420=ORIENTED_EDGE('',*,*,#893,.F.);
#421=CARTESIAN_POINT('',(-7.0,0.0,0.0));
#422=DIRECTION('',(-1.0,0.0,0.0));
#423=DIRECTION('',(0.0,0.0,-1.0));
#424=ORIENTED_EDGE('',*,*,#894,.T.);
#425=ORIENTED_EDGE('',*,*,#895,.T.);
#426=ORIENTED_EDGE('',*,*,#888,.T.);
#427=ORIENTED_EDGE('',*,*,#896,.F.);
#428=CARTESIAN_POINT('',(-7.0,0.0,0.0));
#429=DIRECTION('',(-1.0,0.0,0.0));
#430=DIRECTION('',(0.0,0.0,-1.0));
#431=ORIENTED_EDGE('',*,*,#897,.T.);
#432=ORIENTED_EDGE('',*,*,#898,.F.);
#433=ORIENTED_EDGE('',*,*,#899,.F.);
#434=ORIENTED_EDGE('',*,*,#900,.F.);
#435=CARTESIAN_POINT('',(-14.4,-6.5,4.50000000000001));
#436=DIRECTION('',(1.0,0.0,0.0));
#437=DIRECTION('',(0.0,1.0,-0.0));
#438=ORIENTED_EDGE('',*,*,#901,.F.);
#439=ORIENTED_EDGE('',*,*,#902,.F.);
#440=ORIENTED_EDGE('',*,*,#903,.F.);
#441=ORIENTED_EDGE('',*,*,#904,.F.);
#442=CARTESIAN_POINT('',(-10.7,-8.75,-4.5));
#443=DIRECTION('',(0.0,0.0,-1.0));
#444=DIRECTION('',(1.0,0.0,0.0));
#445=ORIENTED_EDGE('',*,*,#905,.F.);
#446=ORIENTED_EDGE('',*,*,#906,.T.);
#447=ORIENTED_EDGE('',*,*,#907,.T.);
#448=ORIENTED_EDGE('',*,*,#908,.T.);
#449=ORIENTED_EDGE('',*,*,#909,.T.);
#450=ORIENTED_EDGE('',*,*,#910,.T.);
#451=ORIENTED_EDGE('',*,*,#911,.T.);
#452=ORIENTED_EDGE('',*,*,#912,.T.);
#453=ORIENTED_EDGE('',*,*,#913,.T.);
#454=ORIENTED_EDGE('',*,*,#914,.F.);
#455=ORIENTED_EDGE('',*,*,#915,.F.);
#456=ORIENTED_EDGE('',*,*,#899,.T.);
#457=ORIENTED_EDGE('',*,*,#916,.T.);
#458=ORIENTED_EDGE('',*,*,#917,.T.);
#459=ORIENTED_EDGE('',*,*,#918,.T.);
#460=ORIENTED_EDGE('',*,*,#919,.T.);
#461=CARTESIAN_POINT('',(-14.4,-6.5,4.50000000000001));
#462=DIRECTION('',(0.0,-1.0,0.0));
#463=DIRECTION('',(0.0,0.0,-1.0));
#464=ORIENTED_EDGE('',*,*,#920,.F.);
#465=ORIENTED_EDGE('',*,*,#921,.T.);
#466=ORIENTED_EDGE('',*,*,#897,.F.);
#467=ORIENTED_EDGE('',*,*,#922,.F.);
#468=ORIENTED_EDGE('',*,*,#923,.T.);
#469=ORIENTED_EDGE('',*,*,#924,.T.);
#470=ORIENTED_EDGE('',*,*,#925,.F.);
#471=ORIENTED_EDGE('',*,*,#926,.F.);
#472=ORIENTED_EDGE('',*,*,#927,.F.);
#473=ORIENTED_EDGE('',*,*,#928,.F.);
#474=CARTESIAN_POINT('',(-14.4,-4.0,4.50000000000001));
#475=DIRECTION('',(0.0,-1.0,0.0));
#476=DIRECTION('',(0.0,0.0,-1.0));
#477=ORIENTED_EDGE('',*,*,#913,.F.);
#478=ORIENTED_EDGE('',*,*,#929,.T.);
#479=ORIENTED_EDGE('',*,*,#930,.T.);
#480=ORIENTED_EDGE('',*,*,#931,.F.);
#481=ORIENTED_EDGE('',*,*,#911,.F.);
#482=ORIENTED_EDGE('',*,*,#932,.T.);
#483=ORIENTED_EDGE('',*,*,#924,.F.);
#484=ORIENTED_EDGE('',*,*,#933,.F.);
#485=ORIENTED_EDGE('',*,*,#934,.T.);
#486=ORIENTED_EDGE('',*,*,#935,.T.);
#487=ORIENTED_EDGE('',*,*,#936,.T.);
#488=ORIENTED_EDGE('',*,*,#937,.F.);
#489=ORIENTED_EDGE('',*,*,#938,.F.);
#490=ORIENTED_EDGE('',*,*,#939,.T.);
#491=ORIENTED_EDGE('',*,*,#940,.T.);
#492=ORIENTED_EDGE('',*,*,#941,.F.);
#493=CARTESIAN_POINT('',(-14.4,4.5,-4.5));
#494=DIRECTION('',(0.0,2.36553201269565E-016,-1.0));
#495=DIRECTION('',(-1.0,0.0,0.0));
#496=ORIENTED_EDGE('',*,*,#942,.F.);
#497=ORIENTED_EDGE('',*,*,#943,.T.);
#498=ORIENTED_EDGE('',*,*,#944,.F.);
#499=ORIENTED_EDGE('',*,*,#940,.F.);
#500=CARTESIAN_POINT('',(-14.4,4.5,4.5));
#501=DIRECTION('',(-0.0,1.0,9.6373526443156E-017));
#502=DIRECTION('',(1.0,0.0,0.0));
#503=ORIENTED_EDGE('',*,*,#895,.F.);
#504=ORIENTED_EDGE('',*,*,#945,.T.);
#505=ORIENTED_EDGE('',*,*,#896,.T.);
#506=ORIENTED_EDGE('',*,*,#946,.T.);
#507=CARTESIAN_POINT('',(-7.0,0.0,0.0));
#508=DIRECTION('',(-1.0,0.0,0.0));
#509=DIRECTION('',(0.0,0.0,-1.0));
#510=ORIENTED_EDGE('',*,*,#922,.T.);
#511=ORIENTED_EDGE('',*,*,#900,.T.);
#512=ORIENTED_EDGE('',*,*,#915,.T.);
#513=ORIENTED_EDGE('',*,*,#947,.F.);
#514=ORIENTED_EDGE('',*,*,#943,.F.);
#515=ORIENTED_EDGE('',*,*,#948,.F.);
#516=ORIENTED_EDGE('',*,*,#949,.F.);
#517=ORIENTED_EDGE('',*,*,#950,.T.);
#518=ORIENTED_EDGE('',*,*,#951,.F.);
#519=ORIENTED_EDGE('',*,*,#952,.T.);
#520=ORIENTED_EDGE('',*,*,#953,.F.);
#521=ORIENTED_EDGE('',*,*,#954,.T.);
#522=CARTESIAN_POINT('',(-14.4,4.5,4.5));
#523=DIRECTION('',(-0.0,5.51957469628984E-016,1.0));
#524=DIRECTION('',(1.0,0.0,0.0));
#525=ORIENTED_EDGE('',*,*,#951,.T.);
#526=ORIENTED_EDGE('',*,*,#955,.F.);
#527=ORIENTED_EDGE('',*,*,#936,.F.);
#528=ORIENTED_EDGE('',*,*,#956,.T.);
#529=CARTESIAN_POINT('',(-14.4,4.5,4.5));
#530=DIRECTION('',(-0.0,1.0,9.6373526443156E-017));
#531=DIRECTION('',(1.0,0.0,0.0));
#532=ORIENTED_EDGE('',*,*,#910,.F.);
#533=ORIENTED_EDGE('',*,*,#957,.F.);
#534=ORIENTED_EDGE('',*,*,#925,.T.);
#535=ORIENTED_EDGE('',*,*,#932,.F.);
#536=CARTESIAN_POINT('',(-14.4,-6.5,4.50000000000001));
#537=DIRECTION('',(1.0,0.0,0.0));
#538=DIRECTION('',(0.0,1.0,-0.0));
#539=ORIENTED_EDGE('',*,*,#947,.T.);
#540=ORIENTED_EDGE('',*,*,#914,.T.);
#541=ORIENTED_EDGE('',*,*,#941,.T.);
#542=ORIENTED_EDGE('',*,*,#944,.T.);
#543=ORIENTED_EDGE('',*,*,#958,.F.);
#544=ORIENTED_EDGE('',*,*,#892,.F.);
#545=CARTESIAN_POINT('',(0.0,-6.5,4.50000000000001));
#546=DIRECTION('',(1.0,0.0,0.0));
#547=DIRECTION('',(0.0,1.0,-0.0));
#548=ORIENTED_EDGE('',*,*,#934,.F.);
#549=ORIENTED_EDGE('',*,*,#959,.T.);
#550=ORIENTED_EDGE('',*,*,#960,.T.);
#551=ORIENTED_EDGE('',*,*,#961,.T.);
#552=CARTESIAN_POINT('',(-14.4,1.83690953073357E-017,-4.1));
#553=DIRECTION('',(0.0,-1.0,3.44420537012573E-017));
#554=DIRECTION('',(-1.0,0.0,0.0));
#555=ORIENTED_EDGE('',*,*,#962,.T.);
#556=ORIENTED_EDGE('',*,*,#963,.T.);
#557=ORIENTED_EDGE('',*,*,#964,.T.);
#558=ORIENTED_EDGE('',*,*,#960,.F.);
#559=CARTESIAN_POINT('',(-14.4,0.0,0.0));
#560=DIRECTION('',(-1.0,0.0,0.0));
#561=DIRECTION('',(0.0,0.0,-1.0));
#562=ORIENTED_EDGE('',*,*,#963,.F.);
#563=ORIENTED_EDGE('',*,*,#965,.T.);
#564=ORIENTED_EDGE('',*,*,#953,.T.);
#565=ORIENTED_EDGE('',*,*,#966,.T.);
#566=CARTESIAN_POINT('',(-14.4,4.59227382683364E-018,4.49999999999998));
#567=DIRECTION('',(0.0,-1.0,-3.44420537012574E-017));
#568=DIRECTION('',(0.0,3.44420537012574E-017,-1.0));
#569=ORIENTED_EDGE('',*,*,#935,.F.);
#570=ORIENTED_EDGE('',*,*,#961,.F.);
#571=ORIENTED_EDGE('',*,*,#964,.F.);
#572=ORIENTED_EDGE('',*,*,#966,.F.);
#573=ORIENTED_EDGE('',*,*,#952,.F.);
#574=ORIENTED_EDGE('',*,*,#956,.F.);
#575=CARTESIAN_POINT('',(-3.5,0.0,0.0));
#576=DIRECTION('',(1.0,0.0,0.0));
#577=DIRECTION('',(0.0,1.0,-0.0));
#578=ORIENTED_EDGE('',*,*,#891,.F.);
#579=ORIENTED_EDGE('',*,*,#967,.F.);
#580=ORIENTED_EDGE('',*,*,#893,.T.);
#581=ORIENTED_EDGE('',*,*,#958,.T.);
#582=CARTESIAN_POINT('',(-7.0,0.0,0.0));
#583=DIRECTION('',(-1.0,0.0,0.0));
#584=DIRECTION('',(0.0,0.0,-1.0));
#585=ORIENTED_EDGE('',*,*,#967,.T.);
#586=ORIENTED_EDGE('',*,*,#890,.T.);
#587=ORIENTED_EDGE('',*,*,#894,.F.);
#588=ORIENTED_EDGE('',*,*,#945,.F.);
#589=CARTESIAN_POINT('',(-7.0,0.0,0.0));
#590=DIRECTION('',(1.0,0.0,0.0));
#591=DIRECTION('',(0.0,1.0,-0.0));
#592=ORIENTED_EDGE('',*,*,#968,.T.);
#593=ORIENTED_EDGE('',*,*,#886,.T.);
#594=CARTESIAN_POINT('',(-1.0,0.0,0.0));
#595=DIRECTION('',(1.0,0.0,0.0));
#596=DIRECTION('',(0.0,1.0,-0.0));
#597=ORIENTED_EDGE('',*,*,#887,.F.);
#598=ORIENTED_EDGE('',*,*,#968,.F.);
#599=ORIENTED_EDGE('',*,*,#889,.T.);
#600=ORIENTED_EDGE('',*,*,#946,.F.);
#601=CARTESIAN_POINT('',(-1.0,0.0,0.0));
#602=DIRECTION('',(-1.0,0.0,-0.0));
#603=DIRECTION('',(0.0,0.0,1.0));
#604=ORIENTED_EDGE('',*,*,#942,.T.);
#605=ORIENTED_EDGE('',*,*,#939,.F.);
#606=ORIENTED_EDGE('',*,*,#969,.F.);
#607=ORIENTED_EDGE('',*,*,#970,.T.);
#608=ORIENTED_EDGE('',*,*,#971,.F.);
#609=ORIENTED_EDGE('',*,*,#972,.F.);
#610=ORIENTED_EDGE('',*,*,#973,.F.);
#611=ORIENTED_EDGE('',*,*,#948,.T.);
#612=CARTESIAN_POINT('',(-1.0,2.8,-4.49999999999999));
#613=DIRECTION('',(1.0,-0.0,0.0));
#614=DIRECTION('',(0.0,1.0,-0.0));
#615=ORIENTED_EDGE('',*,*,#974,.T.);
#616=ORIENTED_EDGE('',*,*,#975,.F.);
#617=ORIENTED_EDGE('',*,*,#970,.F.);
#618=ORIENTED_EDGE('',*,*,#976,.F.);
#619=CARTESIAN_POINT('',(-1.0,2.8,-2.99999999999999));
#620=DIRECTION('',(0.0,-1.92747052886312E-016,1.0));
#621=DIRECTION('',(1.0,0.0,0.0));
#622=ORIENTED_EDGE('',*,*,#955,.T.);
#623=ORIENTED_EDGE('',*,*,#950,.F.);
#624=ORIENTED_EDGE('',*,*,#977,.F.);
#625=ORIENTED_EDGE('',*,*,#978,.T.);
#626=ORIENTED_EDGE('',*,*,#979,.F.);
#627=ORIENTED_EDGE('',*,*,#974,.F.);
#628=ORIENTED_EDGE('',*,*,#980,.F.);
#629=ORIENTED_EDGE('',*,*,#937,.T.);
#630=CARTESIAN_POINT('',(-2.5,2.8,-4.49999999999999));
#631=DIRECTION('',(-1.0,-0.0,0.0));
#632=DIRECTION('',(0.0,0.0,1.0));
#633=ORIENTED_EDGE('',*,*,#969,.T.);
#634=ORIENTED_EDGE('',*,*,#938,.T.);
#635=ORIENTED_EDGE('',*,*,#980,.T.);
#636=ORIENTED_EDGE('',*,*,#976,.T.);
#637=CARTESIAN_POINT('',(-1.0,2.8,-2.99999999999999));
#638=DIRECTION('',(0.0,-1.0,0.0));
#639=DIRECTION('',(0.0,0.0,-1.0));
#640=ORIENTED_EDGE('',*,*,#972,.T.);
#641=ORIENTED_EDGE('',*,*,#981,.F.);
#642=ORIENTED_EDGE('',*,*,#978,.F.);
#643=ORIENTED_EDGE('',*,*,#982,.F.);
#644=CARTESIAN_POINT('',(-1.0,2.8,2.99999999999999));
#645=DIRECTION('',(0.0,1.92747052886312E-016,-1.0));
#646=DIRECTION('',(-1.0,0.0,0.0));
#647=ORIENTED_EDGE('',*,*,#973,.T.);
#648=ORIENTED_EDGE('',*,*,#982,.T.);
#649=ORIENTED_EDGE('',*,*,#977,.T.);
#650=ORIENTED_EDGE('',*,*,#949,.T.);
#651=CARTESIAN_POINT('',(-1.0,2.8,2.99999999999999));
#652=DIRECTION('',(0.0,1.0,0.0));
#653=DIRECTION('',(1.0,0.0,-0.0));
#654=ORIENTED_EDGE('',*,*,#971,.T.);
#655=ORIENTED_EDGE('',*,*,#975,.T.);
#656=ORIENTED_EDGE('',*,*,#979,.T.);
#657=ORIENTED_EDGE('',*,*,#981,.T.);
#658=CARTESIAN_POINT('',(-1.0,4.3,2.99999999999999));
#659=DIRECTION('',(0.0,-1.0,-2.89120579329468E-016));
#660=DIRECTION('',(0.0,2.89120579329468E-016,-1.0));
#661=ORIENTED_EDGE('',*,*,#933,.T.);
#662=ORIENTED_EDGE('',*,*,#923,.F.);
#663=ORIENTED_EDGE('',*,*,#954,.F.);
#664=ORIENTED_EDGE('',*,*,#965,.F.);
#665=ORIENTED_EDGE('',*,*,#962,.F.);
#666=ORIENTED_EDGE('',*,*,#959,.F.);
#667=CARTESIAN_POINT('',(-13.5,-4.0,4.50000000000001));
#668=DIRECTION('',(1.0,0.0,0.0));
#669=DIRECTION('',(0.0,1.0,-0.0));
#670=ORIENTED_EDGE('',*,*,#983,.F.);
#671=ORIENTED_EDGE('',*,*,#903,.T.);
#672=ORIENTED_EDGE('',*,*,#984,.T.);
#673=ORIENTED_EDGE('',*,*,#931,.T.);
#674=ORIENTED_EDGE('',*,*,#985,.T.);
#675=CARTESIAN_POINT('',(-11.95,-10.0,-4.5));
#676=DIRECTION('',(1.0,0.0,0.0));
#677=DIRECTION('',(0.0,1.0,-0.0));
#678=ORIENTED_EDGE('',*,*,#986,.F.);
#679=ORIENTED_EDGE('',*,*,#904,.T.);
#680=ORIENTED_EDGE('',*,*,#983,.T.);
#681=ORIENTED_EDGE('',*,*,#987,.T.);
#682=ORIENTED_EDGE('',*,*,#988,.F.);
#683=ORIENTED_EDGE('',*,*,#876,.F.);
#684=CARTESIAN_POINT('',(-11.95,-10.0,-4.9));
#685=DIRECTION('',(-0.0,0.0,1.0));
#686=DIRECTION('',(1.0,0.0,0.0));
#687=ORIENTED_EDGE('',*,*,#989,.F.);
#688=ORIENTED_EDGE('',*,*,#901,.T.);
#689=ORIENTED_EDGE('',*,*,#986,.T.);
#690=ORIENTED_EDGE('',*,*,#990,.T.);
#691=ORIENTED_EDGE('',*,*,#929,.F.);
#692=CARTESIAN_POINT('',(-9.45,-10.0,-4.5));
#693=DIRECTION('',(-1.0,0.0,0.0));
#694=DIRECTION('',(0.0,0.0,1.0));
#695=ORIENTED_EDGE('',*,*,#984,.F.);
#696=ORIENTED_EDGE('',*,*,#902,.T.);
#697=ORIENTED_EDGE('',*,*,#989,.T.);
#698=ORIENTED_EDGE('',*,*,#912,.F.);
#699=ORIENTED_EDGE('',*,*,#991,.T.);
#700=ORIENTED_EDGE('',*,*,#874,.T.);
#701=CARTESIAN_POINT('',(-11.95,-10.0,-4.5));
#702=DIRECTION('',(-3.46944695195362E-016,0.0,-1.0));
#703=DIRECTION('',(-1.0,0.0,3.46944695195362E-016));
#704=ORIENTED_EDGE('',*,*,#992,.F.);
#705=ORIENTED_EDGE('',*,*,#993,.T.);
#706=ORIENTED_EDGE('',*,*,#994,.T.);
#707=ORIENTED_EDGE('',*,*,#995,.T.);
#708=ORIENTED_EDGE('',*,*,#917,.F.);
#709=ORIENTED_EDGE('',*,*,#996,.T.);
#710=ORIENTED_EDGE('',*,*,#878,.T.);
#711=CARTESIAN_POINT('',(-7.825,-10.0,1.25));
#712=DIRECTION('',(1.0,0.0,0.0));
#713=DIRECTION('',(0.0,1.0,-0.0));
#714=ORIENTED_EDGE('',*,*,#997,.F.);
#715=ORIENTED_EDGE('',*,*,#998,.T.);
#716=ORIENTED_EDGE('',*,*,#992,.T.);
#717=ORIENTED_EDGE('',*,*,#916,.F.);
#718=CARTESIAN_POINT('',(-7.825,-10.0,-1.25));
#719=DIRECTION('',(-0.0,0.0,1.0));
#720=DIRECTION('',(1.0,0.0,0.0));
#721=ORIENTED_EDGE('',*,*,#999,.T.);
#722=ORIENTED_EDGE('',*,*,#1000,.T.);
#723=ORIENTED_EDGE('',*,*,#997,.T.);
#724=ORIENTED_EDGE('',*,*,#919,.F.);
#725=ORIENTED_EDGE('',*,*,#1001,.F.);
#726=ORIENTED_EDGE('',*,*,#1002,.F.);
#727=ORIENTED_EDGE('',*,*,#880,.F.);
#728=CARTESIAN_POINT('',(-7.575,-10.0,1.25));
#729=DIRECTION('',(-1.0,0.0,-3.46944695195361E-016));
#730=DIRECTION('',(-3.46944695195361E-016,0.0,1.0));
#731=ORIENTED_EDGE('',*,*,#995,.F.);
#732=ORIENTED_EDGE('',*,*,#1003,.T.);
#733=ORIENTED_EDGE('',*,*,#1001,.T.);
#734=ORIENTED_EDGE('',*,*,#918,.F.);
#735=CARTESIAN_POINT('',(-7.825,-10.0,1.25));
#736=DIRECTION('',(0.0,0.0,-1.0));
#737=DIRECTION('',(0.0,-1.0,0.0));
#738=ORIENTED_EDGE('',*,*,#1004,.T.);
#739=ORIENTED_EDGE('',*,*,#1005,.T.);
#740=ORIENTED_EDGE('',*,*,#1006,.F.);
#741=ORIENTED_EDGE('',*,*,#920,.T.);
#742=CARTESIAN_POINT('',(-13.88,-10.0,1.5));
#743=DIRECTION('',(0.0,0.0,-1.0));
#744=DIRECTION('',(0.0,-1.0,0.0));
#745=ORIENTED_EDGE('',*,*,#1004,.F.);
#746=ORIENTED_EDGE('',*,*,#928,.T.);
#747=ORIENTED_EDGE('',*,*,#1007,.T.);
#748=ORIENTED_EDGE('',*,*,#1008,.F.);
#749=CARTESIAN_POINT('',(-13.52,-10.0,1.5));
#750=DIRECTION('',(-1.0,0.0,0.0));
#751=DIRECTION('',(0.0,0.0,1.0));
#752=ORIENTED_EDGE('',*,*,#1009,.T.);
#753=ORIENTED_EDGE('',*,*,#1010,.T.);
#754=ORIENTED_EDGE('',*,*,#1007,.F.);
#755=ORIENTED_EDGE('',*,*,#927,.T.);
#756=CARTESIAN_POINT('',(-13.88,-10.0,-1.5));
#757=DIRECTION('',(-0.0,0.0,1.0));
#758=DIRECTION('',(1.0,0.0,0.0));
#759=ORIENTED_EDGE('',*,*,#1006,.T.);
#760=ORIENTED_EDGE('',*,*,#1011,.T.);
#761=ORIENTED_EDGE('',*,*,#1009,.F.);
#762=ORIENTED_EDGE('',*,*,#1012,.T.);
#763=ORIENTED_EDGE('',*,*,#1013,.F.);
#764=ORIENTED_EDGE('',*,*,#1014,.T.);
#765=ORIENTED_EDGE('',*,*,#1015,.T.);
#766=ORIENTED_EDGE('',*,*,#1016,.T.);
#767=ORIENTED_EDGE('',*,*,#1017,.T.);
#768=ORIENTED_EDGE('',*,*,#1018,.T.);
#769=ORIENTED_EDGE('',*,*,#882,.T.);
#770=CARTESIAN_POINT('',(-13.88,-10.0,1.5));
#771=DIRECTION('',(1.0,0.0,0.0));
#772=DIRECTION('',(0.0,1.0,-0.0));
#773=ORIENTED_EDGE('',*,*,#1019,.F.);
#774=ORIENTED_EDGE('',*,*,#1020,.T.);
#775=ORIENTED_EDGE('',*,*,#1013,.T.);
#776=ORIENTED_EDGE('',*,*,#908,.F.);
#777=CARTESIAN_POINT('',(-13.88,-10.0,-1.5));
#778=DIRECTION('',(-0.0,0.0,1.0));
#779=DIRECTION('',(1.0,0.0,0.0));
#780=ORIENTED_EDGE('',*,*,#1021,.T.);
#781=ORIENTED_EDGE('',*,*,#1022,.T.);
#782=ORIENTED_EDGE('',*,*,#1019,.T.);
#783=ORIENTED_EDGE('',*,*,#907,.F.);
#784=ORIENTED_EDGE('',*,*,#1023,.F.);
#785=ORIENTED_EDGE('',*,*,#884,.T.);
#786=ORIENTED_EDGE('',*,*,#1024,.T.);
#787=CARTESIAN_POINT('',(-13.52,-10.0,1.5));
#788=DIRECTION('',(-1.0,0.0,0.0));
#789=DIRECTION('',(0.0,0.0,1.0));
#790=ORIENTED_EDGE('',*,*,#1016,.F.);
#791=ORIENTED_EDGE('',*,*,#1025,.T.);
#792=ORIENTED_EDGE('',*,*,#1023,.T.);
#793=ORIENTED_EDGE('',*,*,#906,.F.);
#794=CARTESIAN_POINT('',(-13.88,-10.0,1.5));
#795=DIRECTION('',(0.0,0.0,-1.0));
#796=DIRECTION('',(0.0,-1.0,0.0));
#797=ORIENTED_EDGE('',*,*,#1010,.F.);
#798=ORIENTED_EDGE('',*,*,#1011,.F.);
#799=ORIENTED_EDGE('',*,*,#1005,.F.);
#800=ORIENTED_EDGE('',*,*,#1008,.T.);
#801=CARTESIAN_POINT('',(-13.38,1.62,-1.5));
#802=DIRECTION('',(0.0,0.0,-1.0));
#803=DIRECTION('',(1.0,0.0,0.0));
#804=ORIENTED_EDGE('',*,*,#985,.F.);
#805=ORIENTED_EDGE('',*,*,#930,.F.);
#806=ORIENTED_EDGE('',*,*,#990,.F.);
#807=ORIENTED_EDGE('',*,*,#987,.F.);
#808=CARTESIAN_POINT('',(-11.95,-3.98989794855664,-4.4));
#809=DIRECTION('',(-1.0,0.0,-0.0));
#810=DIRECTION('',(0.0,0.0,-1.0));
#811=ORIENTED_EDGE('',*,*,#1003,.F.);
#812=ORIENTED_EDGE('',*,*,#994,.F.);
#813=ORIENTED_EDGE('',*,*,#1026,.F.);
#814=ORIENTED_EDGE('',*,*,#999,.F.);
#815=CARTESIAN_POINT('',(-7.825,-8.75,-8.67361737988403E-016));
#816=DIRECTION('',(-1.0,0.0,-0.0));
#817=DIRECTION('',(0.0,0.0,-1.0));
#818=ORIENTED_EDGE('',*,*,#993,.F.);
#819=ORIENTED_EDGE('',*,*,#998,.F.);
#820=ORIENTED_EDGE('',*,*,#1000,.F.);
#821=ORIENTED_EDGE('',*,*,#1026,.T.);
#822=CARTESIAN_POINT('',(-7.825,-8.75,-8.67361737988403E-016));
#823=DIRECTION('',(1.0,-0.0,0.0));
#824=DIRECTION('',(0.0,0.0,1.0));
#825=ORIENTED_EDGE('',*,*,#1025,.F.);
#826=ORIENTED_EDGE('',*,*,#1015,.F.);
#827=ORIENTED_EDGE('',*,*,#1027,.F.);
#828=ORIENTED_EDGE('',*,*,#1021,.F.);
#829=CARTESIAN_POINT('',(-13.88,-8.5,0.0));
#830=DIRECTION('',(-1.0,0.0,-0.0));
#831=DIRECTION('',(0.0,0.0,-1.0));
#832=ORIENTED_EDGE('',*,*,#1014,.F.);
#833=ORIENTED_EDGE('',*,*,#1020,.F.);
#834=ORIENTED_EDGE('',*,*,#1022,.F.);
#835=ORIENTED_EDGE('',*,*,#1027,.T.);
#836=CARTESIAN_POINT('',(-13.88,-8.5,0.0));
#837=DIRECTION('',(1.0,-0.0,0.0));
#838=DIRECTION('',(0.0,0.0,1.0));
#839=ORIENTED_EDGE('',*,*,#883,.F.);
#840=ORIENTED_EDGE('',*,*,#1018,.F.);
#841=ORIENTED_EDGE('',*,*,#885,.T.);
#842=ORIENTED_EDGE('',*,*,#1024,.F.);
#843=CARTESIAN_POINT('',(-14.4,-8.75,-3.49546780409327E-015));
#844=DIRECTION('',(-1.0,0.0,0.0));
#845=DIRECTION('',(0.0,0.0,-1.0));
#846=ORIENTED_EDGE('',*,*,#879,.F.);
#847=ORIENTED_EDGE('',*,*,#996,.F.);
#848=ORIENTED_EDGE('',*,*,#881,.T.);
#849=ORIENTED_EDGE('',*,*,#1002,.T.);
#850=CARTESIAN_POINT('',(-14.4,-8.75,-3.49546780409327E-015));
#851=DIRECTION('',(-1.0,0.0,0.0));
#852=DIRECTION('',(0.0,0.0,-1.0));
#853=ORIENTED_EDGE('',*,*,#875,.F.);
#854=ORIENTED_EDGE('',*,*,#991,.F.);
#855=ORIENTED_EDGE('',*,*,#877,.T.);
#856=ORIENTED_EDGE('',*,*,#988,.T.);
#857=CARTESIAN_POINT('',(-10.7,-8.75,4.50000000000001));
#858=DIRECTION('',(0.0,0.0,1.0));
#859=DIRECTION('',(-1.0,0.0,0.0));
#860=ORIENTED_EDGE('',*,*,#905,.T.);
#861=ORIENTED_EDGE('',*,*,#898,.T.);
#862=ORIENTED_EDGE('',*,*,#921,.F.);
#863=ORIENTED_EDGE('',*,*,#1017,.F.);
#864=CARTESIAN_POINT('',(-9.97487516204667,-4.0,1.5));
#865=DIRECTION('',(-0.0,0.0,1.0));
#866=DIRECTION('',(1.0,0.0,0.0));
#867=ORIENTED_EDGE('',*,*,#926,.T.);
#868=ORIENTED_EDGE('',*,*,#957,.T.);
#869=ORIENTED_EDGE('',*,*,#909,.F.);
#870=ORIENTED_EDGE('',*,*,#1012,.F.);
#871=CARTESIAN_POINT('',(-9.97487516204667,-4.0,-1.5));
#872=DIRECTION('',(0.0,0.0,-1.0));
#873=DIRECTION('',(0.0,-1.0,0.0));
#874=EDGE_CURVE('',#1028,#1029,#1030,.T.);
#875=EDGE_CURVE('',#1028,#1031,#1032,.T.);
#876=EDGE_CURVE('',#1031,#1033,#1034,.T.);
#877=EDGE_CURVE('',#1029,#1033,#1035,.T.);
#878=EDGE_CURVE('',#1036,#1037,#1038,.T.);
#879=EDGE_CURVE('',#1036,#1039,#1040,.T.);
#880=EDGE_CURVE('',#1039,#1041,#1042,.T.);
#881=EDGE_CURVE('',#1037,#1041,#1043,.T.);
#882=EDGE_CURVE('',#1044,#1045,#1046,.T.);
#883=EDGE_CURVE('',#1044,#1047,#1048,.T.);
#884=EDGE_CURVE('',#1049,#1047,#1050,.T.);
#885=EDGE_CURVE('',#1045,#1049,#1051,.T.);
#886=EDGE_CURVE('',#1052,#1053,#1054,.T.);
#887=EDGE_CURVE('',#1052,#1055,#1056,.T.);
#888=EDGE_CURVE('',#1057,#1055,#1058,.T.);
#889=EDGE_CURVE('',#1053,#1057,#1059,.T.);
#890=EDGE_CURVE('',#1060,#1061,#1062,.T.);
#891=EDGE_CURVE('',#1060,#1063,#1064,.T.);
#892=EDGE_CURVE('',#1063,#1065,#1066,.T.);
#893=EDGE_CURVE('',#1061,#1065,#1067,.T.);
#894=EDGE_CURVE('',#1068,#1069,#1070,.T.);
#895=EDGE_CURVE('',#1069,#1057,#1071,.T.);
#896=EDGE_CURVE('',#1068,#1055,#1072,.T.);
#897=EDGE_CURVE('',#1073,#1074,#1075,.T.);
#898=EDGE_CURVE('',#1076,#1074,#1077,.T.);
#899=EDGE_CURVE('',#1078,#1076,#1079,.T.);
#900=EDGE_CURVE('',#1073,#1078,#1080,.T.);
#901=EDGE_CURVE('',#1081,#1082,#1083,.T.);
#902=EDGE_CURVE('',#1084,#1081,#1085,.T.);
#903=EDGE_CURVE('',#1086,#1084,#1087,.T.);
#904=EDGE_CURVE('',#1082,#1086,#1088,.T.);
#905=EDGE_CURVE('',#1089,#1076,#1090,.T.);
#906=EDGE_CURVE('',#1089,#1091,#1092,.T.);
#907=EDGE_CURVE('',#1091,#1093,#1094,.T.);
#908=EDGE_CURVE('',#1093,#1095,#1096,.T.);
#909=EDGE_CURVE('',#1095,#1097,#1098,.T.);
#910=EDGE_CURVE('',#1097,#1099,#1100,.T.);
#911=EDGE_CURVE('',#1099,#1101,#1102,.T.);
#912=EDGE_CURVE('',#1101,#1103,#1104,.T.);
#913=EDGE_CURVE('',#1103,#1105,#1106,.T.);
#914=EDGE_CURVE('',#1107,#1105,#1108,.T.);
#915=EDGE_CURVE('',#1078,#1107,#1109,.T.);
#916=EDGE_CURVE('',#1110,#1111,#1112,.T.);
#917=EDGE_CURVE('',#1111,#1113,#1114,.T.);
#918=EDGE_CURVE('',#1113,#1115,#1116,.T.);
#919=EDGE_CURVE('',#1115,#1110,#1117,.T.);
#920=EDGE_CURVE('',#1118,#1119,#1120,.T.);
#921=EDGE_CURVE('',#1118,#1074,#1121,.T.);
#922=EDGE_CURVE('',#1122,#1073,#1123,.T.);
#923=EDGE_CURVE('',#1122,#1124,#1125,.T.);
#924=EDGE_CURVE('',#1124,#1126,#1127,.T.);
#925=EDGE_CURVE('',#1128,#1126,#1129,.T.);
#926=EDGE_CURVE('',#1130,#1128,#1131,.T.);
#927=EDGE_CURVE('',#1132,#1130,#1133,.T.);
#928=EDGE_CURVE('',#1119,#1132,#1134,.T.);
#929=EDGE_CURVE('',#1103,#1135,#1136,.T.);
#930=EDGE_CURVE('',#1135,#1137,#1138,.T.);
#931=EDGE_CURVE('',#1101,#1137,#1139,.T.);
#932=EDGE_CURVE('',#1099,#1126,#1140,.T.);
#933=EDGE_CURVE('',#1141,#1124,#1142,.T.);
#934=EDGE_CURVE('',#1141,#1143,#1144,.T.);
#935=EDGE_CURVE('',#1143,#1145,#1146,.T.);
#936=EDGE_CURVE('',#1145,#1147,#1148,.T.);
#937=EDGE_CURVE('',#1149,#1147,#1150,.T.);
#938=EDGE_CURVE('',#1151,#1149,#1152,.T.);
#939=EDGE_CURVE('',#1151,#1153,#1154,.T.);
#940=EDGE_CURVE('',#1153,#1155,#1156,.T.);
#941=EDGE_CURVE('',#1105,#1155,#1157,.T.);
#942=EDGE_CURVE('',#1158,#1153,#1159,.T.);
#943=EDGE_CURVE('',#1158,#1160,#1161,.T.);
#944=EDGE_CURVE('',#1155,#1160,#1162,.T.);
#945=EDGE_CURVE('',#1069,#1068,#1163,.T.);
#946=EDGE_CURVE('',#1055,#1057,#1164,.T.);
#947=EDGE_CURVE('',#1160,#1107,#1165,.T.);
#948=EDGE_CURVE('',#1166,#1158,#1167,.T.);
#949=EDGE_CURVE('',#1168,#1166,#1169,.T.);
#950=EDGE_CURVE('',#1168,#1170,#1171,.T.);
#951=EDGE_CURVE('',#1172,#1170,#1173,.T.);
#952=EDGE_CURVE('',#1172,#1174,#1175,.T.);
#953=EDGE_CURVE('',#1176,#1174,#1177,.T.);
#954=EDGE_CURVE('',#1176,#1122,#1178,.T.);
#955=EDGE_CURVE('',#1147,#1170,#1179,.T.);
#956=EDGE_CURVE('',#1145,#1172,#1180,.T.);
#957=EDGE_CURVE('',#1128,#1097,#1181,.T.);
#958=EDGE_CURVE('',#1065,#1063,#1182,.T.);
#959=EDGE_CURVE('',#1141,#1183,#1184,.T.);
#960=EDGE_CURVE('',#1183,#1185,#1186,.T.);
#961=EDGE_CURVE('',#1185,#1143,#1187,.T.);
#962=EDGE_CURVE('',#1183,#1188,#1189,.T.);
#963=EDGE_CURVE('',#1188,#1190,#1191,.T.);
#964=EDGE_CURVE('',#1190,#1185,#1192,.T.);
#965=EDGE_CURVE('',#1188,#1176,#1193,.T.);
#966=EDGE_CURVE('',#1174,#1190,#1194,.T.);
#967=EDGE_CURVE('',#1061,#1060,#1195,.T.);
#968=EDGE_CURVE('',#1053,#1052,#1196,.T.);
#969=EDGE_CURVE('',#1197,#1151,#1198,.T.);
#970=EDGE_CURVE('',#1197,#1199,#1200,.T.);
#971=EDGE_CURVE('',#1201,#1199,#1202,.T.);
#972=EDGE_CURVE('',#1203,#1201,#1204,.T.);
#973=EDGE_CURVE('',#1166,#1203,#1205,.T.);
#974=EDGE_CURVE('',#1206,#1207,#1208,.T.);
#975=EDGE_CURVE('',#1199,#1207,#1209,.T.);
#976=EDGE_CURVE('',#1206,#1197,#1210,.T.);
#977=EDGE_CURVE('',#1211,#1168,#1212,.T.);
#978=EDGE_CURVE('',#1211,#1213,#1214,.T.);
#979=EDGE_CURVE('',#1207,#1213,#1215,.T.);
#980=EDGE_CURVE('',#1149,#1206,#1216,.T.);
#981=EDGE_CURVE('',#1213,#1201,#1217,.T.);
#982=EDGE_CURVE('',#1203,#1211,#1218,.T.);
#983=EDGE_CURVE('',#1086,#1219,#1220,.T.);
#984=EDGE_CURVE('',#1084,#1101,#1221,.T.);
#985=EDGE_CURVE('',#1137,#1219,#1222,.T.);
#986=EDGE_CURVE('',#1082,#1223,#1224,.T.);
#987=EDGE_CURVE('',#1219,#1223,#1225,.T.);
#988=EDGE_CURVE('',#1033,#1031,#1226,.T.);
#989=EDGE_CURVE('',#1081,#1103,#1227,.T.);
#990=EDGE_CURVE('',#1223,#1135,#1228,.T.);
#991=EDGE_CURVE('',#1029,#1028,#1229,.T.);
#992=EDGE_CURVE('',#1230,#1111,#1231,.T.);
#993=EDGE_CURVE('',#1230,#1232,#1233,.T.);
#994=EDGE_CURVE('',#1232,#1234,#1235,.T.);
#995=EDGE_CURVE('',#1234,#1113,#1236,.T.);
#996=EDGE_CURVE('',#1037,#1036,#1237,.T.);
#997=EDGE_CURVE('',#1238,#1110,#1239,.T.);
#998=EDGE_CURVE('',#1238,#1230,#1240,.T.);
#999=EDGE_CURVE('',#1241,#1242,#1243,.T.);
#1000=EDGE_CURVE('',#1242,#1238,#1244,.T.);
#1001=EDGE_CURVE('',#1241,#1115,#1245,.T.);
#1002=EDGE_CURVE('',#1041,#1039,#1246,.T.);
#1003=EDGE_CURVE('',#1234,#1241,#1247,.T.);
#1004=EDGE_CURVE('',#1119,#1248,#1249,.T.);
#1005=EDGE_CURVE('',#1248,#1250,#1251,.T.);
#1006=EDGE_CURVE('',#1118,#1250,#1252,.T.);
#1007=EDGE_CURVE('',#1132,#1253,#1254,.T.);
#1008=EDGE_CURVE('',#1248,#1253,#1255,.T.);
#1009=EDGE_CURVE('',#1130,#1256,#1257,.T.);
#1010=EDGE_CURVE('',#1256,#1253,#1258,.T.);
#1011=EDGE_CURVE('',#1250,#1256,#1259,.T.);
#1012=EDGE_CURVE('',#1130,#1095,#1260,.T.);
#1013=EDGE_CURVE('',#1261,#1095,#1262,.T.);
#1014=EDGE_CURVE('',#1261,#1263,#1264,.T.);
#1015=EDGE_CURVE('',#1263,#1265,#1266,.T.);
#1016=EDGE_CURVE('',#1265,#1089,#1267,.T.);
#1017=EDGE_CURVE('',#1089,#1118,#1268,.T.);
#1018=EDGE_CURVE('',#1045,#1044,#1269,.T.);
#1019=EDGE_CURVE('',#1270,#1093,#1271,.T.);
#1020=EDGE_CURVE('',#1270,#1261,#1272,.T.);
#1021=EDGE_CURVE('',#1273,#1274,#1275,.T.);
#1022=EDGE_CURVE('',#1274,#1270,#1276,.T.);
#1023=EDGE_CURVE('',#1273,#1091,#1277,.T.);
#1024=EDGE_CURVE('',#1047,#1049,#1278,.T.);
#1025=EDGE_CURVE('',#1265,#1273,#1279,.T.);
#1026=EDGE_CURVE('',#1242,#1232,#1280,.T.);
#1027=EDGE_CURVE('',#1274,#1263,#1281,.T.);
#1028=VERTEX_POINT('',#1282);
#1029=VERTEX_POINT('',#1283);
#1030=CIRCLE('',#1284,0.750000000000001);
#1031=VERTEX_POINT('',#1285);
#1032=LINE('',#1286,#1287);
#1033=VERTEX_POINT('',#1288);
#1034=CIRCLE('',#1289,0.750000000000001);
#1035=LINE('',#1290,#1291);
#1036=VERTEX_POINT('',#1292);
#1037=VERTEX_POINT('',#1293);
#1038=CIRCLE('',#1294,0.75);
#1039=VERTEX_POINT('',#1295);
#1040=LINE('',#1296,#1297);
#1041=VERTEX_POINT('',#1298);
#1042=CIRCLE('',#1299,0.75);
#1043=LINE('',#1300,#1301);
#1044=VERTEX_POINT('',#1302);
#1045=VERTEX_POINT('',#1303);
#1046=CIRCLE('',#1304,0.75);
#1047=VERTEX_POINT('',#1305);
#1048=LINE('',#1306,#1307);
#1049=VERTEX_POINT('',#1308);
#1050=CIRCLE('',#1309,0.75);
#1051=LINE('',#1310,#1311);
#1052=VERTEX_POINT('',#1312);
#1053=VERTEX_POINT('',#1313);
#1054=CIRCLE('',#1314,1.05);
#1055=VERTEX_POINT('',#1315);
#1056=LINE('',#1316,#1317);
#1057=VERTEX_POINT('',#1318);
#1058=CIRCLE('',#1319,1.25);
#1059=LINE('',#1320,#1321);
#1060=VERTEX_POINT('',#1322);
#1061=VERTEX_POINT('',#1323);
#1062=CIRCLE('',#1324,3.25);
#1063=VERTEX_POINT('',#1325);
#1064=LINE('',#1326,#1327);
#1065=VERTEX_POINT('',#1328);
#1066=CIRCLE('',#1329,3.25);
#1067=LINE('',#1330,#1331);
#1068=VERTEX_POINT('',#1332);
#1069=VERTEX_POINT('',#1333);
#1070=CIRCLE('',#1334,1.25);
#1071=LINE('',#1335,#1336);
#1072=LINE('',#1337,#1338);
#1073=VERTEX_POINT('',#1339);
#1074=VERTEX_POINT('',#1340);
#1075=LINE('',#1341,#1342);
#1076=VERTEX_POINT('',#1343);
#1077=LINE('',#1344,#1345);
#1078=VERTEX_POINT('',#1346);
#1079=LINE('',#1347,#1348);
#1080=LINE('',#1349,#1350);
#1081=VERTEX_POINT('',#1351);
#1082=VERTEX_POINT('',#1352);
#1083=LINE('',#1353,#1354);
#1084=VERTEX_POINT('',#1355);
#1085=CIRCLE('',#1356,1.25);
#1086=VERTEX_POINT('',#1357);
#1087=LINE('',#1358,#1359);
#1088=CIRCLE('',#1360,1.25);
#1089=VERTEX_POINT('',#1361);
#1090=LINE('',#1362,#1363);
#1091=VERTEX_POINT('',#1364);
#1092=LINE('',#1365,#1366);
#1093=VERTEX_POINT('',#1367);
#1094=LINE('',#1368,#1369);
#1095=VERTEX_POINT('',#1370);
#1096=LINE('',#1371,#1372);
#1097=VERTEX_POINT('',#1373);
#1098=LINE('',#1374,#1375);
#1099=VERTEX_POINT('',#1376);
#1100=LINE('',#1377,#1378);
#1101=VERTEX_POINT('',#1379);
#1102=LINE('',#1380,#1381);
#1103=VERTEX_POINT('',#1382);
#1104=LINE('',#1383,#1384);
#1105=VERTEX_POINT('',#1385);
#1106=LINE('',#1386,#1387);
#1107=VERTEX_POINT('',#1388);
#1108=LINE('',#1389,#1390);
#1109=LINE('',#1391,#1392);
#1110=VERTEX_POINT('',#1393);
#1111=VERTEX_POINT('',#1394);
#1112=LINE('',#1395,#1396);
#1113=VERTEX_POINT('',#1397);
#1114=LINE('',#1398,#1399);
#1115=VERTEX_POINT('',#1400);
#1116=LINE('',#1401,#1402);
#1117=LINE('',#1403,#1404);
#1118=VERTEX_POINT('',#1405);
#1119=VERTEX_POINT('',#1406);
#1120=LINE('',#1407,#1408);
#1121=LINE('',#1409,#1410);
#1122=VERTEX_POINT('',#1411);
#1123=LINE('',#1412,#1413);
#1124=VERTEX_POINT('',#1414);
#1125=LINE('',#1415,#1416);
#1126=VERTEX_POINT('',#1417);
#1127=LINE('',#1418,#1419);
#1128=VERTEX_POINT('',#1420);
#1129=LINE('',#1421,#1422);
#1130=VERTEX_POINT('',#1423);
#1131=LINE('',#1424,#1425);
#1132=VERTEX_POINT('',#1426);
#1133=LINE('',#1427,#1428);
#1134=LINE('',#1429,#1430);
#1135=VERTEX_POINT('',#1431);
#1136=LINE('',#1432,#1433);
#1137=VERTEX_POINT('',#1434);
#1138=LINE('',#1435,#1436);
#1139=LINE('',#1437,#1438);
#1140=LINE('',#1439,#1440);
#1141=VERTEX_POINT('',#1441);
#1142=LINE('',#1442,#1443);
#1143=VERTEX_POINT('',#1444);
#1144=LINE('',#1445,#1446);
#1145=VERTEX_POINT('',#1447);
#1146=LINE('',#1448,#1449);
#1147=VERTEX_POINT('',#1450);
#1148=LINE('',#1451,#1452);
#1149=VERTEX_POINT('',#1453);
#1150=LINE('',#1454,#1455);
#1151=VERTEX_POINT('',#1456);
#1152=LINE('',#1457,#1458);
#1153=VERTEX_POINT('',#1459);
#1154=LINE('',#1460,#1461);
#1155=VERTEX_POINT('',#1462);
#1156=LINE('',#1463,#1464);
#1157=LINE('',#1465,#1466);
#1158=VERTEX_POINT('',#1467);
#1159=LINE('',#1468,#1469);
#1160=VERTEX_POINT('',#1470);
#1161=LINE('',#1471,#1472);
#1162=LINE('',#1473,#1474);
#1163=CIRCLE('',#1475,1.25);
#1164=CIRCLE('',#1476,1.25);
#1165=LINE('',#1477,#1478);
#1166=VERTEX_POINT('',#1479);
#1167=LINE('',#1480,#1481);
#1168=VERTEX_POINT('',#1482);
#1169=LINE('',#1483,#1484);
#1170=VERTEX_POINT('',#1485);
#1171=LINE('',#1486,#1487);
#1172=VERTEX_POINT('',#1488);
#1173=LINE('',#1489,#1490);
#1174=VERTEX_POINT('',#1491);
#1175=LINE('',#1492,#1493);
#1176=VERTEX_POINT('',#1494);
#1177=LINE('',#1495,#1496);
#1178=LINE('',#1497,#1498);
#1179=LINE('',#1499,#1500);
#1180=LINE('',#1501,#1502);
#1181=LINE('',#1503,#1504);
#1182=CIRCLE('',#1505,3.25);
#1183=VERTEX_POINT('',#1506);
#1184=LINE('',#1507,#1508);
#1185=VERTEX_POINT('',#1509);
#1186=LINE('',#1510,#1511);
#1187=LINE('',#1512,#1513);
#1188=VERTEX_POINT('',#1514);
#1189=CIRCLE('',#1515,4.1);
#1190=VERTEX_POINT('',#1516);
#1191=LINE('',#1517,#1518);
#1192=CIRCLE('',#1519,4.1);
#1193=LINE('',#1520,#1521);
#1194=LINE('',#1522,#1523);
#1195=CIRCLE('',#1524,3.25);
#1196=CIRCLE('',#1525,1.05);
#1197=VERTEX_POINT('',#1526);
#1198=LINE('',#1527,#1528);
#1199=VERTEX_POINT('',#1529);
#1200=LINE('',#1530,#1531);
#1201=VERTEX_POINT('',#1532);
#1202=LINE('',#1533,#1534);
#1203=VERTEX_POINT('',#1535);
#1204=LINE('',#1536,#1537);
#1205=LINE('',#1538,#1539);
#1206=VERTEX_POINT('',#1540);
#1207=VERTEX_POINT('',#1541);
#1208=LINE('',#1542,#1543);
#1209=LINE('',#1544,#1545);
#1210=LINE('',#1546,#1547);
#1211=VERTEX_POINT('',#1548);
#1212=LINE('',#1549,#1550);
#1213=VERTEX_POINT('',#1551);
#1214=LINE('',#1552,#1553);
#1215=LINE('',#1554,#1555);
#1216=LINE('',#1556,#1557);
#1217=LINE('',#1558,#1559);
#1218=LINE('',#1560,#1561);
#1219=VERTEX_POINT('',#1562);
#1220=LINE('',#1563,#1564);
#1221=LINE('',#1565,#1566);
#1222=CIRCLE('',#1567,0.5);
#1223=VERTEX_POINT('',#1568);
#1224=LINE('',#1569,#1570);
#1225=LINE('',#1571,#1572);
#1226=CIRCLE('',#1573,0.750000000000001);
#1227=LINE('',#1574,#1575);
#1228=CIRCLE('',#1576,0.5);
#1229=CIRCLE('',#1577,0.750000000000001);
#1230=VERTEX_POINT('',#1578);
#1231=LINE('',#1579,#1580);
#1232=VERTEX_POINT('',#1581);
#1233=CIRCLE('',#1582,1.25);
#1234=VERTEX_POINT('',#1583);
#1235=CIRCLE('',#1584,1.25);
#1236=LINE('',#1585,#1586);
#1237=CIRCLE('',#1587,0.75);
#1238=VERTEX_POINT('',#1588);
#1239=LINE('',#1589,#1590);
#1240=LINE('',#1591,#1592);
#1241=VERTEX_POINT('',#1593);
#1242=VERTEX_POINT('',#1594);
#1243=CIRCLE('',#1595,1.25);
#1244=CIRCLE('',#1596,1.25);
#1245=LINE('',#1597,#1598);
#1246=CIRCLE('',#1599,0.75);
#1247=LINE('',#1600,#1601);
#1248=VERTEX_POINT('',#1602);
#1249=LINE('',#1603,#1604);
#1250=VERTEX_POINT('',#1605);
#1251=CIRCLE('',#1606,0.5);
#1252=LINE('',#1607,#1608);
#1253=VERTEX_POINT('',#1609);
#1254=LINE('',#1610,#1611);
#1255=LINE('',#1612,#1613);
#1256=VERTEX_POINT('',#1614);
#1257=LINE('',#1615,#1616);
#1258=CIRCLE('',#1617,0.5);
#1259=LINE('',#1618,#1619);
#1260=LINE('',#1620,#1621);
#1261=VERTEX_POINT('',#1622);
#1262=LINE('',#1623,#1624);
#1263=VERTEX_POINT('',#1625);
#1264=CIRCLE('',#1626,1.5);
#1265=VERTEX_POINT('',#1627);
#1266=CIRCLE('',#1628,1.5);
#1267=LINE('',#1629,#1630);
#1268=LINE('',#1631,#1632);
#1269=CIRCLE('',#1633,0.75);
#1270=VERTEX_POINT('',#1634);
#1271=LINE('',#1635,#1636);
#1272=LINE('',#1637,#1638);
#1273=VERTEX_POINT('',#1639);
#1274=VERTEX_POINT('',#1640);
#1275=CIRCLE('',#1641,1.5);
#1276=CIRCLE('',#1642,1.5);
#1277=LINE('',#1643,#1644);
#1278=CIRCLE('',#1645,0.75);
#1279=LINE('',#1646,#1647);
#1280=LINE('',#1648,#1649);
#1281=LINE('',#1650,#1651);
#1282=CARTESIAN_POINT('',(-9.95,-8.75,-4.5));
#1283=CARTESIAN_POINT('',(-11.45,-8.75,-4.5));
#1284=AXIS2_PLACEMENT_3D('',#1652,#1653,#1654);
#1285=CARTESIAN_POINT('',(-9.95,-8.75,-4.9));
#1286=CARTESIAN_POINT('',(-9.95,-8.75,4.50000000000001));
#1287=VECTOR('',#1655,1000.0);
#1288=CARTESIAN_POINT('',(-11.45,-8.75,-4.9));
#1289=AXIS2_PLACEMENT_3D('',#1656,#1657,#1658);
#1290=CARTESIAN_POINT('',(-11.45,-8.75,4.50000000000001));
#1291=VECTOR('',#1659,1000.0);
#1292=CARTESIAN_POINT('',(-7.825,-8.75,0.749999999999997));
#1293=CARTESIAN_POINT('',(-7.825,-8.75,-0.750000000000004));
#1294=AXIS2_PLACEMENT_3D('',#1660,#1661,#1662);
#1295=CARTESIAN_POINT('',(-7.575,-8.75,0.749999999999997));
#1296=CARTESIAN_POINT('',(-14.4,-8.75,0.749999999999997));
#1297=VECTOR('',#1663,1000.0);
#1298=CARTESIAN_POINT('',(-7.575,-8.75,-0.750000000000004));
#1299=AXIS2_PLACEMENT_3D('',#1664,#1665,#1666);
#1300=CARTESIAN_POINT('',(-14.4,-8.75,-0.750000000000004));
#1301=VECTOR('',#1667,1000.0);
#1302=CARTESIAN_POINT('',(-13.88,-8.75,0.749999999999997));
#1303=CARTESIAN_POINT('',(-13.88,-8.75,-0.750000000000004));
#1304=AXIS2_PLACEMENT_3D('',#1668,#1669,#1670);
#1305=CARTESIAN_POINT('',(-13.52,-8.75,0.749999999999997));
#1306=CARTESIAN_POINT('',(-14.4,-8.75,0.749999999999997));
#1307=VECTOR('',#1671,1000.0);
#1308=CARTESIAN_POINT('',(-13.52,-8.75,-0.750000000000004));
#1309=AXIS2_PLACEMENT_3D('',#1672,#1673,#1674);
#1310=CARTESIAN_POINT('',(-14.4,-8.75,-0.750000000000004));
#1311=VECTOR('',#1675,1000.0);
#1312=CARTESIAN_POINT('',(-1.0,1.40834381901946E-016,-1.05));
#1313=CARTESIAN_POINT('',(-1.0,0.0,1.05));
#1314=AXIS2_PLACEMENT_3D('',#1676,#1677,#1678);
#1315=CARTESIAN_POINT('',(-1.2,0.0,-1.25));
#1316=CARTESIAN_POINT('',(-1.0,1.28587913910472E-016,-1.05));
#1317=VECTOR('',#1679,1000.0);
#1318=CARTESIAN_POINT('',(-1.2,1.53080849893419E-016,1.25));
#1319=AXIS2_PLACEMENT_3D('',#1680,#1681,#1682);
#1320=CARTESIAN_POINT('',(-1.0,0.0,1.05));
#1321=VECTOR('',#1683,1000.0);
#1322=CARTESIAN_POINT('',(-7.0,3.9801020972289E-016,3.25));
#1323=CARTESIAN_POINT('',(-7.0,0.0,-3.25));
#1324=AXIS2_PLACEMENT_3D('',#1684,#1685,#1686);
#1325=CARTESIAN_POINT('',(0.0,3.9801020972289E-016,3.25));
#1326=CARTESIAN_POINT('',(-7.0,3.9801020972289E-016,3.25));
#1327=VECTOR('',#1687,1000.0);
#1328=CARTESIAN_POINT('',(0.0,0.0,-3.25));
#1329=AXIS2_PLACEMENT_3D('',#1688,#1689,#1690);
#1330=CARTESIAN_POINT('',(-7.0,0.0,-3.25));
#1331=VECTOR('',#1691,1000.0);
#1332=CARTESIAN_POINT('',(-7.0,0.0,-1.25));
#1333=CARTESIAN_POINT('',(-7.0,1.53080849893419E-016,1.25));
#1334=AXIS2_PLACEMENT_3D('',#1692,#1693,#1694);
#1335=CARTESIAN_POINT('',(-7.0,1.53080849893419E-016,1.25));
#1336=VECTOR('',#1695,1000.0);
#1337=CARTESIAN_POINT('',(-7.0,0.0,-1.25));
#1338=VECTOR('',#1696,1000.0);
#1339=CARTESIAN_POINT('',(-14.4,-4.0,4.50000000000001));
#1340=CARTESIAN_POINT('',(-14.4,-4.0,1.5));
#1341=CARTESIAN_POINT('',(-14.4,-4.0,4.50000000000001));
#1342=VECTOR('',#1697,1000.0);
#1343=CARTESIAN_POINT('',(-14.4,-6.5,1.5));
#1344=CARTESIAN_POINT('',(-14.4,-4.0,1.5));
#1345=VECTOR('',#1698,1000.0);
#1346=CARTESIAN_POINT('',(-14.4,-6.5,4.50000000000001));
#1347=CARTESIAN_POINT('',(-14.4,-6.5,4.50000000000001));
#1348=VECTOR('',#1699,1000.0);
#1349=CARTESIAN_POINT('',(-14.4,4.5,4.5));
#1350=VECTOR('',#1700,1000.0);
#1351=CARTESIAN_POINT('',(-9.45,-8.75,-4.5));
#1352=CARTESIAN_POINT('',(-9.45,-8.75,-4.9));
#1353=CARTESIAN_POINT('',(-9.45,-8.75,-4.5));
#1354=VECTOR('',#1701,1000.0);
#1355=CARTESIAN_POINT('',(-11.95,-8.75,-4.5));
#1356=AXIS2_PLACEMENT_3D('',#1702,#1703,#1704);
#1357=CARTESIAN_POINT('',(-11.95,-8.75,-4.9));
#1358=CARTESIAN_POINT('',(-11.95,-8.75,-4.5));
#1359=VECTOR('',#1705,1000.0);
#1360=AXIS2_PLACEMENT_3D('',#1706,#1707,#1708);
#1361=CARTESIAN_POINT('',(-13.88,-6.5,1.5));
#1362=CARTESIAN_POINT('',(-9.97487516204667,-6.5,1.5));
#1363=VECTOR('',#1709,1000.0);
#1364=CARTESIAN_POINT('',(-13.52,-6.5,1.5));
#1365=CARTESIAN_POINT('',(-14.4,-6.5,1.5));
#1366=VECTOR('',#1710,1000.0);
#1367=CARTESIAN_POINT('',(-13.52,-6.5,-1.5));
#1368=CARTESIAN_POINT('',(-13.52,-6.5,4.50000000000001));
#1369=VECTOR('',#1711,1000.0);
#1370=CARTESIAN_POINT('',(-13.88,-6.5,-1.5));
#1371=CARTESIAN_POINT('',(-14.4,-6.5,-1.5));
#1372=VECTOR('',#1712,1000.0);
#1373=CARTESIAN_POINT('',(-14.4,-6.5,-1.5));
#1374=CARTESIAN_POINT('',(-9.97487516204667,-6.5,-1.5));
#1375=VECTOR('',#1713,1000.0);
#1376=CARTESIAN_POINT('',(-14.4,-6.5,-4.5));
#1377=CARTESIAN_POINT('',(-14.4,-6.5,4.50000000000001));
#1378=VECTOR('',#1714,1000.0);
#1379=CARTESIAN_POINT('',(-11.95,-6.5,-4.5));
#1380=CARTESIAN_POINT('',(-14.4,-6.5,-4.5));
#1381=VECTOR('',#1715,1000.0);
#1382=CARTESIAN_POINT('',(-9.45,-6.5,-4.5));
#1383=CARTESIAN_POINT('',(-14.4,-6.5,-4.5));
#1384=VECTOR('',#1716,1000.0);
#1385=CARTESIAN_POINT('',(0.0,-6.5,-4.5));
#1386=CARTESIAN_POINT('',(-14.4,-6.5,-4.5));
#1387=VECTOR('',#1717,1000.0);
#1388=CARTESIAN_POINT('',(0.0,-6.5,4.50000000000001));
#1389=CARTESIAN_POINT('',(0.0,-6.5,4.50000000000001));
#1390=VECTOR('',#1718,1000.0);
#1391=CARTESIAN_POINT('',(-14.4,-6.5,4.50000000000001));
#1392=VECTOR('',#1719,1000.0);
#1393=CARTESIAN_POINT('',(-7.575,-6.5,-1.25));
#1394=CARTESIAN_POINT('',(-7.825,-6.5,-1.25));
#1395=CARTESIAN_POINT('',(-14.4,-6.5,-1.25));
#1396=VECTOR('',#1720,1000.0);
#1397=CARTESIAN_POINT('',(-7.825,-6.5,1.25));
#1398=CARTESIAN_POINT('',(-7.825,-6.5,4.50000000000001));
#1399=VECTOR('',#1721,1000.0);
#1400=CARTESIAN_POINT('',(-7.575,-6.5,1.25));
#1401=CARTESIAN_POINT('',(-14.4,-6.5,1.25));
#1402=VECTOR('',#1722,1000.0);
#1403=CARTESIAN_POINT('',(-7.575,-6.5,4.50000000000001));
#1404=VECTOR('',#1723,1000.0);
#1405=CARTESIAN_POINT('',(-13.88,-4.0,1.5));
#1406=CARTESIAN_POINT('',(-13.52,-4.0,1.5));
#1407=CARTESIAN_POINT('',(-14.4,-4.0,1.5));
#1408=VECTOR('',#1724,1000.0);
#1409=CARTESIAN_POINT('',(-9.97487516204667,-4.0,1.5));
#1410=VECTOR('',#1725,1000.0);
#1411=CARTESIAN_POINT('',(-13.5,-4.0,4.50000000000001));
#1412=CARTESIAN_POINT('',(-14.4,-4.0,4.50000000000001));
#1413=VECTOR('',#1726,1000.0);
#1414=CARTESIAN_POINT('',(-13.5,-4.0,-4.5));
#1415=CARTESIAN_POINT('',(-13.5,-4.0,4.50000000000001));
#1416=VECTOR('',#1727,1000.0);
#1417=CARTESIAN_POINT('',(-14.4,-4.0,-4.5));
#1418=CARTESIAN_POINT('',(-14.4,-4.0,-4.5));
#1419=VECTOR('',#1728,1000.0);
#1420=CARTESIAN_POINT('',(-14.4,-4.0,-1.5));
#1421=CARTESIAN_POINT('',(-14.4,-4.0,4.50000000000001));
#1422=VECTOR('',#1729,1000.0);
#1423=CARTESIAN_POINT('',(-13.88,-4.0,-1.5));
#1424=CARTESIAN_POINT('',(-9.97487516204667,-4.0,-1.5));
#1425=VECTOR('',#1730,1000.0);
#1426=CARTESIAN_POINT('',(-13.52,-4.0,-1.5));
#1427=CARTESIAN_POINT('',(-14.4,-4.0,-1.5));
#1428=VECTOR('',#1731,1000.0);
#1429=CARTESIAN_POINT('',(-13.52,-4.0,4.50000000000001));
#1430=VECTOR('',#1732,1000.0);
#1431=CARTESIAN_POINT('',(-9.45,-3.5,-4.5));
#1432=CARTESIAN_POINT('',(-9.45,-10.0,-4.5));
#1433=VECTOR('',#1733,1000.0);
#1434=CARTESIAN_POINT('',(-11.95,-3.5,-4.5));
#1435=CARTESIAN_POINT('',(-11.95,-3.5,-4.5));
#1436=VECTOR('',#1734,1000.0);
#1437=CARTESIAN_POINT('',(-11.95,-10.0,-4.5));
#1438=VECTOR('',#1735,1000.0);
#1439=CARTESIAN_POINT('',(-14.4,4.5,-4.5));
#1440=VECTOR('',#1736,1000.0);
#1441=CARTESIAN_POINT('',(-13.5,0.0,-4.5));
#1442=CARTESIAN_POINT('',(-13.5,-4.0,-4.5));
#1443=VECTOR('',#1737,1000.0);
#1444=CARTESIAN_POINT('',(-3.5,4.59227382683364E-018,-4.49999999999997));
#1445=CARTESIAN_POINT('',(-14.4,4.59227382683364E-018,-4.49999999999997));
#1446=VECTOR('',#1738,1000.0);
#1447=CARTESIAN_POINT('',(-3.5,4.5,-4.5));
#1448=CARTESIAN_POINT('',(-3.5,4.59227382683364E-018,-4.49999999999997));
#1449=VECTOR('',#1739,1000.0);
#1450=CARTESIAN_POINT('',(-2.5,4.5,-4.49999999999999));
#1451=CARTESIAN_POINT('',(-14.4,4.5,-4.5));
#1452=VECTOR('',#1740,1000.0);
#1453=CARTESIAN_POINT('',(-2.5,2.8,-4.49999999999999));
#1454=CARTESIAN_POINT('',(-2.5,2.8,-4.49999999999999));
#1455=VECTOR('',#1741,1000.0);
#1456=CARTESIAN_POINT('',(-0.999999999999999,2.8,-4.5));
#1457=CARTESIAN_POINT('',(-1.0,2.8,-4.49999999999999));
#1458=VECTOR('',#1742,1000.0);
#1459=CARTESIAN_POINT('',(-1.0,4.5,-4.49999999999999));
#1460=CARTESIAN_POINT('',(-1.0,2.8,-4.49999999999999));
#1461=VECTOR('',#1743,1000.0);
#1462=CARTESIAN_POINT('',(0.0,4.5,-4.5));
#1463=CARTESIAN_POINT('',(-14.4,4.5,-4.5));
#1464=VECTOR('',#1744,1000.0);
#1465=CARTESIAN_POINT('',(0.0,4.5,-4.5));
#1466=VECTOR('',#1745,1000.0);
#1467=CARTESIAN_POINT('',(-1.0,4.5,4.49999999999999));
#1468=CARTESIAN_POINT('',(-1.0,4.5,-4.49999999999999));
#1469=VECTOR('',#1746,1000.0);
#1470=CARTESIAN_POINT('',(0.0,4.5,4.5));
#1471=CARTESIAN_POINT('',(-14.4,4.5,4.5));
#1472=VECTOR('',#1747,1000.0);
#1473=CARTESIAN_POINT('',(0.0,4.5,4.5));
#1474=VECTOR('',#1748,1000.0);
#1475=AXIS2_PLACEMENT_3D('',#1749,#1750,#1751);
#1476=AXIS2_PLACEMENT_3D('',#1752,#1753,#1754);
#1477=CARTESIAN_POINT('',(0.0,4.5,4.5));
#1478=VECTOR('',#1755,1000.0);
#1479=CARTESIAN_POINT('',(-1.0,2.8,4.49999999999999));
#1480=CARTESIAN_POINT('',(-1.0,2.8,4.49999999999999));
#1481=VECTOR('',#1756,1000.0);
#1482=CARTESIAN_POINT('',(-2.5,2.8,4.49999999999999));
#1483=CARTESIAN_POINT('',(-1.0,2.8,4.49999999999999));
#1484=VECTOR('',#1757,1000.0);
#1485=CARTESIAN_POINT('',(-2.5,4.5,4.49999999999999));
#1486=CARTESIAN_POINT('',(-2.5,2.8,4.49999999999999));
#1487=VECTOR('',#1758,1000.0);
#1488=CARTESIAN_POINT('',(-3.5,4.5,4.5));
#1489=CARTESIAN_POINT('',(-14.4,4.5,4.5));
#1490=VECTOR('',#1759,1000.0);
#1491=CARTESIAN_POINT('',(-3.5,4.59227382683364E-018,4.49999999999998));
#1492=CARTESIAN_POINT('',(-3.5,4.5,4.5));
#1493=VECTOR('',#1760,1000.0);
#1494=CARTESIAN_POINT('',(-13.5,4.59227382683364E-018,4.49999999999998));
#1495=CARTESIAN_POINT('',(-14.4,4.59227382683364E-018,4.49999999999998));
#1496=VECTOR('',#1761,1000.0);
#1497=CARTESIAN_POINT('',(-13.5,-4.0,4.50000000000001));
#1498=VECTOR('',#1762,1000.0);
#1499=CARTESIAN_POINT('',(-2.5,4.5,-4.49999999999999));
#1500=VECTOR('',#1763,1000.0);
#1501=CARTESIAN_POINT('',(-3.5,4.5,-4.5));
#1502=VECTOR('',#1764,1000.0);
#1503=CARTESIAN_POINT('',(-14.4,-4.0,-1.5));
#1504=VECTOR('',#1765,1000.0);
#1505=AXIS2_PLACEMENT_3D('',#1766,#1767,#1768);
#1506=CARTESIAN_POINT('',(-13.5,0.0,-4.1));
#1507=CARTESIAN_POINT('',(-13.5,1.83690953073357E-017,-4.1));
#1508=VECTOR('',#1769,1000.0);
#1509=CARTESIAN_POINT('',(-3.5,1.83690953073357E-017,-4.1));
#1510=CARTESIAN_POINT('',(-14.4,1.83690953073357E-017,-4.1));
#1511=VECTOR('',#1770,1000.0);
#1512=CARTESIAN_POINT('',(-3.5,1.83690953073357E-017,-4.1));
#1513=VECTOR('',#1771,1000.0);
#1514=CARTESIAN_POINT('',(-13.5,1.83690953073358E-017,4.1));
#1515=AXIS2_PLACEMENT_3D('',#1772,#1773,#1774);
#1516=CARTESIAN_POINT('',(-3.5,5.02105187650415E-016,4.1));
#1517=CARTESIAN_POINT('',(-14.4,5.02105187650415E-016,4.1));
#1518=VECTOR('',#1775,1000.0);
#1519=AXIS2_PLACEMENT_3D('',#1776,#1777,#1778);
#1520=CARTESIAN_POINT('',(-13.5,4.59227382683364E-018,4.49999999999998));
#1521=VECTOR('',#1779,1000.0);
#1522=CARTESIAN_POINT('',(-3.5,4.59227382683364E-018,4.49999999999998));
#1523=VECTOR('',#1780,1000.0);
#1524=AXIS2_PLACEMENT_3D('',#1781,#1782,#1783);
#1525=AXIS2_PLACEMENT_3D('',#1784,#1785,#1786);
#1526=CARTESIAN_POINT('',(-1.0,2.8,-2.99999999999999));
#1527=CARTESIAN_POINT('',(-1.0,2.8,-4.49999999999999));
#1528=VECTOR('',#1787,1000.0);
#1529=CARTESIAN_POINT('',(-1.0,4.3,-2.99999999999999));
#1530=CARTESIAN_POINT('',(-1.0,2.8,-2.99999999999999));
#1531=VECTOR('',#1788,1000.0);
#1532=CARTESIAN_POINT('',(-1.0,4.3,2.99999999999999));
#1533=CARTESIAN_POINT('',(-1.0,4.3,-2.99999999999999));
#1534=VECTOR('',#1789,1000.0);
#1535=CARTESIAN_POINT('',(-1.0,2.8,2.99999999999999));
#1536=CARTESIAN_POINT('',(-1.0,2.8,2.99999999999999));
#1537=VECTOR('',#1790,1000.0);
#1538=CARTESIAN_POINT('',(-1.0,2.8,4.49999999999999));
#1539=VECTOR('',#1791,1000.0);
#1540=CARTESIAN_POINT('',(-2.5,2.8,-2.99999999999999));
#1541=CARTESIAN_POINT('',(-2.5,4.3,-2.99999999999999));
#1542=CARTESIAN_POINT('',(-2.5,2.8,-2.99999999999999));
#1543=VECTOR('',#1792,1000.0);
#1544=CARTESIAN_POINT('',(-1.0,4.3,-2.99999999999999));
#1545=VECTOR('',#1793,1000.0);
#1546=CARTESIAN_POINT('',(-1.0,2.8,-2.99999999999999));
#1547=VECTOR('',#1794,1000.0);
#1548=CARTESIAN_POINT('',(-2.5,2.8,2.99999999999999));
#1549=CARTESIAN_POINT('',(-2.5,2.8,4.49999999999999));
#1550=VECTOR('',#1795,1000.0);
#1551=CARTESIAN_POINT('',(-2.5,4.3,2.99999999999999));
#1552=CARTESIAN_POINT('',(-2.5,2.8,2.99999999999999));
#1553=VECTOR('',#1796,1000.0);
#1554=CARTESIAN_POINT('',(-2.5,4.3,-2.99999999999999));
#1555=VECTOR('',#1797,1000.0);
#1556=CARTESIAN_POINT('',(-2.5,2.8,-4.49999999999999));
#1557=VECTOR('',#1798,1000.0);
#1558=CARTESIAN_POINT('',(-1.0,4.3,2.99999999999999));
#1559=VECTOR('',#1799,1000.0);
#1560=CARTESIAN_POINT('',(-1.0,2.8,2.99999999999999));
#1561=VECTOR('',#1800,1000.0);
#1562=CARTESIAN_POINT('',(-11.95,-3.98989794855664,-4.9));
#1563=CARTESIAN_POINT('',(-11.95,-10.0,-4.9));
#1564=VECTOR('',#1801,1000.0);
#1565=CARTESIAN_POINT('',(-11.95,-10.0,-4.5));
#1566=VECTOR('',#1802,1000.0);
#1567=AXIS2_PLACEMENT_3D('',#1803,#1804,#1805);
#1568=CARTESIAN_POINT('',(-9.45,-3.98989794855664,-4.9));
#1569=CARTESIAN_POINT('',(-9.45,-10.0,-4.9));
#1570=VECTOR('',#1806,1000.0);
#1571=CARTESIAN_POINT('',(-11.95,-3.98989794855664,-4.9));
#1572=VECTOR('',#1807,1000.0);
#1573=AXIS2_PLACEMENT_3D('',#1808,#1809,#1810);
#1574=CARTESIAN_POINT('',(-9.45,-10.0,-4.5));
#1575=VECTOR('',#1811,1000.0);
#1576=AXIS2_PLACEMENT_3D('',#1812,#1813,#1814);
#1577=AXIS2_PLACEMENT_3D('',#1815,#1816,#1817);
#1578=CARTESIAN_POINT('',(-7.825,-8.75,-1.25));
#1579=CARTESIAN_POINT('',(-7.825,-10.0,-1.25));
#1580=VECTOR('',#1818,1000.0);
#1581=CARTESIAN_POINT('',(-7.825,-10.0,-8.67361737988403E-016));
#1582=AXIS2_PLACEMENT_3D('',#1819,#1820,#1821);
#1583=CARTESIAN_POINT('',(-7.825,-8.75,1.25));
#1584=AXIS2_PLACEMENT_3D('',#1822,#1823,#1824);
#1585=CARTESIAN_POINT('',(-7.825,-10.0,1.25));
#1586=VECTOR('',#1825,1000.0);
#1587=AXIS2_PLACEMENT_3D('',#1826,#1827,#1828);
#1588=CARTESIAN_POINT('',(-7.575,-8.75,-1.25));
#1589=CARTESIAN_POINT('',(-7.575,-10.0,-1.25));
#1590=VECTOR('',#1829,1000.0);
#1591=CARTESIAN_POINT('',(-7.825,-8.75,-1.25));
#1592=VECTOR('',#1830,1000.0);
#1593=CARTESIAN_POINT('',(-7.575,-8.75,1.25));
#1594=CARTESIAN_POINT('',(-7.575,-10.0,-8.67361737988403E-016));
#1595=AXIS2_PLACEMENT_3D('',#1831,#1832,#1833);
#1596=AXIS2_PLACEMENT_3D('',#1834,#1835,#1836);
#1597=CARTESIAN_POINT('',(-7.575,-10.0,1.25));
#1598=VECTOR('',#1837,1000.0);
#1599=AXIS2_PLACEMENT_3D('',#1838,#1839,#1840);
#1600=CARTESIAN_POINT('',(-7.575,-8.75,1.25));
#1601=VECTOR('',#1841,1000.0);
#1602=CARTESIAN_POINT('',(-13.52,2.1,1.5));
#1603=CARTESIAN_POINT('',(-13.52,-10.0,1.5));
#1604=VECTOR('',#1842,1000.0);
#1605=CARTESIAN_POINT('',(-13.88,1.62,1.5));
#1606=AXIS2_PLACEMENT_3D('',#1843,#1844,#1845);
#1607=CARTESIAN_POINT('',(-13.88,-10.0,1.5));
#1608=VECTOR('',#1846,1000.0);
#1609=CARTESIAN_POINT('',(-13.52,2.1,-1.5));
#1610=CARTESIAN_POINT('',(-13.52,-10.0,-1.5));
#1611=VECTOR('',#1847,1000.0);
#1612=CARTESIAN_POINT('',(-13.52,2.1,1.5));
#1613=VECTOR('',#1848,1000.0);
#1614=CARTESIAN_POINT('',(-13.88,1.62,-1.5));
#1615=CARTESIAN_POINT('',(-13.88,-10.0,-1.5));
#1616=VECTOR('',#1849,1000.0);
#1617=AXIS2_PLACEMENT_3D('',#1850,#1851,#1852);
#1618=CARTESIAN_POINT('',(-13.88,1.62,1.5));
#1619=VECTOR('',#1853,1000.0);
#1620=CARTESIAN_POINT('',(-13.88,-4.0,-1.5));
#1621=VECTOR('',#1854,1000.0);
#1622=CARTESIAN_POINT('',(-13.88,-8.5,-1.5));
#1623=CARTESIAN_POINT('',(-13.88,-10.0,-1.5));
#1624=VECTOR('',#1855,1000.0);
#1625=CARTESIAN_POINT('',(-13.88,-10.0,0.0));
#1626=AXIS2_PLACEMENT_3D('',#1856,#1857,#1858);
#1627=CARTESIAN_POINT('',(-13.88,-8.5,1.5));
#1628=AXIS2_PLACEMENT_3D('',#1859,#1860,#1861);
#1629=CARTESIAN_POINT('',(-13.88,-10.0,1.5));
#1630=VECTOR('',#1862,1000.0);
#1631=CARTESIAN_POINT('',(-13.88,-4.0,1.5));
#1632=VECTOR('',#1863,1000.0);
#1633=AXIS2_PLACEMENT_3D('',#1864,#1865,#1866);
#1634=CARTESIAN_POINT('',(-13.52,-8.5,-1.5));
#1635=CARTESIAN_POINT('',(-13.52,-10.0,-1.5));
#1636=VECTOR('',#1867,1000.0);
#1637=CARTESIAN_POINT('',(-13.88,-8.5,-1.5));
#1638=VECTOR('',#1868,1000.0);
#1639=CARTESIAN_POINT('',(-13.52,-8.5,1.5));
#1640=CARTESIAN_POINT('',(-13.52,-10.0,0.0));
#1641=AXIS2_PLACEMENT_3D('',#1869,#1870,#1871);
#1642=AXIS2_PLACEMENT_3D('',#1872,#1873,#1874);
#1643=CARTESIAN_POINT('',(-13.52,-10.0,1.5));
#1644=VECTOR('',#1875,1000.0);
#1645=AXIS2_PLACEMENT_3D('',#1876,#1877,#1878);
#1646=CARTESIAN_POINT('',(-13.52,-8.5,1.5));
#1647=VECTOR('',#1879,1000.0);
#1648=CARTESIAN_POINT('',(-7.825,-10.0,-8.67361737988403E-016));
#1649=VECTOR('',#1880,1000.0);
#1650=CARTESIAN_POINT('',(-13.88,-10.0,0.0));
#1651=VECTOR('',#1881,1000.0);
#1652=CARTESIAN_POINT('',(-10.7,-8.75,-4.5));
#1653=DIRECTION('',(0.0,0.0,-1.0));
#1654=DIRECTION('',(-1.0,0.0,0.0));
#1655=DIRECTION('',(-3.46944695195361E-016,-0.0,-1.0));
#1656=CARTESIAN_POINT('',(-10.7,-8.75,-4.9));
#1657=DIRECTION('',(0.0,0.0,-1.0));
#1658=DIRECTION('',(-1.0,0.0,0.0));
#1659=DIRECTION('',(-3.46944695195361E-016,-0.0,-1.0));
#1660=CARTESIAN_POINT('',(-7.825,-8.75,-3.49546780409327E-015));
#1661=DIRECTION('',(1.0,0.0,0.0));
#1662=DIRECTION('',(0.0,0.0,-1.0));
#1663=DIRECTION('',(1.0,-0.0,-0.0));
#1664=CARTESIAN_POINT('',(-7.575,-8.75,-3.49546780409327E-015));
#1665=DIRECTION('',(1.0,0.0,0.0));
#1666=DIRECTION('',(0.0,0.0,-1.0));
#1667=DIRECTION('',(1.0,-0.0,-0.0));
#1668=CARTESIAN_POINT('',(-13.88,-8.75,-3.49546780409327E-015));
#1669=DIRECTION('',(1.0,0.0,0.0));
#1670=DIRECTION('',(0.0,0.0,-1.0));
#1671=DIRECTION('',(1.0,-0.0,-0.0));
#1672=CARTESIAN_POINT('',(-13.52,-8.75,-3.49546780409327E-015));
#1673=DIRECTION('',(-1.0,0.0,0.0));
#1674=DIRECTION('',(0.0,0.0,1.0));
#1675=DIRECTION('',(1.0,-0.0,-0.0));
#1676=CARTESIAN_POINT('',(-1.0,0.0,0.0));
#1677=DIRECTION('',(1.0,0.0,0.0));
#1678=DIRECTION('',(0.0,0.0,-1.0));
#1679=DIRECTION('',(-0.707106781186548,8.65956056235493E-017,-0.707106781186547));
#1680=CARTESIAN_POINT('',(-1.2,0.0,0.0));
#1681=DIRECTION('',(-1.0,0.0,0.0));
#1682=DIRECTION('',(0.0,0.0,-1.0));
#1683=DIRECTION('',(-0.707106781186548,0.0,0.707106781186547));
#1684=CARTESIAN_POINT('',(-7.0,0.0,0.0));
#1685=DIRECTION('',(1.0,0.0,0.0));
#1686=DIRECTION('',(0.0,0.0,-1.0));
#1687=DIRECTION('',(1.0,-0.0,-0.0));
#1688=CARTESIAN_POINT('',(0.0,0.0,0.0));
#1689=DIRECTION('',(1.0,0.0,0.0));
#1690=DIRECTION('',(0.0,0.0,-1.0));
#1691=DIRECTION('',(1.0,-0.0,-0.0));
#1692=CARTESIAN_POINT('',(-7.0,0.0,0.0));
#1693=DIRECTION('',(1.0,0.0,0.0));
#1694=DIRECTION('',(0.0,0.0,-1.0));
#1695=DIRECTION('',(1.0,-0.0,-0.0));
#1696=DIRECTION('',(1.0,-0.0,-0.0));
#1697=DIRECTION('',(-0.0,-0.0,-1.0));
#1698=DIRECTION('',(-0.0,1.0,-0.0));
#1699=DIRECTION('',(0.0,0.0,-1.0));
#1700=DIRECTION('',(0.0,-1.0,5.51957469628984E-016));
#1701=DIRECTION('',(0.0,0.0,-1.0));
#1702=CARTESIAN_POINT('',(-10.7,-8.75,-4.5));
#1703=DIRECTION('',(0.0,0.0,1.0));
#1704=DIRECTION('',(-1.0,0.0,0.0));
#1705=DIRECTION('',(-0.0,-0.0,1.0));
#1706=CARTESIAN_POINT('',(-10.7,-8.75,-4.9));
#1707=DIRECTION('',(0.0,0.0,-1.0));
#1708=DIRECTION('',(1.0,0.0,0.0));
#1709=DIRECTION('',(-1.0,-0.0,-0.0));
#1710=DIRECTION('',(1.0,0.0,0.0));
#1711=DIRECTION('',(0.0,0.0,-1.0));
#1712=DIRECTION('',(-1.0,0.0,0.0));
#1713=DIRECTION('',(-1.0,-0.0,-0.0));
#1714=DIRECTION('',(0.0,0.0,-1.0));
#1715=DIRECTION('',(1.0,0.0,0.0));
#1716=DIRECTION('',(1.0,0.0,0.0));
#1717=DIRECTION('',(1.0,0.0,0.0));
#1718=DIRECTION('',(0.0,0.0,-1.0));
#1719=DIRECTION('',(1.0,0.0,0.0));
#1720=DIRECTION('',(-1.0,0.0,0.0));
#1721=DIRECTION('',(-0.0,0.0,1.0));
#1722=DIRECTION('',(1.0,0.0,0.0));
#1723=DIRECTION('',(3.46944695195361E-016,0.0,-1.0));
#1724=DIRECTION('',(1.0,0.0,0.0));
#1725=DIRECTION('',(-1.0,-0.0,-0.0));
#1726=DIRECTION('',(-1.0,-0.0,-0.0));
#1727=DIRECTION('',(-0.0,-0.0,-1.0));
#1728=DIRECTION('',(-1.0,-0.0,-0.0));
#1729=DIRECTION('',(-0.0,-0.0,-1.0));
#1730=DIRECTION('',(-1.0,-0.0,-0.0));
#1731=DIRECTION('',(-1.0,0.0,0.0));
#1732=DIRECTION('',(0.0,0.0,-1.0));
#1733=DIRECTION('',(-0.0,1.0,-0.0));
#1734=DIRECTION('',(-1.0,-0.0,3.46944695195362E-016));
#1735=DIRECTION('',(-0.0,1.0,-0.0));
#1736=DIRECTION('',(-0.0,1.0,2.36553201269565E-016));
#1737=DIRECTION('',(-0.0,-1.0,-0.0));
#1738=DIRECTION('',(1.0,-0.0,-0.0));
#1739=DIRECTION('',(0.0,1.0,-5.39691748081673E-015));
#1740=DIRECTION('',(1.0,0.0,0.0));
#1741=DIRECTION('',(-0.0,1.0,1.92747052886312E-016));
#1742=DIRECTION('',(-1.0,0.0,0.0));
#1743=DIRECTION('',(-0.0,1.0,1.92747052886312E-016));
#1744=DIRECTION('',(1.0,0.0,0.0));
#1745=DIRECTION('',(-0.0,1.0,2.36553201269565E-016));
#1746=DIRECTION('',(-0.0,-0.0,-1.0));
#1747=DIRECTION('',(1.0,0.0,0.0));
#1748=DIRECTION('',(-0.0,-9.6373526443156E-017,1.0));
#1749=CARTESIAN_POINT('',(-7.0,0.0,0.0));
#1750=DIRECTION('',(1.0,0.0,0.0));
#1751=DIRECTION('',(0.0,0.0,-1.0));
#1752=CARTESIAN_POINT('',(-1.2,0.0,0.0));
#1753=DIRECTION('',(-1.0,0.0,0.0));
#1754=DIRECTION('',(0.0,0.0,-1.0));
#1755=DIRECTION('',(0.0,-1.0,5.51957469628984E-016));
#1756=DIRECTION('',(-0.0,1.0,1.92747052886312E-016));
#1757=DIRECTION('',(1.0,-0.0,-0.0));
#1758=DIRECTION('',(-0.0,1.0,1.92747052886312E-016));
#1759=DIRECTION('',(1.0,0.0,0.0));
#1760=DIRECTION('',(0.0,-1.0,-5.39691748081674E-015));
#1761=DIRECTION('',(1.0,-0.0,-0.0));
#1762=DIRECTION('',(-0.0,-1.0,-0.0));
#1763=DIRECTION('',(0.0,0.0,1.0));
#1764=DIRECTION('',(0.0,-9.6373526443156E-017,1.0));
#1765=DIRECTION('',(0.0,-1.0,0.0));
#1766=CARTESIAN_POINT('',(0.0,0.0,0.0));
#1767=DIRECTION('',(1.0,0.0,0.0));
#1768=DIRECTION('',(0.0,0.0,-1.0));
#1769=DIRECTION('',(-0.0,3.44420537012573E-017,1.0));
#1770=DIRECTION('',(1.0,-0.0,-0.0));
#1771=DIRECTION('',(0.0,-3.44420537012573E-017,-1.0));
#1772=CARTESIAN_POINT('',(-13.5,0.0,0.0));
#1773=DIRECTION('',(1.0,0.0,0.0));
#1774=DIRECTION('',(0.0,0.0,-1.0));
#1775=DIRECTION('',(1.0,-0.0,-0.0));
#1776=CARTESIAN_POINT('',(-3.5,0.0,0.0));
#1777=DIRECTION('',(-1.0,-0.0,-0.0));
#1778=DIRECTION('',(0.0,0.0,-1.0));
#1779=DIRECTION('',(0.0,-3.44420537012574E-017,1.0));
#1780=DIRECTION('',(0.0,3.44420537012574E-017,-1.0));
#1781=CARTESIAN_POINT('',(-7.0,0.0,0.0));
#1782=DIRECTION('',(1.0,0.0,0.0));
#1783=DIRECTION('',(0.0,0.0,-1.0));
#1784=CARTESIAN_POINT('',(-1.0,0.0,0.0));
#1785=DIRECTION('',(1.0,0.0,0.0));
#1786=DIRECTION('',(0.0,0.0,-1.0));
#1787=DIRECTION('',(-0.0,-0.0,-1.0));
#1788=DIRECTION('',(-0.0,1.0,1.92747052886312E-016));
#1789=DIRECTION('',(-0.0,2.89120579329468E-016,-1.0));
#1790=DIRECTION('',(-0.0,1.0,1.92747052886312E-016));
#1791=DIRECTION('',(0.0,0.0,-1.0));
#1792=DIRECTION('',(-0.0,1.0,1.92747052886312E-016));
#1793=DIRECTION('',(-1.0,0.0,0.0));
#1794=DIRECTION('',(1.0,-0.0,-0.0));
#1795=DIRECTION('',(-0.0,-0.0,1.0));
#1796=DIRECTION('',(-0.0,1.0,1.92747052886312E-016));
#1797=DIRECTION('',(0.0,-2.89120579329468E-016,1.0));
#1798=DIRECTION('',(0.0,0.0,1.0));
#1799=DIRECTION('',(1.0,-0.0,-0.0));
#1800=DIRECTION('',(-1.0,0.0,0.0));
#1801=DIRECTION('',(-0.0,1.0,-0.0));
#1802=DIRECTION('',(-0.0,1.0,-0.0));
#1803=CARTESIAN_POINT('',(-11.95,-3.98989794855664,-4.4));
#1804=DIRECTION('',(-1.0,-0.0,0.0));
#1805=DIRECTION('',(0.0,-1.73472347597681E-015,-1.0));
#1806=DIRECTION('',(-0.0,1.0,-0.0));
#1807=DIRECTION('',(1.0,0.0,0.0));
#1808=CARTESIAN_POINT('',(-10.7,-8.75,-4.9));
#1809=DIRECTION('',(0.0,0.0,-1.0));
#1810=DIRECTION('',(-1.0,0.0,0.0));
#1811=DIRECTION('',(-0.0,1.0,-0.0));
#1812=CARTESIAN_POINT('',(-9.45,-3.98989794855664,-4.4));
#1813=DIRECTION('',(1.0,0.0,0.0));
#1814=DIRECTION('',(0.0,-1.73472347597681E-015,1.0));
#1815=CARTESIAN_POINT('',(-10.7,-8.75,-4.5));
#1816=DIRECTION('',(0.0,0.0,-1.0));
#1817=DIRECTION('',(-1.0,0.0,0.0));
#1818=DIRECTION('',(-0.0,1.0,-0.0));
#1819=CARTESIAN_POINT('',(-7.825,-8.75,-8.67361737988403E-016));
#1820=DIRECTION('',(-1.0,-0.0,-0.0));
#1821=DIRECTION('',(0.0,0.0,-1.0));
#1822=CARTESIAN_POINT('',(-7.825,-8.75,-8.67361737988403E-016));
#1823=DIRECTION('',(-1.0,-0.0,-0.0));
#1824=DIRECTION('',(0.0,0.0,-1.0));
#1825=DIRECTION('',(-0.0,1.0,-0.0));
#1826=CARTESIAN_POINT('',(-7.825,-8.75,-3.49546780409327E-015));
#1827=DIRECTION('',(1.0,0.0,0.0));
#1828=DIRECTION('',(0.0,0.0,-1.0));
#1829=DIRECTION('',(-0.0,1.0,-0.0));
#1830=DIRECTION('',(-1.0,0.0,-0.0));
#1831=CARTESIAN_POINT('',(-7.575,-8.75,-8.67361737988403E-016));
#1832=DIRECTION('',(1.0,0.0,6.93889390390723E-016));
#1833=DIRECTION('',(-6.93889390390723E-016,0.0,1.0));
#1834=CARTESIAN_POINT('',(-7.575,-8.75,-8.67361737988403E-016));
#1835=DIRECTION('',(1.0,0.0,6.93889390390723E-016));
#1836=DIRECTION('',(-6.93889390390723E-016,0.0,1.0));
#1837=DIRECTION('',(-0.0,1.0,-0.0));
#1838=CARTESIAN_POINT('',(-7.575,-8.75,-3.49546780409327E-015));
#1839=DIRECTION('',(1.0,0.0,0.0));
#1840=DIRECTION('',(0.0,0.0,-1.0));
#1841=DIRECTION('',(1.0,-0.0,-0.0));
#1842=DIRECTION('',(-0.0,1.0,-0.0));
#1843=CARTESIAN_POINT('',(-13.38,1.62,1.5));
#1844=DIRECTION('',(0.0,0.0,1.0));
#1845=DIRECTION('',(-1.0,8.67361737988403E-016,0.0));
#1846=DIRECTION('',(-0.0,1.0,-0.0));
#1847=DIRECTION('',(-0.0,1.0,-0.0));
#1848=DIRECTION('',(0.0,0.0,-1.0));
#1849=DIRECTION('',(-0.0,1.0,-0.0));
#1850=CARTESIAN_POINT('',(-13.38,1.62,-1.5));
#1851=DIRECTION('',(0.0,0.0,-1.0));
#1852=DIRECTION('',(1.0,0.0,0.0));
#1853=DIRECTION('',(-0.0,-0.0,-1.0));
#1854=DIRECTION('',(0.0,-1.0,0.0));
#1855=DIRECTION('',(-0.0,1.0,-0.0));
#1856=CARTESIAN_POINT('',(-13.88,-8.5,0.0));
#1857=DIRECTION('',(-1.0,-0.0,-0.0));
#1858=DIRECTION('',(0.0,0.0,-1.0));
#1859=CARTESIAN_POINT('',(-13.88,-8.5,0.0));
#1860=DIRECTION('',(-1.0,-0.0,-0.0));
#1861=DIRECTION('',(0.0,0.0,-1.0));
#1862=DIRECTION('',(-0.0,1.0,-0.0));
#1863=DIRECTION('',(0.0,1.0,-0.0));
#1864=CARTESIAN_POINT('',(-13.88,-8.75,-3.49546780409327E-015));
#1865=DIRECTION('',(1.0,0.0,0.0));
#1866=DIRECTION('',(0.0,0.0,-1.0));
#1867=DIRECTION('',(-0.0,1.0,-0.0));
#1868=DIRECTION('',(-1.0,0.0,-0.0));
#1869=CARTESIAN_POINT('',(-13.52,-8.5,0.0));
#1870=DIRECTION('',(1.0,0.0,-0.0));
#1871=DIRECTION('',(0.0,0.0,1.0));
#1872=CARTESIAN_POINT('',(-13.52,-8.5,0.0));
#1873=DIRECTION('',(1.0,0.0,-0.0));
#1874=DIRECTION('',(0.0,0.0,1.0));
#1875=DIRECTION('',(-0.0,1.0,-0.0));
#1876=CARTESIAN_POINT('',(-13.52,-8.75,-3.49546780409327E-015));
#1877=DIRECTION('',(-1.0,0.0,0.0));
#1878=DIRECTION('',(0.0,0.0,1.0));
#1879=DIRECTION('',(1.0,-0.0,-0.0));
#1880=DIRECTION('',(-1.0,0.0,0.0));
#1881=DIRECTION('',(-1.0,0.0,0.0));
ENDSEC;
END-ISO-10303-21;
