ISO-10303-21;
HEADER;
FILE_DESCRIPTION (( 'STEP AP203' ),
    '1' );
FILE_NAME ('Switch.STEP',
    '2018-11-14T05:49:20',
    ( '' ),
    ( '' ),
    'SwSTEP 2.0',
    'SolidWorks 2017',
    '' );
FILE_SCHEMA (( 'CONFIG_CONTROL_DESIGN' ));
ENDSEC;

DATA;
#1 = APPLICATION_PROTOCOL_DEFINITION ( 'international standard', 'config_control_design', 1994, #587 ) ;
#2 = DIRECTION ( 'NONE',  ( 0.0000000000000000000, 0.0000000000000000000, 1.000000000000000000 ) ) ;
#3 = VECTOR ( 'NONE', #232, 1000.000000000000000 ) ;
#4 = AXIS2_PLACEMENT_3D ( 'NONE', #715, #899, #875 ) ;
#5 = DATE_AND_TIME ( #1073, #221 ) ;
#6 = CARTESIAN_POINT ( 'NONE',  ( 0.0000000000000000000, 0.0000000000000000000, 16.50000000000000000 ) ) ;
#7 = ORIENTED_EDGE ( 'NONE', *, *, #486, .F. ) ;
#8 = APPROVAL_DATE_TIME ( #5, #368 ) ;
#9 = DIRECTION ( 'NONE',  ( -0.0000000000000000000, -1.000000000000000000, -0.0000000000000000000 ) ) ;
#10 = VERTEX_POINT ( 'NONE', #626 ) ;
#11 = ORIENTED_EDGE ( 'NONE', *, *, #203, .T. ) ;
#12 = CARTESIAN_POINT ( 'NONE',  ( -2.500000000000000000, 3.061616997868383100E-016, 12.50000000000000000 ) ) ;
#13 = ORIENTED_EDGE ( 'NONE', *, *, #54, .T. ) ;
#14 = CARTESIAN_POINT ( 'NONE',  ( -4.250000000000000000, -3.625000000000000400, 0.0000000000000000000 ) ) ;
#15 = APPROVAL ( #1154, 'UNSPECIFIED' ) ;
#16 = ADVANCED_FACE ( 'NONE', ( #660 ), #1035, .F. ) ;
#17 = CARTESIAN_POINT ( 'NONE',  ( -2.250000000000000000, -6.925000000000000700, 0.1199999999999991200 ) ) ;
#18 = CARTESIAN_POINT ( 'NONE',  ( 2.250000000000000400, -3.625000000000000400, 0.6199999999999990000 ) ) ;
#19 = ORIENTED_EDGE ( 'NONE', *, *, #709, .F. ) ;
#20 = DIRECTION ( 'NONE',  ( 0.0000000000000000000, -1.000000000000000000, 0.0000000000000000000 ) ) ;
#21 = DIRECTION ( 'NONE',  ( -0.0000000000000000000, 1.000000000000000000, -0.0000000000000000000 ) ) ;
#22 = ADVANCED_FACE ( 'NONE', ( #828 ), #485, .T. ) ;
#23 = EDGE_LOOP ( 'NONE', ( #1135, #444 ) ) ;
#24 = DIRECTION ( 'NONE',  ( 0.0000000000000000000, 0.0000000000000000000, 1.000000000000000000 ) ) ;
#25 = LINE ( 'NONE', #541, #87 ) ;
#26 = AXIS2_PLACEMENT_3D ( 'NONE', #771, #675, #766 ) ;
#27 = ORIENTED_EDGE ( 'NONE', *, *, #234, .F. ) ;
#28 = EDGE_LOOP ( 'NONE', ( #130, #1059, #630, #27 ) ) ;
#29 = ADVANCED_FACE ( 'NONE', ( #190 ), #1031, .T. ) ;
#30 = PLANE ( 'NONE',  #1088 ) ;
#31 = ORIENTED_EDGE ( 'NONE', *, *, #1054, .T. ) ;
#32 = DIRECTION ( 'NONE',  ( 0.0000000000000000000, 0.0000000000000000000, -1.000000000000000000 ) ) ;
#33 = VERTEX_POINT ( 'NONE', #569 ) ;
#34 = EDGE_LOOP ( 'NONE', ( #968, #1034, #210 ) ) ;
#35 = EDGE_CURVE ( 'NONE', #998, #1061, #1075, .T. ) ;
#36 = CARTESIAN_POINT ( 'NONE',  ( 2.250000000000000400, -3.625000000000000400, 1.119999999999999900 ) ) ;
#37 = CARTESIAN_POINT ( 'NONE',  ( -2.250000000000000000, -3.625000000000000400, 0.6199999999999990000 ) ) ;
#38 = EDGE_CURVE ( 'NONE', #1027, #596, #760, .T. ) ;
#39 = EDGE_LOOP ( 'NONE', ( #658, #972 ) ) ;
#40 = ORIENTED_EDGE ( 'NONE', *, *, #317, .F. ) ;
#41 = FACE_OUTER_BOUND ( 'NONE', #148, .T. ) ;
#42 = PERSON_AND_ORGANIZATION ( #925, #1129 ) ;
#43 = ORIENTED_EDGE ( 'NONE', *, *, #1043, .F. ) ;
#44 = ORIENTED_EDGE ( 'NONE', *, *, #952, .T. ) ;
#45 = ORIENTED_EDGE ( 'NONE', *, *, #833, .T. ) ;
#46 = CYLINDRICAL_SURFACE ( 'NONE', #277, 0.5000000000000004400 ) ;
#47 = DIRECTION ( 'NONE',  ( 0.0000000000000000000, 0.0000000000000000000, -1.000000000000000000 ) ) ;
#48 = EDGE_CURVE ( 'NONE', #728, #721, #1010, .T. ) ;
#49 = EDGE_LOOP ( 'NONE', ( #1064, #639, #333, #627, #297 ) ) ;
#50 = EDGE_LOOP ( 'NONE', ( #1083, #665, #738, #997 ) ) ;
#51 = DIRECTION ( 'NONE',  ( -0.0000000000000000000, -0.0000000000000000000, -1.000000000000000000 ) ) ;
#52 = AXIS2_PLACEMENT_3D ( 'NONE', #186, #969, #653 ) ;
#53 = CARTESIAN_POINT ( 'NONE',  ( 0.0000000000000000000, 3.625000000000000000, 9.000000000000000000 ) ) ;
#54 = EDGE_CURVE ( 'NONE', #220, #244, #745, .T. ) ;
#55 = CARTESIAN_POINT ( 'NONE',  ( 2.250000000000000400, -6.925000000000000700, 0.6199999999999990000 ) ) ;
#56 = CARTESIAN_POINT ( 'NONE',  ( -2.250000000000000000, -3.625000000000000400, 5.699999999999999300 ) ) ;
#57 = DIRECTION ( 'NONE',  ( 1.000000000000000000, 0.0000000000000000000, 0.0000000000000000000 ) ) ;
#58 = DIRECTION ( 'NONE',  ( 0.0000000000000000000, 0.0000000000000000000, -1.000000000000000000 ) ) ;
#59 = ORIENTED_EDGE ( 'NONE', *, *, #176, .T. ) ;
#60 = EDGE_CURVE ( 'NONE', #838, #560, #187, .T. ) ;
#61 = DIRECTION ( 'NONE',  ( 0.0000000000000000000, -1.000000000000000000, 0.0000000000000000000 ) ) ;
#62 = ORIENTED_EDGE ( 'NONE', *, *, #708, .T. ) ;
#63 = EDGE_CURVE ( 'NONE', #533, #33, #144, .T. ) ;
#64 = ORIENTED_EDGE ( 'NONE', *, *, #691, .T. ) ;
#65 = LINE ( 'NONE', #947, #383 ) ;
#66 = VECTOR ( 'NONE', #1125, 1000.000000000000000 ) ;
#67 = DIRECTION ( 'NONE',  ( 0.0000000000000000000, 0.0000000000000000000, 1.000000000000000000 ) ) ;
#68 = CARTESIAN_POINT ( 'NONE',  ( 3.149999999999999900, -6.925000000000000700, 2.659999999999999300 ) ) ;
#69 = AXIS2_PLACEMENT_3D ( 'NONE', #355, #949, #698 ) ;
#70 = ORIENTED_EDGE ( 'NONE', *, *, #1054, .F. ) ;
#71 = DIRECTION ( 'NONE',  ( -0.0000000000000000000, -1.000000000000000000, -0.0000000000000000000 ) ) ;
#72 = EDGE_LOOP ( 'NONE', ( #1123, #45, #44, #373, #994 ) ) ;
#73 = CARTESIAN_POINT ( 'NONE',  ( 2.250000000000000400, -6.925000000000000700, 1.119999999999999900 ) ) ;
#74 = CYLINDRICAL_SURFACE ( 'NONE', #433, 0.4999999999999995600 ) ;
#75 = DATE_AND_TIME ( #348, #814 ) ;
#76 = FACE_OUTER_BOUND ( 'NONE', #88, .T. ) ;
#77 = CYLINDRICAL_SURFACE ( 'NONE', #1038, 0.5000000000000013300 ) ;
#78 = DIRECTION ( 'NONE',  ( 0.0000000000000000000, 0.0000000000000000000, -1.000000000000000000 ) ) ;
#79 = ORIENTED_EDGE ( 'NONE', *, *, #329, .F. ) ;
#80 = AXIS2_PLACEMENT_3D ( 'NONE', #736, #981, #242 ) ;
#81 = DIRECTION ( 'NONE',  ( -0.0000000000000000000, -0.0000000000000000000, 1.000000000000000000 ) ) ;
#82 = VERTEX_POINT ( 'NONE', #769 ) ;
#83 = AXIS2_PLACEMENT_3D ( 'NONE', #414, #290, #268 ) ;
#84 = EDGE_CURVE ( 'NONE', #1086, #884, #1021, .T. ) ;
#85 = ORIENTED_EDGE ( 'NONE', *, *, #678, .T. ) ;
#86 = CARTESIAN_POINT ( 'NONE',  ( -4.250000000000001800, 3.625000000000000000, 9.000000000000000000 ) ) ;
#87 = VECTOR ( 'NONE', #51, 1000.000000000000000 ) ;
#88 = EDGE_LOOP ( 'NONE', ( #160, #719, #748, #205 ) ) ;
#89 = EDGE_CURVE ( 'NONE', #1041, #1019, #863, .T. ) ;
#90 = DIRECTION ( 'NONE',  ( 0.0000000000000000000, -0.0000000000000000000, -1.000000000000000000 ) ) ;
#91 = ORIENTED_EDGE ( 'NONE', *, *, #688, .T. ) ;
#92 = DIRECTION ( 'NONE',  ( 0.0000000000000000000, 0.0000000000000000000, 1.000000000000000000 ) ) ;
#93 = DIRECTION ( 'NONE',  ( -2.392722035830078500E-016, 1.000000000000000000, 0.0000000000000000000 ) ) ;
#94 = CARTESIAN_POINT ( 'NONE',  ( 2.250000000000000400, -3.625000000000000400, 6.200000000000001100 ) ) ;
#95 = ORIENTED_EDGE ( 'NONE', *, *, #599, .F. ) ;
#96 = EDGE_CURVE ( 'NONE', #141, #182, #1047, .T. ) ;
#97 = DIRECTION ( 'NONE',  ( 0.0000000000000000000, -1.000000000000000000, 0.0000000000000000000 ) ) ;
#98 = VERTEX_POINT ( 'NONE', #540 ) ;
#99 = PERSON_AND_ORGANIZATION_ROLE ( 'design_supplier' ) ;
#100 = ORIENTED_EDGE ( 'NONE', *, *, #544, .F. ) ;
#101 = DIRECTION ( 'NONE',  ( 0.0000000000000000000, 0.0000000000000000000, 1.000000000000000000 ) ) ;
#102 = EDGE_CURVE ( 'NONE', #365, #247, #986, .T. ) ;
#103 = VERTEX_POINT ( 'NONE', #517 ) ;
#104 = LINE ( 'NONE', #435, #641 ) ;
#105 = AXIS2_PLACEMENT_3D ( 'NONE', #783, #744, #772 ) ;
#106 = DIRECTION ( 'NONE',  ( 0.0000000000000000000, 0.0000000000000000000, 1.000000000000000000 ) ) ;
#107 = DATE_AND_TIME ( #980, #961 ) ;
#108 = COORDINATED_UNIVERSAL_TIME_OFFSET ( 10, 0, .AHEAD. ) ;
#109 = SECURITY_CLASSIFICATION_LEVEL ( 'unclassified' ) ;
#110 = CARTESIAN_POINT ( 'NONE',  ( -2.250000000000000000, -6.925000000000000700, 5.699999999999999300 ) ) ;
#111 = ORIENTED_EDGE ( 'NONE', *, *, #688, .F. ) ;
#112 = VERTEX_POINT ( 'NONE', #806 ) ;
#113 = CARTESIAN_POINT ( 'NONE',  ( 0.0000000000000000000, 0.0000000000000000000, 9.000000000000000000 ) ) ;
#114 = DIRECTION ( 'NONE',  ( 0.0000000000000000000, 0.0000000000000000000, 1.000000000000000000 ) ) ;
#115 = EDGE_CURVE ( 'NONE', #141, #520, #945, .T. ) ;
#116 = ORIENTED_EDGE ( 'NONE', *, *, #1138, .F. ) ;
#117 = ADVANCED_FACE ( 'NONE', ( #211 ), #790, .T. ) ;
#118 = CARTESIAN_POINT ( 'NONE',  ( -2.250000000000000000, -3.625000000000000400, 0.1199999999999991200 ) ) ;
#119 = VECTOR ( 'NONE', #1006, 1000.000000000000000 ) ;
#120 = DIRECTION ( 'NONE',  ( -0.0000000000000000000, -1.000000000000000000, -0.0000000000000000000 ) ) ;
#121 = AXIS2_PLACEMENT_3D ( 'NONE', #967, #106, #974 ) ;
#122 = DIRECTION ( 'NONE',  ( -0.0000000000000000000, 1.000000000000000000, -0.0000000000000000000 ) ) ;
#123 = LINE ( 'NONE', #86, #914 ) ;
#124 = AXIS2_PLACEMENT_3D ( 'NONE', #1095, #650, #571 ) ;
#125 = DIRECTION ( 'NONE',  ( -0.0000000000000000000, -0.0000000000000000000, 1.000000000000000000 ) ) ;
#126 = LINE ( 'NONE', #346, #345 ) ;
#127 = LINE ( 'NONE', #1011, #1149 ) ;
#128 = ADVANCED_FACE ( 'NONE', ( #935 ), #1140, .T. ) ;
#129 = ORIENTED_EDGE ( 'NONE', *, *, #1122, .T. ) ;
#130 = ORIENTED_EDGE ( 'NONE', *, *, #374, .F. ) ;
#131 = ORIENTED_EDGE ( 'NONE', *, *, #678, .F. ) ;
#132 = DIRECTION ( 'NONE',  ( 1.000000000000000000, 0.0000000000000000000, 0.0000000000000000000 ) ) ;
#133 = AXIS2_PLACEMENT_3D ( 'NONE', #890, #122, #567 ) ;
#134 = ORIENTED_EDGE ( 'NONE', *, *, #234, .T. ) ;
#135 = ADVANCED_FACE ( 'NONE', ( #733 ), #136, .T. ) ;
#136 = CYLINDRICAL_SURFACE ( 'NONE', #1036, 3.625000000000000000 ) ;
#137 = EDGE_CURVE ( 'NONE', #420, #1027, #127, .T. ) ;
#138 = VERTEX_POINT ( 'NONE', #580 ) ;
#139 = DIRECTION ( 'NONE',  ( 0.0000000000000000000, -0.0000000000000000000, -1.000000000000000000 ) ) ;
#140 = CIRCLE ( 'NONE', #124, 0.5000000000000004400 ) ;
#141 = VERTEX_POINT ( 'NONE', #336 ) ;
#142 = EDGE_CURVE ( 'NONE', #343, #990, #304, .T. ) ;
#143 = LINE ( 'NONE', #685, #1087 ) ;
#144 = CIRCLE ( 'NONE', #4, 0.5000000000000004400 ) ;
#145 = EDGE_CURVE ( 'NONE', #596, #112, #197, .T. ) ;
#146 =( GEOMETRIC_REPRESENTATION_CONTEXT ( 3 ) GLOBAL_UNCERTAINTY_ASSIGNED_CONTEXT ( ( #443 ) ) GLOBAL_UNIT_ASSIGNED_CONTEXT ( ( #288, #644, #916 ) ) REPRESENTATION_CONTEXT ( 'NONE', 'WORKASPACE' ) );
#147 = FACE_OUTER_BOUND ( 'NONE', #526, .T. ) ;
#148 = EDGE_LOOP ( 'NONE', ( #219, #1052, #281, #271 ) ) ;
#149 = CARTESIAN_POINT ( 'NONE',  ( -2.500000000000000000, 3.061616997868383100E-016, 16.50000000000000000 ) ) ;
#150 = CARTESIAN_POINT ( 'NONE',  ( 0.0000000000000000000, -3.625000000000000400, 9.000000000000000000 ) ) ;
#151 = DIRECTION ( 'NONE',  ( 1.000000000000000000, 0.0000000000000000000, 0.0000000000000000000 ) ) ;
#152 = EDGE_CURVE ( 'NONE', #800, #533, #165, .T. ) ;
#153 = CARTESIAN_POINT ( 'NONE',  ( -4.250000000000001800, 3.625000000000000000, 9.000000000000000000 ) ) ;
#154 = CIRCLE ( 'NONE', #301, 3.625000000000000000 ) ;
#155 = CIRCLE ( 'NONE', #874, 0.5000000000000007800 ) ;
#156 = FACE_OUTER_BOUND ( 'NONE', #267, .T. ) ;
#157 = PERSON_AND_ORGANIZATION_ROLE ( 'creator' ) ;
#158 = EDGE_CURVE ( 'NONE', #1017, #1086, #1148, .T. ) ;
#159 = CYLINDRICAL_SURFACE ( 'NONE', #213, 0.5000000000000004400 ) ;
#160 = ORIENTED_EDGE ( 'NONE', *, *, #691, .F. ) ;
#161 = EDGE_CURVE ( 'NONE', #361, #313, #394, .T. ) ;
#162 = DIRECTION ( 'NONE',  ( -0.0000000000000000000, 1.000000000000000000, -0.0000000000000000000 ) ) ;
#163 = CIRCLE ( 'NONE', #856, 0.5000000000000004400 ) ;
#164 = ORIENTED_EDGE ( 'NONE', *, *, #1000, .T. ) ;
#165 = CIRCLE ( 'NONE', #704, 0.5000000000000004400 ) ;
#166 = EDGE_LOOP ( 'NONE', ( #1134, #269, #456, #978 ) ) ;
#167 = DIRECTION ( 'NONE',  ( 0.0000000000000000000, 0.0000000000000000000, 1.000000000000000000 ) ) ;
#168 = CARTESIAN_POINT ( 'NONE',  ( -4.250000000000000000, -3.625000000000000400, 0.0000000000000000000 ) ) ;
#169 = ORIENTED_EDGE ( 'NONE', *, *, #184, .T. ) ;
#170 = EDGE_CURVE ( 'NONE', #98, #1086, #451, .T. ) ;
#171 = ORIENTED_EDGE ( 'NONE', *, *, #893, .F. ) ;
#172 = CARTESIAN_POINT ( 'NONE',  ( 3.625000000000000000, 4.439344646909155000E-016, 12.50000000000000000 ) ) ;
#173 = PLANE ( 'NONE',  #410 ) ;
#174 = CARTESIAN_POINT ( 'NONE',  ( 2.500000000000000000, -3.625000000000000400, 9.500000000000000000 ) ) ;
#175 = VECTOR ( 'NONE', #258, 1000.000000000000000 ) ;
#176 = EDGE_CURVE ( 'NONE', #420, #365, #866, .T. ) ;
#177 = VECTOR ( 'NONE', #1071, 1000.000000000000000 ) ;
#178 = DIRECTION ( 'NONE',  ( 0.0000000000000000000, 0.0000000000000000000, 1.000000000000000000 ) ) ;
#179 = CIRCLE ( 'NONE', #327, 0.4999999999999995600 ) ;
#180 = AXIS2_PLACEMENT_3D ( 'NONE', #621, #634, #731 ) ;
#181 = ORIENTED_EDGE ( 'NONE', *, *, #152, .T. ) ;
#182 = VERTEX_POINT ( 'NONE', #214 ) ;
#183 = CARTESIAN_POINT ( 'NONE',  ( 2.500000000000000000, -6.925000000000000700, 9.000000000000000000 ) ) ;
#184 = EDGE_CURVE ( 'NONE', #182, #533, #1049, .T. ) ;
#185 = CC_DESIGN_APPROVAL ( #15, ( #287 ) ) ;
#186 = CARTESIAN_POINT ( 'NONE',  ( 2.250000000000000400, -6.925000000000000700, 0.6199999999999990000 ) ) ;
#187 = LINE ( 'NONE', #852, #289 ) ;
#188 = EDGE_CURVE ( 'NONE', #884, #1017, #275, .T. ) ;
#189 = CARTESIAN_POINT ( 'NONE',  ( 2.250000000000000400, -3.625000000000000400, 5.699999999999999300 ) ) ;
#190 = FACE_OUTER_BOUND ( 'NONE', #28, .T. ) ;
#191 = CIRCLE ( 'NONE', #794, 0.4999999999999995600 ) ;
#192 = ORIENTED_EDGE ( 'NONE', *, *, #1144, .F. ) ;
#193 = PLANE ( 'NONE',  #611 ) ;
#194 = CARTESIAN_POINT ( 'NONE',  ( 3.149999999999999900, -6.925000000000000700, 3.660000000000000100 ) ) ;
#195 = ORIENTED_EDGE ( 'NONE', *, *, #448, .T. ) ;
#196 = LINE ( 'NONE', #1024, #897 ) ;
#197 = LINE ( 'NONE', #718, #551 ) ;
#198 = AXIS2_PLACEMENT_3D ( 'NONE', #636, #249, #471 ) ;
#199 = VERTEX_POINT ( 'NONE', #648 ) ;
#200 = EDGE_CURVE ( 'NONE', #1019, #802, #126, .T. ) ;
#201 = DIRECTION ( 'NONE',  ( -0.0000000000000000000, -1.000000000000000000, -0.0000000000000000000 ) ) ;
#202 = PLANE ( 'NONE',  #370 ) ;
#203 = EDGE_CURVE ( 'NONE', #728, #800, #662, .T. ) ;
#204 = DIRECTION ( 'NONE',  ( 0.0000000000000000000, -1.000000000000000000, 0.0000000000000000000 ) ) ;
#205 = ORIENTED_EDGE ( 'NONE', *, *, #862, .F. ) ;
#206 = LOCAL_TIME ( 16, 49, 20.00000000000000000, #457 ) ;
#207 = FACE_OUTER_BOUND ( 'NONE', #72, .T. ) ;
#208 = CARTESIAN_POINT ( 'NONE',  ( 0.0000000000000000000, 0.0000000000000000000, 16.50000000000000000 ) ) ;
#209 = EDGE_LOOP ( 'NONE', ( #869, #233, #789, #356 ) ) ;
#210 = ORIENTED_EDGE ( 'NONE', *, *, #809, .F. ) ;
#211 = FACE_OUTER_BOUND ( 'NONE', #39, .T. ) ;
#212 = DIRECTION ( 'NONE',  ( 0.0000000000000000000, 0.0000000000000000000, -1.000000000000000000 ) ) ;
#213 = AXIS2_PLACEMENT_3D ( 'NONE', #426, #602, #493 ) ;
#214 = CARTESIAN_POINT ( 'NONE',  ( -4.250000000000000000, -3.625000000000000400, 9.000000000000000000 ) ) ;
#215 = CYLINDRICAL_SURFACE ( 'NONE', #667, 0.5000000000000000000 ) ;
#216 = CIRCLE ( 'NONE', #1002, 0.4999999999999998900 ) ;
#217 = ADVANCED_FACE ( 'NONE', ( #1025 ), #525, .T. ) ;
#218 = CARTESIAN_POINT ( 'NONE',  ( 2.250000000000000400, -3.625000000000000400, 5.699999999999999300 ) ) ;
#219 = ORIENTED_EDGE ( 'NONE', *, *, #1043, .T. ) ;
#220 = VERTEX_POINT ( 'NONE', #780 ) ;
#221 = LOCAL_TIME ( 16, 49, 20.00000000000000000, #679 ) ;
#222 = DIRECTION ( 'NONE',  ( 1.000000000000000000, 0.0000000000000000000, 0.0000000000000000000 ) ) ;
#223 = CARTESIAN_POINT ( 'NONE',  ( -2.250000000000000000, -6.925000000000000700, 6.199999999999999300 ) ) ;
#224 = ORIENTED_EDGE ( 'NONE', *, *, #170, .T. ) ;
#225 = DIRECTION ( 'NONE',  ( 0.0000000000000000000, 0.0000000000000000000, -1.000000000000000000 ) ) ;
#226 = ADVANCED_FACE ( 'NONE', ( #606 ), #818, .T. ) ;
#227 = ORIENTED_EDGE ( 'NONE', *, *, #329, .T. ) ;
#228 = DIRECTION ( 'NONE',  ( -0.0000000000000000000, 1.000000000000000000, -0.0000000000000000000 ) ) ;
#229 = CC_DESIGN_DATE_AND_TIME_ASSIGNMENT ( #75, #1157, ( #287 ) ) ;
#230 = ADVANCED_FACE ( 'NONE', ( #286, #896 ), #557, .T. ) ;
#231 = CC_DESIGN_SECURITY_CLASSIFICATION ( #287, ( #388 ) ) ;
#232 = DIRECTION ( 'NONE',  ( 1.000000000000000000, 0.0000000000000000000, 0.0000000000000000000 ) ) ;
#233 = ORIENTED_EDGE ( 'NONE', *, *, #778, .F. ) ;
#234 = EDGE_CURVE ( 'NONE', #343, #262, #278, .T. ) ;
#235 = DIRECTION ( 'NONE',  ( 0.0000000000000000000, 0.0000000000000000000, 1.000000000000000000 ) ) ;
#236 = EDGE_CURVE ( 'NONE', #199, #244, #695, .T. ) ;
#237 = CARTESIAN_POINT ( 'NONE',  ( 2.250000000000000400, -6.925000000000000700, 5.199999999999998400 ) ) ;
#238 = DIRECTION ( 'NONE',  ( -0.0000000000000000000, 1.000000000000000000, -0.0000000000000000000 ) ) ;
#239 = EDGE_LOOP ( 'NONE', ( #423, #887, #604, #888 ) ) ;
#240 = DIRECTION ( 'NONE',  ( 1.000000000000000000, 2.392722035830078500E-016, -0.0000000000000000000 ) ) ;
#241 = AXIS2_PLACEMENT_3D ( 'NONE', #581, #562, #553 ) ;
#242 = DIRECTION ( 'NONE',  ( 0.0000000000000000000, 0.0000000000000000000, 1.000000000000000000 ) ) ;
#243 = EDGE_CURVE ( 'NONE', #566, #365, #25, .T. ) ;
#244 = VERTEX_POINT ( 'NONE', #94 ) ;
#245 = AXIS2_PLACEMENT_3D ( 'NONE', #386, #384, #801 ) ;
#246 = DIRECTION ( 'NONE',  ( 1.000000000000000000, 0.0000000000000000000, 0.0000000000000000000 ) ) ;
#247 = VERTEX_POINT ( 'NONE', #150 ) ;
#248 = LINE ( 'NONE', #490, #753 ) ;
#249 = DIRECTION ( 'NONE',  ( -0.0000000000000000000, 1.000000000000000000, -0.0000000000000000000 ) ) ;
#250 = CYLINDRICAL_SURFACE ( 'NONE', #180, 0.5000000000000008900 ) ;
#251 = VECTOR ( 'NONE', #246, 1000.000000000000000 ) ;
#252 = CARTESIAN_POINT ( 'NONE',  ( -2.250000000000000000, -6.925000000000000700, 5.699999999999999300 ) ) ;
#253 = DIRECTION ( 'NONE',  ( 0.0000000000000000000, 0.0000000000000000000, 1.000000000000000000 ) ) ;
#254 = AXIS2_PLACEMENT_3D ( 'NONE', #543, #850, #1121 ) ;
#255 = AXIS2_PLACEMENT_3D ( 'NONE', #694, #788, #803 ) ;
#256 = CARTESIAN_POINT ( 'NONE',  ( -4.250000000000000000, -3.625000000000000400, 9.000000000000000000 ) ) ;
#257 = CARTESIAN_POINT ( 'NONE',  ( -2.250000000000000000, -3.625000000000000400, 6.199999999999999300 ) ) ;
#258 = DIRECTION ( 'NONE',  ( -0.0000000000000000000, 1.000000000000000000, -0.0000000000000000000 ) ) ;
#259 = CARTESIAN_POINT ( 'NONE',  ( -3.149999999999999900, -6.925000000000000700, 3.660000000000000100 ) ) ;
#260 = DIRECTION ( 'NONE',  ( -0.0000000000000000000, 1.000000000000000000, -0.0000000000000000000 ) ) ;
#261 = ORIENTED_EDGE ( 'NONE', *, *, #1117, .T. ) ;
#262 = VERTEX_POINT ( 'NONE', #357 ) ;
#263 = DIRECTION ( 'NONE',  ( 0.0000000000000000000, -0.0000000000000000000, -1.000000000000000000 ) ) ;
#264 = DIRECTION ( 'NONE',  ( 1.000000000000000000, 0.0000000000000000000, 0.0000000000000000000 ) ) ;
#265 = AXIS2_PLACEMENT_3D ( 'NONE', #878, #1155, #381 ) ;
#266 = DIRECTION ( 'NONE',  ( 0.0000000000000000000, 0.0000000000000000000, -1.000000000000000000 ) ) ;
#267 = EDGE_LOOP ( 'NONE', ( #576, #1124 ) ) ;
#268 = DIRECTION ( 'NONE',  ( 0.0000000000000000000, 0.0000000000000000000, 1.000000000000000000 ) ) ;
#269 = ORIENTED_EDGE ( 'NONE', *, *, #750, .T. ) ;
#270 = DIRECTION ( 'NONE',  ( 0.0000000000000000000, -1.000000000000000000, 0.0000000000000000000 ) ) ;
#271 = ORIENTED_EDGE ( 'NONE', *, *, #115, .T. ) ;
#272 = DIRECTION ( 'NONE',  ( 0.0000000000000000000, -1.000000000000000000, 0.0000000000000000000 ) ) ;
#273 = DIRECTION ( 'NONE',  ( 0.0000000000000000000, -1.000000000000000000, 0.0000000000000000000 ) ) ;
#274 = EDGE_LOOP ( 'NONE', ( #1133, #480, #13, #62 ) ) ;
#275 = LINE ( 'NONE', #671, #1091 ) ;
#276 = ORIENTED_EDGE ( 'NONE', *, *, #89, .F. ) ;
#277 = AXIS2_PLACEMENT_3D ( 'NONE', #613, #727, #870 ) ;
#278 = LINE ( 'NONE', #259, #175 ) ;
#279 = LINE ( 'NONE', #761, #177 ) ;
#280 = CARTESIAN_POINT ( 'NONE',  ( 0.0000000000000000000, 0.0000000000000000000, 16.50000000000000000 ) ) ;
#281 = ORIENTED_EDGE ( 'NONE', *, *, #96, .F. ) ;
#282 = CIRCLE ( 'NONE', #436, 0.5000000000000004400 ) ;
#283 = EDGE_LOOP ( 'NONE', ( #657, #1063 ) ) ;
#284 = LINE ( 'NONE', #623, #762 ) ;
#285 = DIRECTION ( 'NONE',  ( 0.0000000000000000000, 0.0000000000000000000, -1.000000000000000000 ) ) ;
#286 = FACE_BOUND ( 'NONE', #804, .T. ) ;
#287 = SECURITY_CLASSIFICATION ( '', '', #109 ) ;
#288 =( LENGTH_UNIT ( ) NAMED_UNIT ( * ) SI_UNIT ( .MILLI., .METRE. ) );
#289 = VECTOR ( 'NONE', #913, 1000.000000000000000 ) ;
#290 = DIRECTION ( 'NONE',  ( -0.0000000000000000000, -1.000000000000000000, -0.0000000000000000000 ) ) ;
#291 = DIRECTION ( 'NONE',  ( 0.0000000000000000000, -1.000000000000000000, 0.0000000000000000000 ) ) ;
#292 = DIRECTION ( 'NONE',  ( -0.0000000000000000000, -1.000000000000000000, -0.0000000000000000000 ) ) ;
#293 = EDGE_CURVE ( 'NONE', #482, #1061, #140, .T. ) ;
#294 = VERTEX_POINT ( 'NONE', #73 ) ;
#295 = DIRECTION ( 'NONE',  ( 0.0000000000000000000, 0.0000000000000000000, 1.000000000000000000 ) ) ;
#296 = AXIS2_PLACEMENT_3D ( 'NONE', #839, #1115, #132 ) ;
#297 = ORIENTED_EDGE ( 'NONE', *, *, #170, .F. ) ;
#298 = DIRECTION ( 'NONE',  ( 0.0000000000000000000, 0.0000000000000000000, -1.000000000000000000 ) ) ;
#299 = PLANE ( 'NONE',  #1020 ) ;
#300 = ORIENTED_EDGE ( 'NONE', *, *, #640, .T. ) ;
#301 = AXIS2_PLACEMENT_3D ( 'NONE', #519, #710, #319 ) ;
#302 = ORIENTED_EDGE ( 'NONE', *, *, #484, .T. ) ;
#303 = AXIS2_PLACEMENT_3D ( 'NONE', #919, #1107, #996 ) ;
#304 = CIRCLE ( 'NONE', #983, 0.5000000000000004400 ) ;
#305 = EDGE_CURVE ( 'NONE', #1027, #10, #65, .T. ) ;
#306 = CARTESIAN_POINT ( 'NONE',  ( 4.249999999999998200, 3.625000000000000000, 9.000000000000000000 ) ) ;
#307 = VECTOR ( 'NONE', #1116, 1000.000000000000000 ) ;
#308 = PERSON_AND_ORGANIZATION ( #925, #1129 ) ;
#309 = FACE_OUTER_BOUND ( 'NONE', #820, .T. ) ;
#310 = CARTESIAN_POINT ( 'NONE',  ( -3.149999999999999900, -6.925000000000000700, 3.159999999999999700 ) ) ;
#311 = CC_DESIGN_PERSON_AND_ORGANIZATION_ASSIGNMENT ( #42, #339, ( #287 ) ) ;
#312 = FACE_BOUND ( 'NONE', #749, .T. ) ;
#313 = VERTEX_POINT ( 'NONE', #1042 ) ;
#314 = DIRECTION ( 'NONE',  ( 0.0000000000000000000, -1.000000000000000000, 0.0000000000000000000 ) ) ;
#315 = CARTESIAN_POINT ( 'NONE',  ( -2.250000000000000000, -6.925000000000000700, 0.6199999999999990000 ) ) ;
#316 = ADVANCED_FACE ( 'NONE', ( #207 ), #159, .T. ) ;
#317 = EDGE_CURVE ( 'NONE', #884, #971, #847, .T. ) ;
#318 = CARTESIAN_POINT ( 'NONE',  ( -2.500000000000000000, -6.925000000000000700, 9.500000000000000000 ) ) ;
#319 = DIRECTION ( 'NONE',  ( 1.000000000000000000, 0.0000000000000000000, 0.0000000000000000000 ) ) ;
#320 = PLANE ( 'NONE',  #69 ) ;
#321 = ADVANCED_FACE ( 'NONE', ( #460 ), #1012, .T. ) ;
#322 = DIRECTION ( 'NONE',  ( 0.0000000000000000000, 0.0000000000000000000, -1.000000000000000000 ) ) ;
#323 = CARTESIAN_POINT ( 'NONE',  ( 0.0000000000000000000, 0.0000000000000000000, 12.50000000000000000 ) ) ;
#324 = CC_DESIGN_PERSON_AND_ORGANIZATION_ASSIGNMENT ( #389, #157, ( #387 ) ) ;
#325 = ORIENTED_EDGE ( 'NONE', *, *, #337, .T. ) ;
#326 = CARTESIAN_POINT ( 'NONE',  ( 2.250000000000000400, -6.925000000000000700, 5.699999999999999300 ) ) ;
#327 = AXIS2_PLACEMENT_3D ( 'NONE', #987, #71, #582 ) ;
#328 = DIRECTION ( 'NONE',  ( 0.0000000000000000000, -1.000000000000000000, 0.0000000000000000000 ) ) ;
#329 = EDGE_CURVE ( 'NONE', #82, #247, #1097, .T. ) ;
#330 = CARTESIAN_POINT ( 'NONE',  ( -2.250000000000000000, -6.925000000000000700, 5.699999999999999300 ) ) ;
#331 = ADVANCED_FACE ( 'NONE', ( #784 ), #1039, .T. ) ;
#332 = ORIENTED_EDGE ( 'NONE', *, *, #992, .T. ) ;
#333 = ORIENTED_EDGE ( 'NONE', *, *, #717, .T. ) ;
#334 = AXIS2_PLACEMENT_3D ( 'NONE', #729, #204, #298 ) ;
#335 = PLANE ( 'NONE',  #1109 ) ;
#336 = CARTESIAN_POINT ( 'NONE',  ( -4.250000000000001800, 3.625000000000000000, 9.000000000000000000 ) ) ;
#337 = EDGE_CURVE ( 'NONE', #182, #927, #840, .T. ) ;
#338 = CIRCLE ( 'NONE', #620, 0.5000000000000004400 ) ;
#339 = PERSON_AND_ORGANIZATION_ROLE ( 'classification_officer' ) ;
#340 = ORIENTED_EDGE ( 'NONE', *, *, #188, .F. ) ;
#341 = DESIGN_CONTEXT ( 'detailed design', #677, 'design' ) ;
#342 = DIRECTION ( 'NONE',  ( 1.000000000000000000, 0.0000000000000000000, 0.0000000000000000000 ) ) ;
#343 = VERTEX_POINT ( 'NONE', #948 ) ;
#344 = EDGE_CURVE ( 'NONE', #1041, #1143, #104, .T. ) ;
#345 = VECTOR ( 'NONE', #821, 1000.000000000000000 ) ;
#346 = CARTESIAN_POINT ( 'NONE',  ( -2.250000000000000000, -6.925000000000000700, 5.200000000000000200 ) ) ;
#347 = CIRCLE ( 'NONE', #1111, 0.5000000000000000000 ) ;
#348 = CALENDAR_DATE ( 2018, 14, 11 ) ;
#349 = CIRCLE ( 'NONE', #747, 2.500000000000000000 ) ;
#350 = PRODUCT_RELATED_PRODUCT_CATEGORY ( 'detail', '', ( #432 ) ) ;
#351 = VERTEX_POINT ( 'NONE', #830 ) ;
#352 = AXIS2_PLACEMENT_3D ( 'NONE', #315, #673, #585 ) ;
#353 = ORIENTED_EDGE ( 'NONE', *, *, #486, .T. ) ;
#354 = CARTESIAN_POINT ( 'NONE',  ( 2.500000000000000000, -6.925000000000000700, 8.499999999999998200 ) ) ;
#355 = CARTESIAN_POINT ( 'NONE',  ( 0.0000000000000000000, 0.0000000000000000000, 9.000000000000000000 ) ) ;
#356 = ORIENTED_EDGE ( 'NONE', *, *, #816, .T. ) ;
#357 = CARTESIAN_POINT ( 'NONE',  ( -3.149999999999999900, -3.625000000000000400, 3.660000000000000100 ) ) ;
#358 = EDGE_CURVE ( 'NONE', #294, #531, #155, .T. ) ;
#359 = DIRECTION ( 'NONE',  ( -0.0000000000000000000, 1.000000000000000000, -0.0000000000000000000 ) ) ;
#360 = DIRECTION ( 'NONE',  ( 0.0000000000000000000, 0.0000000000000000000, 1.000000000000000000 ) ) ;
#361 = VERTEX_POINT ( 'NONE', #149 ) ;
#362 = DIRECTION ( 'NONE',  ( 0.0000000000000000000, -1.000000000000000000, 0.0000000000000000000 ) ) ;
#363 = DIRECTION ( 'NONE',  ( -0.0000000000000000000, 1.000000000000000000, -0.0000000000000000000 ) ) ;
#364 = EDGE_CURVE ( 'NONE', #141, #420, #123, .T. ) ;
#365 = VERTEX_POINT ( 'NONE', #797 ) ;
#366 = CARTESIAN_POINT ( 'NONE',  ( -4.250000000000000000, -3.625000000000000400, 9.000000000000000000 ) ) ;
#367 = ORIENTED_EDGE ( 'NONE', *, *, #568, .F. ) ;
#368 = APPROVAL ( #1127, 'UNSPECIFIED' ) ;
#369 = VECTOR ( 'NONE', #767, 1000.000000000000000 ) ;
#370 = AXIS2_PLACEMENT_3D ( 'NONE', #6, #1132, #1141 ) ;
#371 = DIRECTION ( 'NONE',  ( 0.0000000000000000000, 0.0000000000000000000, -1.000000000000000000 ) ) ;
#372 = CARTESIAN_POINT ( 'NONE',  ( -2.250000000000000000, -6.925000000000000700, 1.119999999999999000 ) ) ;
#373 = ORIENTED_EDGE ( 'NONE', *, *, #809, .T. ) ;
#374 = EDGE_CURVE ( 'NONE', #990, #343, #799, .T. ) ;
#375 = DIRECTION ( 'NONE',  ( -0.0000000000000000000, 1.000000000000000000, -0.0000000000000000000 ) ) ;
#376 = CIRCLE ( 'NONE', #445, 0.5000000000000004400 ) ;
#377 = DATE_AND_TIME ( #1084, #206 ) ;
#378 = AXIS2_PLACEMENT_3D ( 'NONE', #973, #92, #477 ) ;
#379 = FACE_OUTER_BOUND ( 'NONE', #554, .T. ) ;
#380 = DIRECTION ( 'NONE',  ( 0.0000000000000000000, 0.0000000000000000000, -1.000000000000000000 ) ) ;
#381 = DIRECTION ( 'NONE',  ( 1.000000000000000000, 0.0000000000000000000, 0.0000000000000000000 ) ) ;
#382 = CC_DESIGN_PERSON_AND_ORGANIZATION_ASSIGNMENT ( #649, #409, ( #432 ) ) ;
#383 = VECTOR ( 'NONE', #545, 1000.000000000000000 ) ;
#384 = DIRECTION ( 'NONE',  ( -0.0000000000000000000, 1.000000000000000000, -0.0000000000000000000 ) ) ;
#385 = DIRECTION ( 'NONE',  ( -0.0000000000000000000, -1.000000000000000000, -0.0000000000000000000 ) ) ;
#386 = CARTESIAN_POINT ( 'NONE',  ( -2.250000000000000000, -6.925000000000000700, 0.6199999999999990000 ) ) ;
#387 = PRODUCT_DEFINITION ( 'UNKNOWN', '', #388, #341 ) ;
#388 = PRODUCT_DEFINITION_FORMATION_WITH_SPECIFIED_SOURCE ( 'ANY', '', #432, .NOT_KNOWN. ) ;
#389 = PERSON_AND_ORGANIZATION ( #925, #1129 ) ;
#390 = AXIS2_PLACEMENT_3D ( 'NONE', #629, #632, #535 ) ;
#391 = FACE_OUTER_BOUND ( 'NONE', #877, .T. ) ;
#392 = CARTESIAN_POINT ( 'NONE',  ( 2.250000000000000400, -6.925000000000000700, 5.699999999999999300 ) ) ;
#393 = APPROVAL ( #905, 'UNSPECIFIED' ) ;
#394 = CIRCLE ( 'NONE', #529, 2.500000000000000000 ) ;
#395 = ORIENTED_EDGE ( 'NONE', *, *, #35, .F. ) ;
#396 = CC_DESIGN_APPROVAL ( #393, ( #388 ) ) ;
#397 = ORIENTED_EDGE ( 'NONE', *, *, #584, .T. ) ;
#398 = AXIS2_PLACEMENT_3D ( 'NONE', #774, #424, #1079 ) ;
#399 = DIRECTION ( 'NONE',  ( 1.000000000000000000, 0.0000000000000000000, 0.0000000000000000000 ) ) ;
#400 = ORIENTED_EDGE ( 'NONE', *, *, #912, .F. ) ;
#401 = FACE_OUTER_BOUND ( 'NONE', #50, .T. ) ;
#402 = DIRECTION ( 'NONE',  ( -0.0000000000000000000, 1.000000000000000000, -0.0000000000000000000 ) ) ;
#403 = CARTESIAN_POINT ( 'NONE',  ( 4.250000000000000000, -3.625000000000000400, 9.000000000000000000 ) ) ;
#404 = VECTOR ( 'NONE', #57, 1000.000000000000000 ) ;
#405 = ORIENTED_EDGE ( 'NONE', *, *, #158, .F. ) ;
#406 = AXIS2_PLACEMENT_3D ( 'NONE', #868, #742, #1145 ) ;
#407 = VECTOR ( 'NONE', #1101, 1000.000000000000000 ) ;
#408 = VERTEX_POINT ( 'NONE', #237 ) ;
#409 = PERSON_AND_ORGANIZATION_ROLE ( 'design_owner' ) ;
#410 = AXIS2_PLACEMENT_3D ( 'NONE', #310, #855, #924 ) ;
#411 = CARTESIAN_POINT ( 'NONE',  ( -2.250000000000000000, -6.925000000000000700, 0.6199999999999990000 ) ) ;
#412 = AXIS2_PLACEMENT_3D ( 'NONE', #113, #864, #880 ) ;
#413 = DIRECTION ( 'NONE',  ( 1.000000000000000000, 0.0000000000000000000, 0.0000000000000000000 ) ) ;
#414 = CARTESIAN_POINT ( 'NONE',  ( -2.250000000000000000, -3.625000000000000400, 0.6199999999999990000 ) ) ;
#415 = DIRECTION ( 'NONE',  ( 0.0000000000000000000, -1.000000000000000000, 0.0000000000000000000 ) ) ;
#416 = FACE_OUTER_BOUND ( 'NONE', #34, .T. ) ;
#417 = ADVANCED_FACE ( 'NONE', ( #989 ), #741, .T. ) ;
#418 = DIRECTION ( 'NONE',  ( -0.0000000000000000000, 1.000000000000000000, -0.0000000000000000000 ) ) ;
#419 = PERSON_AND_ORGANIZATION ( #925, #1129 ) ;
#420 = VERTEX_POINT ( 'NONE', #53 ) ;
#421 = ADVANCED_FACE ( 'NONE', ( #401 ), #859, .T. ) ;
#422 = DIRECTION ( 'NONE',  ( 0.0000000000000000000, 0.0000000000000000000, -1.000000000000000000 ) ) ;
#423 = ORIENTED_EDGE ( 'NONE', *, *, #609, .F. ) ;
#424 = DIRECTION ( 'NONE',  ( 0.0000000000000000000, -1.000000000000000000, 0.0000000000000000000 ) ) ;
#425 = CARTESIAN_POINT ( 'NONE',  ( -2.500000000000000000, -6.925000000000000700, 8.499999999999998200 ) ) ;
#426 = CARTESIAN_POINT ( 'NONE',  ( -2.500000000000000000, -6.925000000000000700, 9.000000000000000000 ) ) ;
#427 = DIRECTION ( 'NONE',  ( 0.0000000000000000000, -1.000000000000000000, 0.0000000000000000000 ) ) ;
#428 = EDGE_LOOP ( 'NONE', ( #95, #1114, #261, #1103 ) ) ;
#429 = CIRCLE ( 'NONE', #936, 0.5000000000000004400 ) ;
#430 = CC_DESIGN_DATE_AND_TIME_ASSIGNMENT ( #910, #1045, ( #387 ) ) ;
#431 = ORIENTED_EDGE ( 'NONE', *, *, #631, .T. ) ;
#432 = PRODUCT ( 'Switch', 'Switch', '', ( #881 ) ) ;
#433 = AXIS2_PLACEMENT_3D ( 'NONE', #252, #228, #1090 ) ;
#434 = DIRECTION ( 'NONE',  ( 0.0000000000000000000, -1.000000000000000000, 0.0000000000000000000 ) ) ;
#435 = CARTESIAN_POINT ( 'NONE',  ( -2.250000000000000000, -6.925000000000000700, 6.199999999999999300 ) ) ;
#436 = AXIS2_PLACEMENT_3D ( 'NONE', #508, #272, #422 ) ;
#437 = VECTOR ( 'NONE', #550, 1000.000000000000000 ) ;
#438 = CYLINDRICAL_SURFACE ( 'NONE', #133, 0.5000000000000004400 ) ;
#439 = CARTESIAN_POINT ( 'NONE',  ( 0.0000000000000000000, 0.0000000000000000000, 16.50000000000000000 ) ) ;
#440 = EDGE_LOOP ( 'NONE', ( #558, #302, #572, #59, #1137 ) ) ;
#441 = FACE_BOUND ( 'NONE', #1023, .T. ) ;
#442 = DIRECTION ( 'NONE',  ( 1.000000000000000000, 0.0000000000000000000, 0.0000000000000000000 ) ) ;
#443 = UNCERTAINTY_MEASURE_WITH_UNIT (LENGTH_MEASURE( 1.000000000000000100E-005 ), #288, 'distance_accuracy_value', 'NONE');
#444 = ORIENTED_EDGE ( 'NONE', *, *, #909, .F. ) ;
#445 = AXIS2_PLACEMENT_3D ( 'NONE', #481, #739, #371 ) ;
#446 = CARTESIAN_POINT ( 'NONE',  ( 3.149999999999999900, -3.625000000000000400, 3.159999999999999700 ) ) ;
#447 = DIRECTION ( 'NONE',  ( 1.000000000000000000, 0.0000000000000000000, 0.0000000000000000000 ) ) ;
#448 = EDGE_CURVE ( 'NONE', #619, #566, #857, .T. ) ;
#449 = ORIENTED_EDGE ( 'NONE', *, *, #631, .F. ) ;
#450 = DIRECTION ( 'NONE',  ( 0.0000000000000000000, 0.0000000000000000000, -1.000000000000000000 ) ) ;
#451 = LINE ( 'NONE', #793, #66 ) ;
#452 = CARTESIAN_POINT ( 'NONE',  ( -3.149999999999999900, -6.925000000000000700, 2.659999999999999300 ) ) ;
#453 = DIRECTION ( 'NONE',  ( 0.0000000000000000000, -1.000000000000000000, 0.0000000000000000000 ) ) ;
#454 = AXIS2_PLACEMENT_3D ( 'NONE', #664, #97, #991 ) ;
#455 = DIRECTION ( 'NONE',  ( 0.0000000000000000000, 0.0000000000000000000, 1.000000000000000000 ) ) ;
#456 = ORIENTED_EDGE ( 'NONE', *, *, #1081, .T. ) ;
#457 = COORDINATED_UNIVERSAL_TIME_OFFSET ( 10, 0, .AHEAD. ) ;
#458 = VECTOR ( 'NONE', #593, 1000.000000000000000 ) ;
#459 = DIRECTION ( 'NONE',  ( 1.000000000000000000, 0.0000000000000000000, 0.0000000000000000000 ) ) ;
#460 = FACE_OUTER_BOUND ( 'NONE', #440, .T. ) ;
#461 = CARTESIAN_POINT ( 'NONE',  ( 0.0000000000000000000, 0.0000000000000000000, 9.000000000000000000 ) ) ;
#462 = ORIENTED_EDGE ( 'NONE', *, *, #48, .F. ) ;
#463 = EDGE_CURVE ( 'NONE', #98, #501, #338, .T. ) ;
#464 = CARTESIAN_POINT ( 'NONE',  ( -4.250000000000000000, -3.625000000000000400, 9.000000000000000000 ) ) ;
#465 = ORIENTED_EDGE ( 'NONE', *, *, #115, .F. ) ;
#466 = CARTESIAN_POINT ( 'NONE',  ( 0.0000000000000000000, 0.0000000000000000000, 9.000000000000000000 ) ) ;
#467 = PLANE ( 'NONE',  #1156 ) ;
#468 = DIRECTION ( 'NONE',  ( 0.0000000000000000000, 0.0000000000000000000, 1.000000000000000000 ) ) ;
#469 = CIRCLE ( 'NONE', #903, 0.5000000000000004400 ) ;
#470 = FACE_OUTER_BOUND ( 'NONE', #1055, .T. ) ;
#471 = DIRECTION ( 'NONE',  ( 0.0000000000000000000, 0.0000000000000000000, 1.000000000000000000 ) ) ;
#472 = CARTESIAN_POINT ( 'NONE',  ( 2.500000000000000000, -6.925000000000000700, 9.000000000000000000 ) ) ;
#473 = ORIENTED_EDGE ( 'NONE', *, *, #1081, .F. ) ;
#474 = CARTESIAN_POINT ( 'NONE',  ( -2.500000000000000000, -3.625000000000000400, 9.000000000000000000 ) ) ;
#475 = CARTESIAN_POINT ( 'NONE',  ( 0.0000000000000000000, 0.0000000000000000000, 12.50000000000000000 ) ) ;
#476 = MANIFOLD_SOLID_BREP ( 'Boss-Extrude3', #923 ) ;
#477 = DIRECTION ( 'NONE',  ( 1.000000000000000000, 0.0000000000000000000, 0.0000000000000000000 ) ) ;
#478 = ORIENTED_EDGE ( 'NONE', *, *, #1138, .T. ) ;
#479 = DIRECTION ( 'NONE',  ( -0.0000000000000000000, -1.000000000000000000, -0.0000000000000000000 ) ) ;
#480 = ORIENTED_EDGE ( 'NONE', *, *, #640, .F. ) ;
#481 = CARTESIAN_POINT ( 'NONE',  ( 2.500000000000000000, -6.925000000000000700, 9.000000000000000000 ) ) ;
#482 = VERTEX_POINT ( 'NONE', #697 ) ;
#483 = ORIENTED_EDGE ( 'NONE', *, *, #102, .T. ) ;
#484 = EDGE_CURVE ( 'NONE', #619, #775, #284, .T. ) ;
#485 = PLANE ( 'NONE',  #891 ) ;
#486 = EDGE_CURVE ( 'NONE', #566, #619, #494, .T. ) ;
#487 = AXIS2_PLACEMENT_3D ( 'NONE', #55, #20, #47 ) ;
#488 = CARTESIAN_POINT ( 'NONE',  ( 2.250000000000000400, -3.625000000000000400, 0.1199999999999982600 ) ) ;
#489 = LINE ( 'NONE', #915, #813 ) ;
#490 = CARTESIAN_POINT ( 'NONE',  ( 2.250000000000000400, -6.925000000000000700, 1.119999999999999900 ) ) ;
#491 = APPROVAL_ROLE ( '' ) ;
#492 = SHAPE_DEFINITION_REPRESENTATION ( #835, #976 ) ;
#493 = DIRECTION ( 'NONE',  ( 0.0000000000000000000, 0.0000000000000000000, 1.000000000000000000 ) ) ;
#494 = CIRCLE ( 'NONE', #740, 3.625000000000000000 ) ;
#495 = CYLINDRICAL_SURFACE ( 'NONE', #1051, 0.5000000000000004400 ) ;
#496 = DIRECTION ( 'NONE',  ( 1.000000000000000000, 0.0000000000000000000, 0.0000000000000000000 ) ) ;
#497 = ORIENTED_EDGE ( 'NONE', *, *, #862, .T. ) ;
#498 = ADVANCED_FACE ( 'NONE', ( #147 ), #299, .T. ) ;
#499 = ORIENTED_EDGE ( 'NONE', *, *, #798, .T. ) ;
#500 = CARTESIAN_POINT ( 'NONE',  ( 2.500000000000000000, -3.625000000000000400, 8.499999999999998200 ) ) ;
#501 = VERTEX_POINT ( 'NONE', #354 ) ;
#502 = VERTEX_POINT ( 'NONE', #488 ) ;
#503 = CC_DESIGN_APPROVAL ( #368, ( #387 ) ) ;
#504 = ORIENTED_EDGE ( 'NONE', *, *, #63, .F. ) ;
#505 = AXIS2_PLACEMENT_3D ( 'NONE', #722, #101, #442 ) ;
#506 = ADVANCED_FACE ( 'NONE', ( #76 ), #1110, .T. ) ;
#507 = CARTESIAN_POINT ( 'NONE',  ( 0.0000000000000000000, 0.0000000000000000000, 12.50000000000000000 ) ) ;
#508 = CARTESIAN_POINT ( 'NONE',  ( -2.500000000000000000, -3.625000000000000400, 9.000000000000000000 ) ) ;
#509 = LINE ( 'NONE', #12, #565 ) ;
#510 = ADVANCED_FACE ( 'NONE', ( #714 ), #570, .T. ) ;
#511 = ORIENTED_EDGE ( 'NONE', *, *, #544, .T. ) ;
#512 = AXIS2_PLACEMENT_3D ( 'NONE', #777, #427, #380 ) ;
#513 = EDGE_LOOP ( 'NONE', ( #40, #131, #79, #547, #504, #586, #325, #31, #652, #367, #894 ) ) ;
#514 = DIRECTION ( 'NONE',  ( 0.0000000000000000000, 0.0000000000000000000, 1.000000000000000000 ) ) ;
#515 = EDGE_CURVE ( 'NONE', #1106, #998, #163, .T. ) ;
#516 = EDGE_LOOP ( 'NONE', ( #1076, #397 ) ) ;
#517 = CARTESIAN_POINT ( 'NONE',  ( 2.500000000000000000, 0.0000000000000000000, 12.50000000000000000 ) ) ;
#518 = ORIENTED_EDGE ( 'NONE', *, *, #816, .F. ) ;
#519 = CARTESIAN_POINT ( 'NONE',  ( 0.0000000000000000000, 0.0000000000000000000, 9.000000000000000000 ) ) ;
#520 = VERTEX_POINT ( 'NONE', #1048 ) ;
#521 = ORIENTED_EDGE ( 'NONE', *, *, #188, .T. ) ;
#522 = LINE ( 'NONE', #537, #1098 ) ;
#523 = PERSON_AND_ORGANIZATION ( #925, #1129 ) ;
#524 = AXIS2_PLACEMENT_3D ( 'NONE', #323, #125, #222 ) ;
#525 = PLANE ( 'NONE',  #970 ) ;
#526 = EDGE_LOOP ( 'NONE', ( #716, #787, #1029, #169, #724, #227, #692 ) ) ;
#527 = CIRCLE ( 'NONE', #608, 0.5000000000000008900 ) ;
#528 = CC_DESIGN_PERSON_AND_ORGANIZATION_ASSIGNMENT ( #523, #99, ( #388 ) ) ;
#529 = AXIS2_PLACEMENT_3D ( 'NONE', #439, #67, #413 ) ;
#530 = CARTESIAN_POINT ( 'NONE',  ( -2.250000000000000000, -6.925000000000000700, 0.1199999999999991200 ) ) ;
#531 = VERTEX_POINT ( 'NONE', #854 ) ;
#532 = DIRECTION ( 'NONE',  ( 2.392722035830078500E-016, -1.000000000000000000, 0.0000000000000000000 ) ) ;
#533 = VERTEX_POINT ( 'NONE', #779 ) ;
#534 = CARTESIAN_POINT ( 'NONE',  ( 2.250000000000000400, -6.925000000000000700, 0.6199999999999990000 ) ) ;
#535 = DIRECTION ( 'NONE',  ( 1.000000000000000000, 0.0000000000000000000, 0.0000000000000000000 ) ) ;
#536 = ORIENTED_EDGE ( 'NONE', *, *, #142, .F. ) ;
#537 = CARTESIAN_POINT ( 'NONE',  ( -4.250000000000001800, 3.625000000000000000, 0.0000000000000000000 ) ) ;
#538 = ORIENTED_EDGE ( 'NONE', *, *, #48, .T. ) ;
#539 = CC_DESIGN_PERSON_AND_ORGANIZATION_ASSIGNMENT ( #308, #1100, ( #388 ) ) ;
#540 = CARTESIAN_POINT ( 'NONE',  ( 2.500000000000000000, -6.925000000000000700, 9.500000000000000000 ) ) ;
#541 = CARTESIAN_POINT ( 'NONE',  ( -3.625000000000000000, 0.0000000000000000000, 16.50000000000000000 ) ) ;
#542 = AXIS2_PLACEMENT_3D ( 'NONE', #1072, #938, #212 ) ;
#543 = CARTESIAN_POINT ( 'NONE',  ( -3.149999999999999900, -3.625000000000000400, 3.159999999999999700 ) ) ;
#544 = EDGE_CURVE ( 'NONE', #1143, #802, #179, .T. ) ;
#545 = DIRECTION ( 'NONE',  ( -0.0000000000000000000, -0.0000000000000000000, -1.000000000000000000 ) ) ;
#546 = AXIS2_PLACEMENT_3D ( 'NONE', #615, #743, #78 ) ;
#547 = ORIENTED_EDGE ( 'NONE', *, *, #952, .F. ) ;
#548 = CIRCLE ( 'NONE', #546, 0.5000000000000013300 ) ;
#549 = APPROVAL_PERSON_ORGANIZATION ( #1009, #15, #1151 ) ;
#550 = DIRECTION ( 'NONE',  ( -0.0000000000000000000, 1.000000000000000000, -0.0000000000000000000 ) ) ;
#551 = VECTOR ( 'NONE', #642, 1000.000000000000000 ) ;
#552 = FACE_OUTER_BOUND ( 'NONE', #1085, .T. ) ;
#553 = DIRECTION ( 'NONE',  ( 0.0000000000000000000, 0.0000000000000000000, -1.000000000000000000 ) ) ;
#554 = EDGE_LOOP ( 'NONE', ( #595, #129 ) ) ;
#555 = ORIENTED_EDGE ( 'NONE', *, *, #137, .F. ) ;
#556 = EDGE_LOOP ( 'NONE', ( #966, #462, #11, #181, #1004 ) ) ;
#557 = PLANE ( 'NONE',  #823 ) ;
#558 = ORIENTED_EDGE ( 'NONE', *, *, #448, .F. ) ;
#559 = CARTESIAN_POINT ( 'NONE',  ( 3.000000000000000900, -3.625000000000000400, 9.000000000000000000 ) ) ;
#560 = VERTEX_POINT ( 'NONE', #713 ) ;
#561 = DIRECTION ( 'NONE',  ( 0.0000000000000000000, 0.0000000000000000000, 1.000000000000000000 ) ) ;
#562 = DIRECTION ( 'NONE',  ( 0.0000000000000000000, -1.000000000000000000, 0.0000000000000000000 ) ) ;
#563 = ORIENTED_EDGE ( 'NONE', *, *, #668, .F. ) ;
#564 = AXIS2_PLACEMENT_3D ( 'NONE', #392, #654, #573 ) ;
#565 = VECTOR ( 'NONE', #81, 1000.000000000000000 ) ;
#566 = VERTEX_POINT ( 'NONE', #701 ) ;
#567 = DIRECTION ( 'NONE',  ( 0.0000000000000000000, 0.0000000000000000000, 1.000000000000000000 ) ) ;
#568 = EDGE_CURVE ( 'NONE', #1017, #596, #900, .T. ) ;
#569 = CARTESIAN_POINT ( 'NONE',  ( -2.500000000000000000, -3.625000000000000400, 8.499999999999998200 ) ) ;
#570 = CYLINDRICAL_SURFACE ( 'NONE', #198, 0.5000000000000004400 ) ;
#571 = DIRECTION ( 'NONE',  ( 0.0000000000000000000, 0.0000000000000000000, 1.000000000000000000 ) ) ;
#572 = ORIENTED_EDGE ( 'NONE', *, *, #1144, .T. ) ;
#573 = DIRECTION ( 'NONE',  ( 0.0000000000000000000, 0.0000000000000000000, 1.000000000000000000 ) ) ;
#574 = CIRCLE ( 'NONE', #601, 0.4999999999999995600 ) ;
#575 = COORDINATED_UNIVERSAL_TIME_OFFSET ( 10, 0, .AHEAD. ) ;
#576 = ORIENTED_EDGE ( 'NONE', *, *, #605, .T. ) ;
#577 = CARTESIAN_POINT ( 'NONE',  ( -2.250000000000000000, -6.925000000000000700, 5.200000000000000200 ) ) ;
#578 = CIRCLE ( 'NONE', #886, 0.5000000000000013300 ) ;
#579 = DIRECTION ( 'NONE',  ( 1.000000000000000000, 2.392722035830078500E-016, -0.0000000000000000000 ) ) ;
#580 = CARTESIAN_POINT ( 'NONE',  ( -2.500000000000000000, 3.061616997868383100E-016, 12.50000000000000000 ) ) ;
#581 = CARTESIAN_POINT ( 'NONE',  ( -2.500000000000000000, -6.925000000000000700, 9.000000000000000000 ) ) ;
#582 = DIRECTION ( 'NONE',  ( 0.0000000000000000000, 0.0000000000000000000, 1.000000000000000000 ) ) ;
#583 = ADVANCED_FACE ( 'NONE', ( #911 ), #215, .T. ) ;
#584 = EDGE_CURVE ( 'NONE', #501, #98, #376, .T. ) ;
#585 = DIRECTION ( 'NONE',  ( 0.0000000000000000000, -0.0000000000000000000, -1.000000000000000000 ) ) ;
#586 = ORIENTED_EDGE ( 'NONE', *, *, #184, .F. ) ;
#587 = APPLICATION_CONTEXT ( 'configuration controlled 3d designs of mechanical parts and assemblies' ) ;
#588 = CARTESIAN_POINT ( 'NONE',  ( 3.149999999999999900, -6.925000000000000700, 3.159999999999999700 ) ) ;
#589 = CARTESIAN_POINT ( 'NONE',  ( 2.500000000000000000, -6.925000000000000700, 9.000000000000000000 ) ) ;
#590 = ADVANCED_FACE ( 'NONE', ( #960 ), #438, .T. ) ;
#591 = PERSON_AND_ORGANIZATION ( #925, #1129 ) ;
#592 = CARTESIAN_POINT ( 'NONE',  ( -3.149999999999999900, -6.925000000000000700, 3.159999999999999700 ) ) ;
#593 = DIRECTION ( 'NONE',  ( -0.0000000000000000000, 1.000000000000000000, -0.0000000000000000000 ) ) ;
#594 = VERTEX_POINT ( 'NONE', #530 ) ;
#595 = ORIENTED_EDGE ( 'NONE', *, *, #778, .T. ) ;
#596 = VERTEX_POINT ( 'NONE', #403 ) ;
#597 = ADVANCED_FACE ( 'NONE', ( #416 ), #858, .F. ) ;
#598 = ORIENTED_EDGE ( 'NONE', *, *, #305, .T. ) ;
#599 = EDGE_CURVE ( 'NONE', #1019, #1041, #191, .T. ) ;
#600 = ORIENTED_EDGE ( 'NONE', *, *, #344, .T. ) ;
#601 = AXIS2_PLACEMENT_3D ( 'NONE', #56, #9, #2 ) ;
#602 = DIRECTION ( 'NONE',  ( -0.0000000000000000000, 1.000000000000000000, -0.0000000000000000000 ) ) ;
#603 = CIRCLE ( 'NONE', #296, 3.625000000000000000 ) ;
#604 = ORIENTED_EDGE ( 'NONE', *, *, #236, .T. ) ;
#605 = EDGE_CURVE ( 'NONE', #313, #361, #702, .T. ) ;
#606 = FACE_OUTER_BOUND ( 'NONE', #638, .T. ) ;
#607 = LINE ( 'NONE', #711, #865 ) ;
#608 = AXIS2_PLACEMENT_3D ( 'NONE', #18, #770, #796 ) ;
#609 = EDGE_CURVE ( 'NONE', #408, #220, #676, .T. ) ;
#610 = ORIENTED_EDGE ( 'NONE', *, *, #599, .T. ) ;
#611 = AXIS2_PLACEMENT_3D ( 'NONE', #917, #273, #139 ) ;
#612 = ORIENTED_EDGE ( 'NONE', *, *, #776, .T. ) ;
#613 = CARTESIAN_POINT ( 'NONE',  ( -3.149999999999999900, -6.925000000000000700, 3.159999999999999700 ) ) ;
#614 = LINE ( 'NONE', #1030, #404 ) ;
#615 = CARTESIAN_POINT ( 'NONE',  ( 2.250000000000000400, -6.925000000000000700, 5.699999999999999300 ) ) ;
#616 = FACE_OUTER_BOUND ( 'NONE', #1153, .T. ) ;
#617 = CIRCLE ( 'NONE', #105, 0.4999999999999998900 ) ;
#618 = CARTESIAN_POINT ( 'NONE',  ( -2.500000000000000000, -3.625000000000000400, 9.000000000000000000 ) ) ;
#619 = VERTEX_POINT ( 'NONE', #172 ) ;
#620 = AXIS2_PLACEMENT_3D ( 'NONE', #1014, #1139, #849 ) ;
#621 = CARTESIAN_POINT ( 'NONE',  ( 2.250000000000000400, -6.925000000000000700, 0.6199999999999990000 ) ) ;
#622 = ORIENTED_EDGE ( 'NONE', *, *, #609, .T. ) ;
#623 = CARTESIAN_POINT ( 'NONE',  ( 3.625000000000000000, 4.439344646909155000E-016, 16.50000000000000000 ) ) ;
#624 = CARTESIAN_POINT ( 'NONE',  ( -4.250000000000000000, -3.625000000000000400, 9.000000000000000000 ) ) ;
#625 = DIRECTION ( 'NONE',  ( 0.0000000000000000000, 0.0000000000000000000, 1.000000000000000000 ) ) ;
#626 = CARTESIAN_POINT ( 'NONE',  ( 4.249999999999998200, 3.625000000000000000, 0.0000000000000000000 ) ) ;
#627 = ORIENTED_EDGE ( 'NONE', *, *, #158, .T. ) ;
#628 = EDGE_CURVE ( 'NONE', #1061, #482, #469, .T. ) ;
#629 = CARTESIAN_POINT ( 'NONE',  ( 0.0000000000000000000, 0.0000000000000000000, 12.50000000000000000 ) ) ;
#630 = ORIENTED_EDGE ( 'NONE', *, *, #909, .T. ) ;
#631 = EDGE_CURVE ( 'NONE', #247, #775, #154, .T. ) ;
#632 = DIRECTION ( 'NONE',  ( -0.0000000000000000000, -0.0000000000000000000, 1.000000000000000000 ) ) ;
#633 = FACE_OUTER_BOUND ( 'NONE', #166, .T. ) ;
#634 = DIRECTION ( 'NONE',  ( -0.0000000000000000000, 1.000000000000000000, -0.0000000000000000000 ) ) ;
#635 = LINE ( 'NONE', #832, #867 ) ;
#636 = CARTESIAN_POINT ( 'NONE',  ( -2.500000000000000000, -6.925000000000000700, 9.000000000000000000 ) ) ;
#637 = ORIENTED_EDGE ( 'NONE', *, *, #364, .T. ) ;
#638 = EDGE_LOOP ( 'NONE', ( #19, #1094, #332, #612 ) ) ;
#639 = ORIENTED_EDGE ( 'NONE', *, *, #893, .T. ) ;
#640 = EDGE_CURVE ( 'NONE', #220, #408, #548, .T. ) ;
#641 = VECTOR ( 'NONE', #21, 1000.000000000000000 ) ;
#642 = DIRECTION ( 'NONE',  ( -0.0000000000000000000, -0.0000000000000000000, -1.000000000000000000 ) ) ;
#643 = AXIS2_PLACEMENT_3D ( 'NONE', #534, #1003, #263 ) ;
#644 =( NAMED_UNIT ( * ) PLANE_ANGLE_UNIT ( ) SI_UNIT ( $, .RADIAN. ) );
#645 = ORIENTED_EDGE ( 'NONE', *, *, #992, .F. ) ;
#646 = EDGE_CURVE ( 'NONE', #533, #82, #614, .T. ) ;
#647 = CIRCLE ( 'NONE', #83, 0.5000000000000000000 ) ;
#648 = CARTESIAN_POINT ( 'NONE',  ( 2.250000000000000400, -3.625000000000000400, 5.199999999999998400 ) ) ;
#649 = PERSON_AND_ORGANIZATION ( #925, #1129 ) ;
#650 = DIRECTION ( 'NONE',  ( -0.0000000000000000000, -1.000000000000000000, -0.0000000000000000000 ) ) ;
#651 = FACE_OUTER_BOUND ( 'NONE', #906, .T. ) ;
#652 = ORIENTED_EDGE ( 'NONE', *, *, #145, .F. ) ;
#653 = DIRECTION ( 'NONE',  ( 0.0000000000000000000, 0.0000000000000000000, 1.000000000000000000 ) ) ;
#654 = DIRECTION ( 'NONE',  ( -0.0000000000000000000, 1.000000000000000000, -0.0000000000000000000 ) ) ;
#655 = ORIENTED_EDGE ( 'NONE', *, *, #515, .T. ) ;
#656 = CARTESIAN_POINT ( 'NONE',  ( 0.0000000000000000000, 0.0000000000000000000, 12.50000000000000000 ) ) ;
#657 = ORIENTED_EDGE ( 'NONE', *, *, #142, .T. ) ;
#658 = ORIENTED_EDGE ( 'NONE', *, *, #358, .T. ) ;
#659 = AXIS2_PLACEMENT_3D ( 'NONE', #656, #625, #1082 ) ;
#660 = FACE_OUTER_BOUND ( 'NONE', #831, .T. ) ;
#661 = EDGE_CURVE ( 'NONE', #520, #10, #845, .T. ) ;
#662 = LINE ( 'NONE', #965, #933 ) ;
#663 = APPROVAL_PERSON_ORGANIZATION ( #591, #368, #946 ) ;
#664 = CARTESIAN_POINT ( 'NONE',  ( 2.500000000000000000, -3.625000000000000400, 9.000000000000000000 ) ) ;
#665 = ORIENTED_EDGE ( 'NONE', *, *, #305, .F. ) ;
#666 = DIRECTION ( 'NONE',  ( 0.0000000000000000000, 0.0000000000000000000, -1.000000000000000000 ) ) ;
#667 = AXIS2_PLACEMENT_3D ( 'NONE', #411, #705, #235 ) ;
#668 = EDGE_CURVE ( 'NONE', #138, #103, #349, .T. ) ;
#669 = CARTESIAN_POINT ( 'NONE',  ( 3.149999999999999900, -6.925000000000000700, 3.159999999999999700 ) ) ;
#670 = EDGE_LOOP ( 'NONE', ( #340, #1056, #405 ) ) ;
#671 = CARTESIAN_POINT ( 'NONE',  ( -4.250000000000000000, -3.625000000000000400, 9.000000000000000000 ) ) ;
#672 = ADVANCED_FACE ( 'NONE', ( #680 ), #495, .T. ) ;
#673 = DIRECTION ( 'NONE',  ( 0.0000000000000000000, -1.000000000000000000, 0.0000000000000000000 ) ) ;
#674 = ADVANCED_FACE ( 'NONE', ( #1057 ), #781, .T. ) ;
#675 = DIRECTION ( 'NONE',  ( 0.0000000000000000000, 1.000000000000000000, 0.0000000000000000000 ) ) ;
#676 = CIRCLE ( 'NONE', #730, 0.5000000000000013300 ) ;
#677 = APPLICATION_CONTEXT ( 'configuration controlled 3d designs of mechanical parts and assemblies' ) ;
#678 = EDGE_CURVE ( 'NONE', #247, #884, #940, .T. ) ;
#679 = COORDINATED_UNIVERSAL_TIME_OFFSET ( 10, 0, .AHEAD. ) ;
#680 = FACE_OUTER_BOUND ( 'NONE', #696, .T. ) ;
#681 = DIRECTION ( 'NONE',  ( 0.0000000000000000000, 0.0000000000000000000, 1.000000000000000000 ) ) ;
#682 = ORIENTED_EDGE ( 'NONE', *, *, #84, .T. ) ;
#683 = ORIENTED_EDGE ( 'NONE', *, *, #243, .T. ) ;
#684 = ADVANCED_FACE ( 'NONE', ( #848 ), #74, .T. ) ;
#685 = CARTESIAN_POINT ( 'NONE',  ( -3.149999999999999900, -6.925000000000000700, 2.659999999999999300 ) ) ;
#686 = AXIS2_PLACEMENT_3D ( 'NONE', #669, #402, #922 ) ;
#687 = CARTESIAN_POINT ( 'NONE',  ( 3.149999999999999900, -6.925000000000000700, 3.159999999999999700 ) ) ;
#688 = EDGE_CURVE ( 'NONE', #502, #953, #979, .T. ) ;
#689 = ADVANCED_FACE ( 'NONE', ( #309 ), #995, .T. ) ;
#690 = APPROVAL_PERSON_ORGANIZATION ( #419, #393, #491 ) ;
#691 = EDGE_CURVE ( 'NONE', #998, #1106, #1008, .T. ) ;
#692 = ORIENTED_EDGE ( 'NONE', *, *, #102, .F. ) ;
#693 = CIRCLE ( 'NONE', #487, 0.5000000000000007800 ) ;
#694 = CARTESIAN_POINT ( 'NONE',  ( 2.500000000000000000, -3.625000000000000400, 9.000000000000000000 ) ) ;
#695 = CIRCLE ( 'NONE', #763, 0.5000000000000013300 ) ;
#696 = EDGE_LOOP ( 'NONE', ( #171, #957, #224, #682, #707 ) ) ;
#697 = CARTESIAN_POINT ( 'NONE',  ( 3.149999999999999900, -3.625000000000000400, 3.660000000000000100 ) ) ;
#698 = DIRECTION ( 'NONE',  ( 1.000000000000000000, 0.0000000000000000000, 0.0000000000000000000 ) ) ;
#699 = CARTESIAN_POINT ( 'NONE',  ( -4.250000000000001800, 3.625000000000000000, 9.000000000000000000 ) ) ;
#700 = DIRECTION ( 'NONE',  ( -0.0000000000000000000, 1.000000000000000000, -0.0000000000000000000 ) ) ;
#701 = CARTESIAN_POINT ( 'NONE',  ( -3.625000000000000000, 0.0000000000000000000, 12.50000000000000000 ) ) ;
#702 = CIRCLE ( 'NONE', #378, 2.500000000000000000 ) ;
#703 = APPROVAL_DATE_TIME ( #107, #15 ) ;
#704 = AXIS2_PLACEMENT_3D ( 'NONE', #618, #453, #58 ) ;
#705 = DIRECTION ( 'NONE',  ( -0.0000000000000000000, 1.000000000000000000, -0.0000000000000000000 ) ) ;
#706 = FACE_BOUND ( 'NONE', #871, .T. ) ;
#707 = ORIENTED_EDGE ( 'NONE', *, *, #317, .T. ) ;
#708 = EDGE_CURVE ( 'NONE', #244, #199, #578, .T. ) ;
#709 = EDGE_CURVE ( 'NONE', #531, #502, #279, .T. ) ;
#710 = DIRECTION ( 'NONE',  ( 0.0000000000000000000, 0.0000000000000000000, 1.000000000000000000 ) ) ;
#711 = CARTESIAN_POINT ( 'NONE',  ( 3.149999999999999900, -6.925000000000000700, 3.660000000000000100 ) ) ;
#712 = VECTOR ( 'NONE', #885, 1000.000000000000000 ) ;
#713 = CARTESIAN_POINT ( 'NONE',  ( -2.250000000000000000, -3.625000000000000400, 1.119999999999999000 ) ) ;
#714 = FACE_OUTER_BOUND ( 'NONE', #556, .T. ) ;
#715 = CARTESIAN_POINT ( 'NONE',  ( -2.500000000000000000, -3.625000000000000400, 9.000000000000000000 ) ) ;
#716 = ORIENTED_EDGE ( 'NONE', *, *, #176, .F. ) ;
#717 = EDGE_CURVE ( 'NONE', #971, #1017, #1118, .T. ) ;
#718 = CARTESIAN_POINT ( 'NONE',  ( 4.250000000000000000, -3.625000000000000400, 9.000000000000000000 ) ) ;
#719 = ORIENTED_EDGE ( 'NONE', *, *, #35, .T. ) ;
#720 = DIRECTION ( 'NONE',  ( 0.0000000000000000000, -0.0000000000000000000, -1.000000000000000000 ) ) ;
#721 = VERTEX_POINT ( 'NONE', #1005 ) ;
#722 = CARTESIAN_POINT ( 'NONE',  ( 0.0000000000000000000, 0.0000000000000000000, 12.50000000000000000 ) ) ;
#723 = CARTESIAN_POINT ( 'NONE',  ( 1.999999999999999100, -3.625000000000000400, 9.000000000000000000 ) ) ;
#724 = ORIENTED_EDGE ( 'NONE', *, *, #646, .T. ) ;
#725 = CARTESIAN_POINT ( 'NONE',  ( 0.0000000000000000000, 0.0000000000000000000, 12.50000000000000000 ) ) ;
#726 = EDGE_CURVE ( 'NONE', #408, #199, #196, .T. ) ;
#727 = DIRECTION ( 'NONE',  ( -0.0000000000000000000, 1.000000000000000000, -0.0000000000000000000 ) ) ;
#728 = VERTEX_POINT ( 'NONE', #318 ) ;
#729 = CARTESIAN_POINT ( 'NONE',  ( -2.500000000000000000, -6.925000000000000700, 9.000000000000000000 ) ) ;
#730 = AXIS2_PLACEMENT_3D ( 'NONE', #1077, #941, #825 ) ;
#731 = DIRECTION ( 'NONE',  ( 0.0000000000000000000, 0.0000000000000000000, 1.000000000000000000 ) ) ;
#732 = DIRECTION ( 'NONE',  ( 1.000000000000000000, 0.0000000000000000000, 0.0000000000000000000 ) ) ;
#733 = FACE_OUTER_BOUND ( 'NONE', #955, .T. ) ;
#734 = CIRCLE ( 'NONE', #241, 0.5000000000000004400 ) ;
#735 = CYLINDRICAL_SURFACE ( 'NONE', #245, 0.5000000000000000000 ) ;
#736 = CARTESIAN_POINT ( 'NONE',  ( -3.149999999999999900, -6.925000000000000700, 3.159999999999999700 ) ) ;
#737 = CARTESIAN_POINT ( 'NONE',  ( -4.250000000000001800, 3.625000000000000000, 9.000000000000000000 ) ) ;
#738 = ORIENTED_EDGE ( 'NONE', *, *, #38, .T. ) ;
#739 = DIRECTION ( 'NONE',  ( 0.0000000000000000000, -1.000000000000000000, 0.0000000000000000000 ) ) ;
#740 = AXIS2_PLACEMENT_3D ( 'NONE', #507, #752, #459 ) ;
#741 = CYLINDRICAL_SURFACE ( 'NONE', #564, 0.5000000000000013300 ) ;
#742 = DIRECTION ( 'NONE',  ( -0.0000000000000000000, 1.000000000000000000, -0.0000000000000000000 ) ) ;
#743 = DIRECTION ( 'NONE',  ( 0.0000000000000000000, -1.000000000000000000, 0.0000000000000000000 ) ) ;
#744 = DIRECTION ( 'NONE',  ( 0.0000000000000000000, -1.000000000000000000, 0.0000000000000000000 ) ) ;
#745 = LINE ( 'NONE', #826, #437 ) ;
#746 = DIRECTION ( 'NONE',  ( 0.0000000000000000000, -1.000000000000000000, 0.0000000000000000000 ) ) ;
#747 = AXIS2_PLACEMENT_3D ( 'NONE', #725, #295, #496 ) ;
#748 = ORIENTED_EDGE ( 'NONE', *, *, #628, .T. ) ;
#749 = EDGE_LOOP ( 'NONE', ( #518, #473 ) ) ;
#750 = EDGE_CURVE ( 'NONE', #594, #1092, #889, .T. ) ;
#751 = CARTESIAN_POINT ( 'NONE',  ( 4.249999999999998200, 3.625000000000000000, 0.0000000000000000000 ) ) ;
#752 = DIRECTION ( 'NONE',  ( 0.0000000000000000000, 0.0000000000000000000, 1.000000000000000000 ) ) ;
#753 = VECTOR ( 'NONE', #162, 1000.000000000000000 ) ;
#754 = APPROVAL_DATE_TIME ( #377, #393 ) ;
#755 = ORIENTED_EDGE ( 'NONE', *, *, #38, .F. ) ;
#756 = DIRECTION ( 'NONE',  ( -0.0000000000000000000, 1.000000000000000000, -0.0000000000000000000 ) ) ;
#757 = ORIENTED_EDGE ( 'NONE', *, *, #293, .T. ) ;
#758 = FACE_BOUND ( 'NONE', #929, .T. ) ;
#759 = ADVANCED_FACE ( 'NONE', ( #470 ), #46, .T. ) ;
#760 = LINE ( 'NONE', #1018, #1096 ) ;
#761 = CARTESIAN_POINT ( 'NONE',  ( 2.250000000000000400, -6.925000000000000700, 0.1199999999999982600 ) ) ;
#762 = VECTOR ( 'NONE', #908, 1000.000000000000000 ) ;
#763 = AXIS2_PLACEMENT_3D ( 'NONE', #189, #385, #561 ) ;
#764 = EDGE_CURVE ( 'NONE', #103, #138, #851, .T. ) ;
#765 = ADVANCED_FACE ( 'NONE', ( #651 ), #250, .T. ) ;
#766 = DIRECTION ( 'NONE',  ( 0.0000000000000000000, -0.0000000000000000000, 1.000000000000000000 ) ) ;
#767 = DIRECTION ( 'NONE',  ( -0.0000000000000000000, -0.0000000000000000000, -1.000000000000000000 ) ) ;
#768 = CARTESIAN_POINT ( 'NONE',  ( -2.500000000000000000, -3.625000000000000400, 9.500000000000000000 ) ) ;
#769 = CARTESIAN_POINT ( 'NONE',  ( -1.999999999999999600, -3.625000000000000400, 9.000000000000000000 ) ) ;
#770 = DIRECTION ( 'NONE',  ( -0.0000000000000000000, -1.000000000000000000, -0.0000000000000000000 ) ) ;
#771 = CARTESIAN_POINT ( 'NONE',  ( -4.250000000000001800, 3.625000000000000000, 9.000000000000000000 ) ) ;
#772 = DIRECTION ( 'NONE',  ( 0.0000000000000000000, 0.0000000000000000000, -1.000000000000000000 ) ) ;
#773 = ADVANCED_FACE ( 'NONE', ( #616 ), #1026, .T. ) ;
#774 = CARTESIAN_POINT ( 'NONE',  ( -2.250000000000000000, -6.925000000000000700, 5.699999999999999300 ) ) ;
#775 = VERTEX_POINT ( 'NONE', #962 ) ;
#776 = EDGE_CURVE ( 'NONE', #953, #502, #527, .T. ) ;
#777 = CARTESIAN_POINT ( 'NONE',  ( 2.500000000000000000, -3.625000000000000400, 9.000000000000000000 ) ) ;
#778 = EDGE_CURVE ( 'NONE', #838, #594, #617, .T. ) ;
#779 = CARTESIAN_POINT ( 'NONE',  ( -3.000000000000000400, -3.625000000000000400, 9.000000000000000000 ) ) ;
#780 = CARTESIAN_POINT ( 'NONE',  ( 2.250000000000000400, -6.925000000000000700, 6.200000000000001100 ) ) ;
#781 = CYLINDRICAL_SURFACE ( 'NONE', #956, 0.5000000000000004400 ) ;
#782 = COORDINATED_UNIVERSAL_TIME_OFFSET ( 10, 0, .AHEAD. ) ;
#783 = CARTESIAN_POINT ( 'NONE',  ( -2.250000000000000000, -6.925000000000000700, 0.6199999999999990000 ) ) ;
#784 = FACE_OUTER_BOUND ( 'NONE', #861, .T. ) ;
#785 = LINE ( 'NONE', #751, #873 ) ;
#786 = CARTESIAN_POINT ( 'NONE',  ( 4.249999999999998200, 3.625000000000000000, 9.000000000000000000 ) ) ;
#787 = ORIENTED_EDGE ( 'NONE', *, *, #364, .F. ) ;
#788 = DIRECTION ( 'NONE',  ( 0.0000000000000000000, -1.000000000000000000, 0.0000000000000000000 ) ) ;
#789 = ORIENTED_EDGE ( 'NONE', *, *, #60, .T. ) ;
#790 = PLANE ( 'NONE',  #643 ) ;
#791 = ORIENTED_EDGE ( 'NONE', *, *, #1058, .F. ) ;
#792 = EDGE_LOOP ( 'NONE', ( #958, #610 ) ) ;
#793 = CARTESIAN_POINT ( 'NONE',  ( 2.500000000000000000, -6.925000000000000700, 9.500000000000000000 ) ) ;
#794 = AXIS2_PLACEMENT_3D ( 'NONE', #330, #746, #266 ) ;
#795 = VECTOR ( 'NONE', #447, 1000.000000000000000 ) ;
#796 = DIRECTION ( 'NONE',  ( 0.0000000000000000000, 0.0000000000000000000, 1.000000000000000000 ) ) ;
#797 = CARTESIAN_POINT ( 'NONE',  ( -3.625000000000000000, 0.0000000000000000000, 9.000000000000000000 ) ) ;
#798 = EDGE_CURVE ( 'NONE', #10, #112, #785, .T. ) ;
#799 = CIRCLE ( 'NONE', #1093, 0.5000000000000004400 ) ;
#800 = VERTEX_POINT ( 'NONE', #768 ) ;
#801 = DIRECTION ( 'NONE',  ( 0.0000000000000000000, 0.0000000000000000000, 1.000000000000000000 ) ) ;
#802 = VERTEX_POINT ( 'NONE', #1066 ) ;
#803 = DIRECTION ( 'NONE',  ( 0.0000000000000000000, 0.0000000000000000000, -1.000000000000000000 ) ) ;
#804 = EDGE_LOOP ( 'NONE', ( #1120, #563 ) ) ;
#805 = ORIENTED_EDGE ( 'NONE', *, *, #776, .F. ) ;
#806 = CARTESIAN_POINT ( 'NONE',  ( 4.250000000000000000, -3.625000000000000400, 0.0000000000000000000 ) ) ;
#807 = AXIS2_PLACEMENT_3D ( 'NONE', #959, #829, #1119 ) ;
#808 = DIRECTION ( 'NONE',  ( 2.392722035830078500E-016, -1.000000000000000000, 0.0000000000000000000 ) ) ;
#809 = EDGE_CURVE ( 'NONE', #82, #800, #282, .T. ) ;
#810 = DIRECTION ( 'NONE',  ( 1.000000000000000000, 0.0000000000000000000, 0.0000000000000000000 ) ) ;
#811 = ORIENTED_EDGE ( 'NONE', *, *, #293, .F. ) ;
#812 = CARTESIAN_POINT ( 'NONE',  ( -3.149999999999999900, -3.625000000000000400, 3.159999999999999700 ) ) ;
#813 = VECTOR ( 'NONE', #1053, 1000.000000000000000 ) ;
#814 = LOCAL_TIME ( 16, 49, 20.00000000000000000, #575 ) ;
#815 = FACE_OUTER_BOUND ( 'NONE', #513, .T. ) ;
#816 = EDGE_CURVE ( 'NONE', #560, #1092, #647, .T. ) ;
#817 = APPLICATION_PROTOCOL_DEFINITION ( 'international standard', 'config_control_design', 1994, #677 ) ;
#818 = CYLINDRICAL_SURFACE ( 'NONE', #52, 0.5000000000000008900 ) ;
#819 = CARTESIAN_POINT ( 'NONE',  ( -2.500000000000000000, -6.925000000000000700, 9.000000000000000000 ) ) ;
#820 = EDGE_LOOP ( 'NONE', ( #898, #465, #637, #932, #598 ) ) ;
#821 = DIRECTION ( 'NONE',  ( -0.0000000000000000000, 1.000000000000000000, -0.0000000000000000000 ) ) ;
#822 = ORIENTED_EDGE ( 'NONE', *, *, #668, .T. ) ;
#823 = AXIS2_PLACEMENT_3D ( 'NONE', #475, #468, #985 ) ;
#824 = ORIENTED_EDGE ( 'NONE', *, *, #628, .F. ) ;
#825 = DIRECTION ( 'NONE',  ( 0.0000000000000000000, 0.0000000000000000000, -1.000000000000000000 ) ) ;
#826 = CARTESIAN_POINT ( 'NONE',  ( 2.250000000000000400, -6.925000000000000700, 6.200000000000001100 ) ) ;
#827 = DIRECTION ( 'NONE',  ( 0.0000000000000000000, 0.0000000000000000000, 1.000000000000000000 ) ) ;
#828 = FACE_OUTER_BOUND ( 'NONE', #1130, .T. ) ;
#829 = DIRECTION ( 'NONE',  ( 0.0000000000000000000, -1.000000000000000000, 0.0000000000000000000 ) ) ;
#830 = CARTESIAN_POINT ( 'NONE',  ( -3.149999999999999900, -3.625000000000000400, 2.659999999999999300 ) ) ;
#831 = EDGE_LOOP ( 'NONE', ( #43, #1105, #499, #70 ) ) ;
#832 = CARTESIAN_POINT ( 'NONE',  ( 2.500000000000000000, -6.925000000000000700, 8.499999999999998200 ) ) ;
#833 = EDGE_CURVE ( 'NONE', #721, #33, #943, .T. ) ;
#834 = CARTESIAN_POINT ( 'NONE',  ( -2.250000000000000000, -6.925000000000000700, 0.6199999999999990000 ) ) ;
#835 = PRODUCT_DEFINITION_SHAPE ( 'NONE', 'NONE',  #387 ) ;
#836 = ORIENTED_EDGE ( 'NONE', *, *, #904, .F. ) ;
#837 = ORIENTED_EDGE ( 'NONE', *, *, #764, .T. ) ;
#838 = VERTEX_POINT ( 'NONE', #372 ) ;
#839 = CARTESIAN_POINT ( 'NONE',  ( 0.0000000000000000000, 0.0000000000000000000, 9.000000000000000000 ) ) ;
#840 = LINE ( 'NONE', #256, #369 ) ;
#841 = CARTESIAN_POINT ( 'NONE',  ( -4.250000000000000000, -3.625000000000000400, 9.000000000000000000 ) ) ;
#842 = DIRECTION ( 'NONE',  ( -0.0000000000000000000, -1.000000000000000000, -0.0000000000000000000 ) ) ;
#843 = ORIENTED_EDGE ( 'NONE', *, *, #161, .F. ) ;
#844 = ADVANCED_FACE ( 'NONE', ( #633 ), #735, .T. ) ;
#845 = LINE ( 'NONE', #951, #1013 ) ;
#846 = PLANE ( 'NONE',  #352 ) ;
#847 = CIRCLE ( 'NONE', #255, 0.5000000000000004400 ) ;
#848 = FACE_OUTER_BOUND ( 'NONE', #879, .T. ) ;
#849 = DIRECTION ( 'NONE',  ( 0.0000000000000000000, 0.0000000000000000000, -1.000000000000000000 ) ) ;
#850 = DIRECTION ( 'NONE',  ( -0.0000000000000000000, -1.000000000000000000, -0.0000000000000000000 ) ) ;
#851 = CIRCLE ( 'NONE', #659, 2.500000000000000000 ) ;
#852 = CARTESIAN_POINT ( 'NONE',  ( -2.250000000000000000, -6.925000000000000700, 1.119999999999999000 ) ) ;
#853 = ADVANCED_FACE ( 'NONE', ( #1069 ), #77, .T. ) ;
#854 = CARTESIAN_POINT ( 'NONE',  ( 2.250000000000000400, -6.925000000000000700, 0.1199999999999982600 ) ) ;
#855 = DIRECTION ( 'NONE',  ( 0.0000000000000000000, -1.000000000000000000, 0.0000000000000000000 ) ) ;
#856 = AXIS2_PLACEMENT_3D ( 'NONE', #1016, #362, #225 ) ;
#857 = CIRCLE ( 'NONE', #505, 3.625000000000000000 ) ;
#858 = PLANE ( 'NONE',  #807 ) ;
#859 = PLANE ( 'NONE',  #1136 ) ;
#860 = ADVANCED_FACE ( 'NONE', ( #391 ), #320, .T. ) ;
#861 = EDGE_LOOP ( 'NONE', ( #116, #822, #1067, #843 ) ) ;
#862 = EDGE_CURVE ( 'NONE', #1106, #482, #607, .T. ) ;
#863 = CIRCLE ( 'NONE', #1142, 0.4999999999999995600 ) ;
#864 = DIRECTION ( 'NONE',  ( 0.0000000000000000000, 0.0000000000000000000, 1.000000000000000000 ) ) ;
#865 = VECTOR ( 'NONE', #700, 1000.000000000000000 ) ;
#866 = CIRCLE ( 'NONE', #937, 3.625000000000000000 ) ;
#867 = VECTOR ( 'NONE', #260, 1000.000000000000000 ) ;
#868 = CARTESIAN_POINT ( 'NONE',  ( -2.250000000000000000, -6.925000000000000700, 5.699999999999999300 ) ) ;
#869 = ORIENTED_EDGE ( 'NONE', *, *, #750, .F. ) ;
#870 = DIRECTION ( 'NONE',  ( 0.0000000000000000000, 0.0000000000000000000, 1.000000000000000000 ) ) ;
#871 = EDGE_LOOP ( 'NONE', ( #805, #111 ) ) ;
#872 = CARTESIAN_POINT ( 'NONE',  ( -4.250000000000000000, -3.625000000000000400, 9.000000000000000000 ) ) ;
#873 = VECTOR ( 'NONE', #808, 1000.000000000000000 ) ;
#874 = AXIS2_PLACEMENT_3D ( 'NONE', #934, #901, #666 ) ;
#875 = DIRECTION ( 'NONE',  ( 0.0000000000000000000, 0.0000000000000000000, 1.000000000000000000 ) ) ;
#876 = FACE_BOUND ( 'NONE', #23, .T. ) ;
#877 = EDGE_LOOP ( 'NONE', ( #449, #85, #521, #1032, #755, #555, #192 ) ) ;
#878 = CARTESIAN_POINT ( 'NONE',  ( 0.0000000000000000000, 0.0000000000000000000, 0.0000000000000000000 ) ) ;
#879 = EDGE_LOOP ( 'NONE', ( #1146, #276, #600, #511 ) ) ;
#880 = DIRECTION ( 'NONE',  ( 1.000000000000000000, 0.0000000000000000000, 0.0000000000000000000 ) ) ;
#881 = MECHANICAL_CONTEXT ( 'NONE', #587, 'mechanical' ) ;
#882 = DIRECTION ( 'NONE',  ( -0.0000000000000000000, -0.0000000000000000000, -1.000000000000000000 ) ) ;
#883 = DIRECTION ( 'NONE',  ( -0.0000000000000000000, -1.000000000000000000, -0.0000000000000000000 ) ) ;
#884 = VERTEX_POINT ( 'NONE', #723 ) ;
#885 = DIRECTION ( 'NONE',  ( -0.0000000000000000000, 1.000000000000000000, -0.0000000000000000000 ) ) ;
#886 = AXIS2_PLACEMENT_3D ( 'NONE', #218, #120, #114 ) ;
#887 = ORIENTED_EDGE ( 'NONE', *, *, #726, .T. ) ;
#888 = ORIENTED_EDGE ( 'NONE', *, *, #54, .F. ) ;
#889 = LINE ( 'NONE', #17, #458 ) ;
#890 = CARTESIAN_POINT ( 'NONE',  ( 3.149999999999999900, -6.925000000000000700, 3.159999999999999700 ) ) ;
#891 = AXIS2_PLACEMENT_3D ( 'NONE', #687, #61, #720 ) ;
#892 = CARTESIAN_POINT ( 'NONE',  ( 3.149999999999999900, -6.925000000000000700, 2.659999999999999300 ) ) ;
#893 = EDGE_CURVE ( 'NONE', #501, #971, #635, .T. ) ;
#894 = ORIENTED_EDGE ( 'NONE', *, *, #717, .F. ) ;
#895 = LINE ( 'NONE', #168, #3 ) ;
#896 = FACE_OUTER_BOUND ( 'NONE', #963, .T. ) ;
#897 = VECTOR ( 'NONE', #375, 1000.000000000000000 ) ;
#898 = ORIENTED_EDGE ( 'NONE', *, *, #661, .F. ) ;
#899 = DIRECTION ( 'NONE',  ( -0.0000000000000000000, -1.000000000000000000, -0.0000000000000000000 ) ) ;
#900 = LINE ( 'NONE', #366, #1128 ) ;
#901 = DIRECTION ( 'NONE',  ( 0.0000000000000000000, -1.000000000000000000, 0.0000000000000000000 ) ) ;
#902 = DIRECTION ( 'NONE',  ( -1.000000000000000000, 0.0000000000000000000, 0.0000000000000000000 ) ) ;
#903 = AXIS2_PLACEMENT_3D ( 'NONE', #446, #201, #167 ) ;
#904 = EDGE_CURVE ( 'NONE', #990, #351, #143, .T. ) ;
#905 = APPROVAL_STATUS ( 'not_yet_approved' ) ;
#906 = EDGE_LOOP ( 'NONE', ( #400, #1108, #91, #645 ) ) ;
#907 = CYLINDRICAL_SURFACE ( 'NONE', #524, 2.500000000000000000 ) ;
#908 = DIRECTION ( 'NONE',  ( -0.0000000000000000000, -0.0000000000000000000, -1.000000000000000000 ) ) ;
#909 = EDGE_CURVE ( 'NONE', #351, #262, #429, .T. ) ;
#910 = DATE_AND_TIME ( #920, #984 ) ;
#911 = FACE_OUTER_BOUND ( 'NONE', #209, .T. ) ;
#912 = EDGE_CURVE ( 'NONE', #531, #294, #693, .T. ) ;
#913 = DIRECTION ( 'NONE',  ( -0.0000000000000000000, 1.000000000000000000, -0.0000000000000000000 ) ) ;
#914 = VECTOR ( 'NONE', #1112, 1000.000000000000000 ) ;
#915 = CARTESIAN_POINT ( 'NONE',  ( 2.500000000000000000, 0.0000000000000000000, 12.50000000000000000 ) ) ;
#916 =( NAMED_UNIT ( * ) SI_UNIT ( $, .STERADIAN. ) SOLID_ANGLE_UNIT ( ) );
#917 = CARTESIAN_POINT ( 'NONE',  ( 2.500000000000000000, -3.625000000000000400, 9.000000000000000000 ) ) ;
#918 = CIRCLE ( 'NONE', #1028, 0.5000000000000004400 ) ;
#919 = CARTESIAN_POINT ( 'NONE',  ( 2.250000000000000400, -6.925000000000000700, 5.699999999999999300 ) ) ;
#920 = CALENDAR_DATE ( 2018, 14, 11 ) ;
#921 = ADVANCED_FACE ( 'NONE', ( #1131 ), #1046, .T. ) ;
#922 = DIRECTION ( 'NONE',  ( 0.0000000000000000000, 0.0000000000000000000, 1.000000000000000000 ) ) ;
#923 = CLOSED_SHELL ( 'NONE', ( #765, #844, #506, #29, #853, #921, #674, #316, #1080, #321, #135, #498, #1074, #931, #421, #689, #860, #16, #230, #331, #930, #510, #217, #597, #672, #988, #1068, #684, #128, #417, #773, #759, #993, #590, #22, #583, #999, #226, #117 ) ) ;
#924 = DIRECTION ( 'NONE',  ( 0.0000000000000000000, -0.0000000000000000000, -1.000000000000000000 ) ) ;
#925 = PERSON ( 'UNSPECIFIED', 'UNSPECIFIED', 'UNSPECIFIED', ('UNSPECIFIED'), ('UNSPECIFIED'), ('UNSPECIFIED') ) ;
#926 = AXIS2_PLACEMENT_3D ( 'NONE', #208, #1062, #1152 ) ;
#927 = VERTEX_POINT ( 'NONE', #14 ) ;
#928 = CARTESIAN_POINT ( 'NONE',  ( -3.149999999999999900, -6.925000000000000700, 3.159999999999999700 ) ) ;
#929 = EDGE_LOOP ( 'NONE', ( #100, #1102 ) ) ;
#930 = ADVANCED_FACE ( 'NONE', ( #156 ), #202, .T. ) ;
#931 = ADVANCED_FACE ( 'NONE', ( #706, #312, #441, #876, #1104, #758, #815 ), #30, .F. ) ;
#932 = ORIENTED_EDGE ( 'NONE', *, *, #137, .T. ) ;
#933 = VECTOR ( 'NONE', #756, 1000.000000000000000 ) ;
#934 = CARTESIAN_POINT ( 'NONE',  ( 2.250000000000000400, -6.925000000000000700, 0.6199999999999990000 ) ) ;
#935 = FACE_OUTER_BOUND ( 'NONE', #792, .T. ) ;
#936 = AXIS2_PLACEMENT_3D ( 'NONE', #812, #883, #827 ) ;
#937 = AXIS2_PLACEMENT_3D ( 'NONE', #466, #360, #732 ) ;
#938 = DIRECTION ( 'NONE',  ( 0.0000000000000000000, -1.000000000000000000, 0.0000000000000000000 ) ) ;
#939 = CIRCLE ( 'NONE', #254, 0.5000000000000004400 ) ;
#940 = LINE ( 'NONE', #464, #307 ) ;
#941 = DIRECTION ( 'NONE',  ( 0.0000000000000000000, -1.000000000000000000, 0.0000000000000000000 ) ) ;
#942 = EDGE_LOOP ( 'NONE', ( #395, #1022, #497, #757 ) ) ;
#943 = LINE ( 'NONE', #425, #964 ) ;
#944 = EDGE_LOOP ( 'NONE', ( #1015, #1037 ) ) ;
#945 = LINE ( 'NONE', #737, #407 ) ;
#946 = APPROVAL_ROLE ( '' ) ;
#947 = CARTESIAN_POINT ( 'NONE',  ( 4.249999999999998200, 3.625000000000000000, 9.000000000000000000 ) ) ;
#948 = CARTESIAN_POINT ( 'NONE',  ( -3.149999999999999900, -6.925000000000000700, 3.660000000000000100 ) ) ;
#949 = DIRECTION ( 'NONE',  ( -0.0000000000000000000, 0.0000000000000000000, 1.000000000000000000 ) ) ;
#950 = AXIS2_PLACEMENT_3D ( 'NONE', #1147, #842, #681 ) ;
#951 = CARTESIAN_POINT ( 'NONE',  ( -4.250000000000001800, 3.625000000000000000, 0.0000000000000000000 ) ) ;
#952 = EDGE_CURVE ( 'NONE', #33, #82, #918, .T. ) ;
#953 = VERTEX_POINT ( 'NONE', #36 ) ;
#954 = DIRECTION ( 'NONE',  ( 2.392722035830078500E-016, -1.000000000000000000, 0.0000000000000000000 ) ) ;
#955 = EDGE_LOOP ( 'NONE', ( #1089, #7, #683, #483, #431 ) ) ;
#956 = AXIS2_PLACEMENT_3D ( 'NONE', #472, #359, #178 ) ;
#957 = ORIENTED_EDGE ( 'NONE', *, *, #463, .F. ) ;
#958 = ORIENTED_EDGE ( 'NONE', *, *, #89, .T. ) ;
#959 = CARTESIAN_POINT ( 'NONE',  ( -2.500000000000000000, -3.625000000000000400, 9.000000000000000000 ) ) ;
#960 = FACE_OUTER_BOUND ( 'NONE', #942, .T. ) ;
#961 = LOCAL_TIME ( 16, 49, 20.00000000000000000, #782 ) ;
#962 = CARTESIAN_POINT ( 'NONE',  ( 3.625000000000000000, 4.439344646909155000E-016, 9.000000000000000000 ) ) ;
#963 = EDGE_LOOP ( 'NONE', ( #353, #195 ) ) ;
#964 = VECTOR ( 'NONE', #418, 1000.000000000000000 ) ;
#965 = CARTESIAN_POINT ( 'NONE',  ( -2.500000000000000000, -6.925000000000000700, 9.500000000000000000 ) ) ;
#966 = ORIENTED_EDGE ( 'NONE', *, *, #833, .F. ) ;
#967 = CARTESIAN_POINT ( 'NONE',  ( 0.0000000000000000000, 0.0000000000000000000, 0.0000000000000000000 ) ) ;
#968 = ORIENTED_EDGE ( 'NONE', *, *, #646, .F. ) ;
#969 = DIRECTION ( 'NONE',  ( -0.0000000000000000000, 1.000000000000000000, -0.0000000000000000000 ) ) ;
#970 = AXIS2_PLACEMENT_3D ( 'NONE', #819, #328, #90 ) ;
#971 = VERTEX_POINT ( 'NONE', #500 ) ;
#972 = ORIENTED_EDGE ( 'NONE', *, *, #912, .T. ) ;
#973 = CARTESIAN_POINT ( 'NONE',  ( 0.0000000000000000000, 0.0000000000000000000, 16.50000000000000000 ) ) ;
#974 = DIRECTION ( 'NONE',  ( 1.000000000000000000, 0.0000000000000000000, 0.0000000000000000000 ) ) ;
#975 = DIRECTION ( 'NONE',  ( 0.0000000000000000000, -0.0000000000000000000, 1.000000000000000000 ) ) ;
#976 = ADVANCED_BREP_SHAPE_REPRESENTATION ( 'Switch', ( #476, #121 ), #146 ) ;
#977 = DIRECTION ( 'NONE',  ( -2.392722035830078500E-016, 1.000000000000000000, 0.0000000000000000000 ) ) ;
#978 = ORIENTED_EDGE ( 'NONE', *, *, #60, .F. ) ;
#979 = CIRCLE ( 'NONE', #950, 0.5000000000000008900 ) ;
#980 = CALENDAR_DATE ( 2018, 14, 11 ) ;
#981 = DIRECTION ( 'NONE',  ( -0.0000000000000000000, 1.000000000000000000, -0.0000000000000000000 ) ) ;
#982 = EDGE_LOOP ( 'NONE', ( #538, #164 ) ) ;
#983 = AXIS2_PLACEMENT_3D ( 'NONE', #928, #270, #285 ) ;
#984 = LOCAL_TIME ( 16, 49, 20.00000000000000000, #108 ) ;
#985 = DIRECTION ( 'NONE',  ( 1.000000000000000000, 0.0000000000000000000, -0.0000000000000000000 ) ) ;
#986 = CIRCLE ( 'NONE', #412, 3.625000000000000000 ) ;
#987 = CARTESIAN_POINT ( 'NONE',  ( -2.250000000000000000, -3.625000000000000400, 5.699999999999999300 ) ) ;
#988 = ADVANCED_FACE ( 'NONE', ( #1033 ), #467, .T. ) ;
#989 = FACE_OUTER_BOUND ( 'NONE', #274, .T. ) ;
#990 = VERTEX_POINT ( 'NONE', #452 ) ;
#991 = DIRECTION ( 'NONE',  ( 0.0000000000000000000, 0.0000000000000000000, -1.000000000000000000 ) ) ;
#992 = EDGE_CURVE ( 'NONE', #294, #953, #248, .T. ) ;
#993 = ADVANCED_FACE ( 'NONE', ( #1126 ), #173, .T. ) ;
#994 = ORIENTED_EDGE ( 'NONE', *, *, #203, .F. ) ;
#995 = PLANE ( 'NONE',  #26 ) ;
#996 = DIRECTION ( 'NONE',  ( 0.0000000000000000000, -0.0000000000000000000, -1.000000000000000000 ) ) ;
#997 = ORIENTED_EDGE ( 'NONE', *, *, #145, .T. ) ;
#998 = VERTEX_POINT ( 'NONE', #892 ) ;
#999 = ADVANCED_FACE ( 'NONE', ( #379 ), #846, .T. ) ;
#1000 = EDGE_CURVE ( 'NONE', #721, #728, #734, .T. ) ;
#1001 = ORIENTED_EDGE ( 'NONE', *, *, #1007, .T. ) ;
#1002 = AXIS2_PLACEMENT_3D ( 'NONE', #834, #291, #32 ) ;
#1003 = DIRECTION ( 'NONE',  ( 0.0000000000000000000, -1.000000000000000000, 0.0000000000000000000 ) ) ;
#1004 = ORIENTED_EDGE ( 'NONE', *, *, #63, .T. ) ;
#1005 = CARTESIAN_POINT ( 'NONE',  ( -2.500000000000000000, -6.925000000000000700, 8.499999999999998200 ) ) ;
#1006 = DIRECTION ( 'NONE',  ( 2.392722035830078500E-016, -1.000000000000000000, 0.0000000000000000000 ) ) ;
#1007 = EDGE_CURVE ( 'NONE', #262, #351, #939, .T. ) ;
#1008 = CIRCLE ( 'NONE', #1113, 0.5000000000000004400 ) ;
#1009 = PERSON_AND_ORGANIZATION ( #925, #1129 ) ;
#1010 = CIRCLE ( 'NONE', #334, 0.5000000000000004400 ) ;
#1011 = CARTESIAN_POINT ( 'NONE',  ( -4.250000000000001800, 3.625000000000000000, 9.000000000000000000 ) ) ;
#1012 = CYLINDRICAL_SURFACE ( 'NONE', #926, 3.625000000000000000 ) ;
#1013 = VECTOR ( 'NONE', #264, 1000.000000000000000 ) ;
#1014 = CARTESIAN_POINT ( 'NONE',  ( 2.500000000000000000, -6.925000000000000700, 9.000000000000000000 ) ) ;
#1015 = ORIENTED_EDGE ( 'NONE', *, *, #708, .F. ) ;
#1016 = CARTESIAN_POINT ( 'NONE',  ( 3.149999999999999900, -6.925000000000000700, 3.159999999999999700 ) ) ;
#1017 = VERTEX_POINT ( 'NONE', #559 ) ;
#1018 = CARTESIAN_POINT ( 'NONE',  ( 4.249999999999998200, 3.625000000000000000, 9.000000000000000000 ) ) ;
#1019 = VERTEX_POINT ( 'NONE', #577 ) ;
#1020 = AXIS2_PLACEMENT_3D ( 'NONE', #461, #1040, #342 ) ;
#1021 = CIRCLE ( 'NONE', #454, 0.5000000000000004400 ) ;
#1022 = ORIENTED_EDGE ( 'NONE', *, *, #515, .F. ) ;
#1023 = EDGE_LOOP ( 'NONE', ( #811, #824 ) ) ;
#1024 = CARTESIAN_POINT ( 'NONE',  ( 2.250000000000000400, -6.925000000000000700, 5.199999999999998400 ) ) ;
#1025 = FACE_OUTER_BOUND ( 'NONE', #982, .T. ) ;
#1026 = PLANE ( 'NONE',  #303 ) ;
#1027 = VERTEX_POINT ( 'NONE', #786 ) ;
#1028 = AXIS2_PLACEMENT_3D ( 'NONE', #474, #479, #455 ) ;
#1029 = ORIENTED_EDGE ( 'NONE', *, *, #96, .T. ) ;
#1030 = CARTESIAN_POINT ( 'NONE',  ( -4.250000000000000000, -3.625000000000000400, 9.000000000000000000 ) ) ;
#1031 = CYLINDRICAL_SURFACE ( 'NONE', #80, 0.5000000000000004400 ) ;
#1032 = ORIENTED_EDGE ( 'NONE', *, *, #568, .T. ) ;
#1033 = FACE_OUTER_BOUND ( 'NONE', #516, .T. ) ;
#1034 = ORIENTED_EDGE ( 'NONE', *, *, #152, .F. ) ;
#1035 = PLANE ( 'NONE',  #265 ) ;
#1036 = AXIS2_PLACEMENT_3D ( 'NONE', #280, #882, #902 ) ;
#1037 = ORIENTED_EDGE ( 'NONE', *, *, #236, .F. ) ;
#1038 = AXIS2_PLACEMENT_3D ( 'NONE', #326, #363, #514 ) ;
#1039 = CYLINDRICAL_SURFACE ( 'NONE', #390, 2.500000000000000000 ) ;
#1040 = DIRECTION ( 'NONE',  ( -0.0000000000000000000, 0.0000000000000000000, 1.000000000000000000 ) ) ;
#1041 = VERTEX_POINT ( 'NONE', #223 ) ;
#1042 = CARTESIAN_POINT ( 'NONE',  ( 2.500000000000000000, 0.0000000000000000000, 16.50000000000000000 ) ) ;
#1043 = EDGE_CURVE ( 'NONE', #520, #927, #522, .T. ) ;
#1044 = CARTESIAN_POINT ( 'NONE',  ( 3.149999999999999900, -3.625000000000000400, 2.659999999999999300 ) ) ;
#1045 = DATE_TIME_ROLE ( 'creation_date' ) ;
#1046 = CYLINDRICAL_SURFACE ( 'NONE', #406, 0.4999999999999995600 ) ;
#1047 = LINE ( 'NONE', #699, #119 ) ;
#1048 = CARTESIAN_POINT ( 'NONE',  ( -4.250000000000001800, 3.625000000000000000, 0.0000000000000000000 ) ) ;
#1049 = LINE ( 'NONE', #624, #795 ) ;
#1050 = DIRECTION ( 'NONE',  ( 0.0000000000000000000, -1.000000000000000000, 0.0000000000000000000 ) ) ;
#1051 = AXIS2_PLACEMENT_3D ( 'NONE', #183, #1099, #24 ) ;
#1052 = ORIENTED_EDGE ( 'NONE', *, *, #337, .F. ) ;
#1053 = DIRECTION ( 'NONE',  ( -0.0000000000000000000, -0.0000000000000000000, 1.000000000000000000 ) ) ;
#1054 = EDGE_CURVE ( 'NONE', #927, #112, #895, .T. ) ;
#1055 = EDGE_LOOP ( 'NONE', ( #836, #536, #134, #1001 ) ) ;
#1056 = ORIENTED_EDGE ( 'NONE', *, *, #84, .F. ) ;
#1057 = FACE_OUTER_BOUND ( 'NONE', #49, .T. ) ;
#1058 = EDGE_CURVE ( 'NONE', #103, #313, #489, .T. ) ;
#1059 = ORIENTED_EDGE ( 'NONE', *, *, #904, .T. ) ;
#1060 = FACE_OUTER_BOUND ( 'NONE', #670, .T. ) ;
#1061 = VERTEX_POINT ( 'NONE', #1044 ) ;
#1062 = DIRECTION ( 'NONE',  ( -0.0000000000000000000, -0.0000000000000000000, -1.000000000000000000 ) ) ;
#1063 = ORIENTED_EDGE ( 'NONE', *, *, #374, .T. ) ;
#1064 = ORIENTED_EDGE ( 'NONE', *, *, #584, .F. ) ;
#1065 = DIRECTION ( 'NONE',  ( 0.0000000000000000000, 0.0000000000000000000, -1.000000000000000000 ) ) ;
#1066 = CARTESIAN_POINT ( 'NONE',  ( -2.250000000000000000, -3.625000000000000400, 5.200000000000000200 ) ) ;
#1067 = ORIENTED_EDGE ( 'NONE', *, *, #1058, .T. ) ;
#1068 = ADVANCED_FACE ( 'NONE', ( #1060 ), #193, .F. ) ;
#1069 = FACE_OUTER_BOUND ( 'NONE', #239, .T. ) ;
#1070 = DIRECTION ( 'NONE',  ( 0.0000000000000000000, -0.0000000000000000000, -1.000000000000000000 ) ) ;
#1071 = DIRECTION ( 'NONE',  ( -0.0000000000000000000, 1.000000000000000000, -0.0000000000000000000 ) ) ;
#1072 = CARTESIAN_POINT ( 'NONE',  ( 2.500000000000000000, -3.625000000000000400, 9.000000000000000000 ) ) ;
#1073 = CALENDAR_DATE ( 2018, 14, 11 ) ;
#1074 = ADVANCED_FACE ( 'NONE', ( #41 ), #335, .F. ) ;
#1075 = LINE ( 'NONE', #68, #712 ) ;
#1076 = ORIENTED_EDGE ( 'NONE', *, *, #463, .T. ) ;
#1077 = CARTESIAN_POINT ( 'NONE',  ( 2.250000000000000400, -6.925000000000000700, 5.699999999999999300 ) ) ;
#1078 = ORIENTED_EDGE ( 'NONE', *, *, #605, .F. ) ;
#1079 = DIRECTION ( 'NONE',  ( 0.0000000000000000000, -0.0000000000000000000, -1.000000000000000000 ) ) ;
#1080 = ADVANCED_FACE ( 'NONE', ( #552 ), #907, .T. ) ;
#1081 = EDGE_CURVE ( 'NONE', #1092, #560, #347, .T. ) ;
#1082 = DIRECTION ( 'NONE',  ( 1.000000000000000000, 0.0000000000000000000, 0.0000000000000000000 ) ) ;
#1083 = ORIENTED_EDGE ( 'NONE', *, *, #798, .F. ) ;
#1084 = CALENDAR_DATE ( 2018, 14, 11 ) ;
#1085 = EDGE_LOOP ( 'NONE', ( #837, #478, #1078, #791 ) ) ;
#1086 = VERTEX_POINT ( 'NONE', #174 ) ;
#1087 = VECTOR ( 'NONE', #238, 1000.000000000000000 ) ;
#1088 = AXIS2_PLACEMENT_3D ( 'NONE', #841, #1150, #975 ) ;
#1089 = ORIENTED_EDGE ( 'NONE', *, *, #484, .F. ) ;
#1090 = DIRECTION ( 'NONE',  ( 0.0000000000000000000, 0.0000000000000000000, 1.000000000000000000 ) ) ;
#1091 = VECTOR ( 'NONE', #810, 1000.000000000000000 ) ;
#1092 = VERTEX_POINT ( 'NONE', #118 ) ;
#1093 = AXIS2_PLACEMENT_3D ( 'NONE', #592, #314, #1065 ) ;
#1094 = ORIENTED_EDGE ( 'NONE', *, *, #358, .F. ) ;
#1095 = CARTESIAN_POINT ( 'NONE',  ( 3.149999999999999900, -3.625000000000000400, 3.159999999999999700 ) ) ;
#1096 = VECTOR ( 'NONE', #532, 1000.000000000000000 ) ;
#1097 = LINE ( 'NONE', #872, #251 ) ;
#1098 = VECTOR ( 'NONE', #954, 1000.000000000000000 ) ;
#1099 = DIRECTION ( 'NONE',  ( -0.0000000000000000000, 1.000000000000000000, -0.0000000000000000000 ) ) ;
#1100 = PERSON_AND_ORGANIZATION_ROLE ( 'creator' ) ;
#1101 = DIRECTION ( 'NONE',  ( -0.0000000000000000000, -0.0000000000000000000, -1.000000000000000000 ) ) ;
#1102 = ORIENTED_EDGE ( 'NONE', *, *, #1117, .F. ) ;
#1103 = ORIENTED_EDGE ( 'NONE', *, *, #344, .F. ) ;
#1104 = FACE_BOUND ( 'NONE', #944, .T. ) ;
#1105 = ORIENTED_EDGE ( 'NONE', *, *, #661, .T. ) ;
#1106 = VERTEX_POINT ( 'NONE', #194 ) ;
#1107 = DIRECTION ( 'NONE',  ( 0.0000000000000000000, -1.000000000000000000, 0.0000000000000000000 ) ) ;
#1108 = ORIENTED_EDGE ( 'NONE', *, *, #709, .T. ) ;
#1109 = AXIS2_PLACEMENT_3D ( 'NONE', #153, #240, #93 ) ;
#1110 = CYLINDRICAL_SURFACE ( 'NONE', #686, 0.5000000000000004400 ) ;
#1111 = AXIS2_PLACEMENT_3D ( 'NONE', #37, #292, #253 ) ;
#1112 = DIRECTION ( 'NONE',  ( 1.000000000000000000, 0.0000000000000000000, 0.0000000000000000000 ) ) ;
#1113 = AXIS2_PLACEMENT_3D ( 'NONE', #588, #415, #322 ) ;
#1114 = ORIENTED_EDGE ( 'NONE', *, *, #200, .T. ) ;
#1115 = DIRECTION ( 'NONE',  ( 0.0000000000000000000, 0.0000000000000000000, 1.000000000000000000 ) ) ;
#1116 = DIRECTION ( 'NONE',  ( 1.000000000000000000, 0.0000000000000000000, 0.0000000000000000000 ) ) ;
#1117 = EDGE_CURVE ( 'NONE', #802, #1143, #574, .T. ) ;
#1118 = CIRCLE ( 'NONE', #542, 0.5000000000000004400 ) ;
#1119 = DIRECTION ( 'NONE',  ( 0.0000000000000000000, -0.0000000000000000000, -1.000000000000000000 ) ) ;
#1120 = ORIENTED_EDGE ( 'NONE', *, *, #764, .F. ) ;
#1121 = DIRECTION ( 'NONE',  ( 0.0000000000000000000, 0.0000000000000000000, 1.000000000000000000 ) ) ;
#1122 = EDGE_CURVE ( 'NONE', #594, #838, #216, .T. ) ;
#1123 = ORIENTED_EDGE ( 'NONE', *, *, #1000, .F. ) ;
#1124 = ORIENTED_EDGE ( 'NONE', *, *, #161, .T. ) ;
#1125 = DIRECTION ( 'NONE',  ( -0.0000000000000000000, 1.000000000000000000, -0.0000000000000000000 ) ) ;
#1126 = FACE_OUTER_BOUND ( 'NONE', #283, .T. ) ;
#1127 = APPROVAL_STATUS ( 'not_yet_approved' ) ;
#1128 = VECTOR ( 'NONE', #151, 1000.000000000000000 ) ;
#1129 = ORGANIZATION ( 'UNSPECIFIED', 'UNSPECIFIED', '' ) ;
#1130 = EDGE_LOOP ( 'NONE', ( #655, #64 ) ) ;
#1131 = FACE_OUTER_BOUND ( 'NONE', #428, .T. ) ;
#1132 = DIRECTION ( 'NONE',  ( 0.0000000000000000000, 0.0000000000000000000, 1.000000000000000000 ) ) ;
#1133 = ORIENTED_EDGE ( 'NONE', *, *, #726, .F. ) ;
#1134 = ORIENTED_EDGE ( 'NONE', *, *, #1122, .F. ) ;
#1135 = ORIENTED_EDGE ( 'NONE', *, *, #1007, .F. ) ;
#1136 = AXIS2_PLACEMENT_3D ( 'NONE', #306, #579, #977 ) ;
#1137 = ORIENTED_EDGE ( 'NONE', *, *, #243, .F. ) ;
#1138 = EDGE_CURVE ( 'NONE', #138, #361, #509, .T. ) ;
#1139 = DIRECTION ( 'NONE',  ( 0.0000000000000000000, -1.000000000000000000, 0.0000000000000000000 ) ) ;
#1140 = PLANE ( 'NONE',  #398 ) ;
#1141 = DIRECTION ( 'NONE',  ( 1.000000000000000000, 0.0000000000000000000, -0.0000000000000000000 ) ) ;
#1142 = AXIS2_PLACEMENT_3D ( 'NONE', #110, #1050, #450 ) ;
#1143 = VERTEX_POINT ( 'NONE', #257 ) ;
#1144 = EDGE_CURVE ( 'NONE', #775, #420, #603, .T. ) ;
#1145 = DIRECTION ( 'NONE',  ( 0.0000000000000000000, 0.0000000000000000000, 1.000000000000000000 ) ) ;
#1146 = ORIENTED_EDGE ( 'NONE', *, *, #200, .F. ) ;
#1147 = CARTESIAN_POINT ( 'NONE',  ( 2.250000000000000400, -3.625000000000000400, 0.6199999999999990000 ) ) ;
#1148 = CIRCLE ( 'NONE', #512, 0.5000000000000004400 ) ;
#1149 = VECTOR ( 'NONE', #399, 1000.000000000000000 ) ;
#1150 = DIRECTION ( 'NONE',  ( 0.0000000000000000000, 1.000000000000000000, 0.0000000000000000000 ) ) ;
#1151 = APPROVAL_ROLE ( '' ) ;
#1152 = DIRECTION ( 'NONE',  ( -1.000000000000000000, 0.0000000000000000000, 0.0000000000000000000 ) ) ;
#1153 = EDGE_LOOP ( 'NONE', ( #300, #622 ) ) ;
#1154 = APPROVAL_STATUS ( 'not_yet_approved' ) ;
#1155 = DIRECTION ( 'NONE',  ( -0.0000000000000000000, 0.0000000000000000000, 1.000000000000000000 ) ) ;
#1156 = AXIS2_PLACEMENT_3D ( 'NONE', #589, #434, #1070 ) ;
#1157 = DATE_TIME_ROLE ( 'classification_date' ) ;
ENDSEC;
END-ISO-10303-21;
